127.0.0.1 - - [24/Nov/2014:11:49:57 +0900] "GET / HTTP/1.1" 404 1019
0:0:0:0:0:0:0:1 - - [24/Nov/2014:11:49:58 +0900] "GET /PaintBBS/DrawServlet HTTP/1.1" 200 -
127.0.0.1 - - [24/Nov/2014:13:26:56 +0900] "GET / HTTP/1.1" 404 1019
0:0:0:0:0:0:0:1 - - [24/Nov/2014:13:26:56 +0900] "GET /PaintBBS/DrawServlet HTTP/1.1" 200 39
0:0:0:0:0:0:0:1 - - [24/Nov/2014:13:27:08 +0900] "GET /PaintBBS/DrawServlet HTTP/1.1" 200 39
127.0.0.1 - - [24/Nov/2014:13:27:55 +0900] "GET / HTTP/1.1" 404 1019
0:0:0:0:0:0:0:1 - - [24/Nov/2014:13:27:56 +0900] "GET /PaintBBS/DrawServlet HTTP/1.1" 200 39
127.0.0.1 - - [24/Nov/2014:13:29:32 +0900] "GET / HTTP/1.1" 404 1019
0:0:0:0:0:0:0:1 - - [24/Nov/2014:13:29:33 +0900] "GET /PaintBBS/DrawServlet HTTP/1.1" 200 111
127.0.0.1 - - [24/Nov/2014:13:30:06 +0900] "GET / HTTP/1.1" 404 1019
0:0:0:0:0:0:0:1 - - [24/Nov/2014:13:30:06 +0900] "GET /PaintBBS/DrawServlet HTTP/1.1" 200 261
127.0.0.1 - - [24/Nov/2014:13:30:54 +0900] "GET / HTTP/1.1" 404 1019
0:0:0:0:0:0:0:1 - - [24/Nov/2014:13:30:55 +0900] "GET /PaintBBS/DrawServlet HTTP/1.1" 200 333
0:0:0:0:0:0:0:1 - - [24/Nov/2014:13:36:41 +0900] "GET /PaintBBS/DrawServlet HTTP/1.1" 200 333
127.0.0.1 - - [24/Nov/2014:13:37:29 +0900] "GET / HTTP/1.1" 404 1019
0:0:0:0:0:0:0:1 - - [24/Nov/2014:13:37:30 +0900] "GET /PaintBBS/DrawServlet HTTP/1.1" 200 76
127.0.0.1 - - [24/Nov/2014:13:46:19 +0900] "GET / HTTP/1.1" 404 1019
0:0:0:0:0:0:0:1 - - [24/Nov/2014:13:46:20 +0900] "GET /PaintBBS/DrawServlet HTTP/1.1" 200 39
127.0.0.1 - - [24/Nov/2014:13:46:43 +0900] "GET / HTTP/1.1" 404 1019
0:0:0:0:0:0:0:1 - - [24/Nov/2014:13:46:43 +0900] "GET /PaintBBS/DrawServlet HTTP/1.1" 200 333
127.0.0.1 - - [24/Nov/2014:13:47:12 +0900] "GET / HTTP/1.1" 404 1019
0:0:0:0:0:0:0:1 - - [24/Nov/2014:13:47:12 +0900] "GET /PaintBBS/DrawServlet HTTP/1.1" 200 333
0:0:0:0:0:0:0:1 - - [24/Nov/2014:13:47:21 +0900] "GET /PaintBBS/DrawServlet HTTP/1.1" 200 333
0:0:0:0:0:0:0:1 - - [24/Nov/2014:13:47:25 +0900] "GET /PaintBBS/DrawServlet HTTP/1.1" 200 333
127.0.0.1 - - [24/Nov/2014:13:47:44 +0900] "GET / HTTP/1.1" 404 1019
0:0:0:0:0:0:0:1 - - [24/Nov/2014:13:47:44 +0900] "GET /PaintBBS/DrawServlet HTTP/1.1" 200 333
0:0:0:0:0:0:0:1 - - [24/Nov/2014:14:12:27 +0900] "GET /PaintBBS/DrawServlet HTTP/1.1" 200 333
0:0:0:0:0:0:0:1 - - [24/Nov/2014:15:07:18 +0900] "GET /PaintBBS/DrawServlet HTTP/1.1" 200 333
0:0:0:0:0:0:0:1 - - [24/Nov/2014:15:47:05 +0900] "GET /PaintBBS/DrawServlet HTTP/1.1" 200 333
127.0.0.1 - - [24/Nov/2014:16:31:50 +0900] "GET / HTTP/1.1" 404 1019
0:0:0:0:0:0:0:1 - - [24/Nov/2014:16:31:50 +0900] "GET /PaintBBS/WEB-INF/jsp/ForwardIndex.jsp HTTP/1.1" 404 1017
0:0:0:0:0:0:0:1 - - [24/Nov/2014:16:32:02 +0900] "GET /PaintBBS/DrawServlet HTTP/1.1" 404 1091
127.0.0.1 - - [24/Nov/2014:16:32:25 +0900] "GET / HTTP/1.1" 404 1019
0:0:0:0:0:0:0:1 - - [24/Nov/2014:16:32:26 +0900] "GET /PaintBBS/DrawServlet HTTP/1.1" 200 173
127.0.0.1 - - [24/Nov/2014:16:33:00 +0900] "GET / HTTP/1.1" 404 1019
0:0:0:0:0:0:0:1 - - [24/Nov/2014:16:33:01 +0900] "GET /PaintBBS/DrawServlet HTTP/1.1" 200 177
127.0.0.1 - - [24/Nov/2014:16:33:42 +0900] "GET / HTTP/1.1" 404 1019
0:0:0:0:0:0:0:1 - - [24/Nov/2014:16:33:43 +0900] "GET /PaintBBS/DrawServlet HTTP/1.1" 200 173
127.0.0.1 - - [24/Nov/2014:16:35:25 +0900] "GET / HTTP/1.1" 404 1019
0:0:0:0:0:0:0:1 - - [24/Nov/2014:16:35:26 +0900] "GET /PaintBBS/DrawServlet HTTP/1.1" 200 173
127.0.0.1 - - [24/Nov/2014:16:37:23 +0900] "GET / HTTP/1.1" 404 1019
0:0:0:0:0:0:0:1 - - [24/Nov/2014:16:37:24 +0900] "GET /PaintBBS/DrawServlet HTTP/1.1" 200 173
127.0.0.1 - - [24/Nov/2014:16:41:22 +0900] "GET / HTTP/1.1" 404 1019
0:0:0:0:0:0:0:1 - - [24/Nov/2014:16:41:23 +0900] "GET /PaintBBS/DrawServlet HTTP/1.1" 200 174
127.0.0.1 - - [24/Nov/2014:16:42:48 +0900] "GET / HTTP/1.1" 404 1019
0:0:0:0:0:0:0:1 - - [24/Nov/2014:16:42:49 +0900] "GET /PaintBBS/DrawServlet HTTP/1.1" 200 174
127.0.0.1 - - [24/Nov/2014:16:56:26 +0900] "GET / HTTP/1.1" 404 1019
0:0:0:0:0:0:0:1 - - [24/Nov/2014:16:56:27 +0900] "GET /PaintBBS/DrawServlet HTTP/1.1" 200 174
127.0.0.1 - - [24/Nov/2014:16:57:50 +0900] "GET / HTTP/1.1" 404 1019
0:0:0:0:0:0:0:1 - - [24/Nov/2014:16:57:51 +0900] "GET /PaintBBS/WEB-INF/jsp/ForwardIndex.jsp HTTP/1.1" 404 1017
0:0:0:0:0:0:0:1 - - [24/Nov/2014:16:57:55 +0900] "GET /PaintBBS/DrawServlet HTTP/1.1" 500 6388
127.0.0.1 - - [24/Nov/2014:16:58:16 +0900] "GET / HTTP/1.1" 404 1019
0:0:0:0:0:0:0:1 - - [24/Nov/2014:16:58:17 +0900] "GET /PaintBBS/DrawServlet HTTP/1.1" 200 152
127.0.0.1 - - [24/Nov/2014:16:59:21 +0900] "GET / HTTP/1.1" 404 1019
0:0:0:0:0:0:0:1 - - [24/Nov/2014:16:59:22 +0900] "GET /PaintBBS/DrawServlet HTTP/1.1" 500 6388
127.0.0.1 - - [24/Nov/2014:17:00:29 +0900] "GET / HTTP/1.1" 404 1019
0:0:0:0:0:0:0:1 - - [24/Nov/2014:17:00:30 +0900] "GET /PaintBBS/DrawServlet HTTP/1.1" 500 6388
127.0.0.1 - - [24/Nov/2014:17:00:51 +0900] "GET / HTTP/1.1" 404 1019
0:0:0:0:0:0:0:1 - - [24/Nov/2014:17:00:52 +0900] "GET /PaintBBS/DrawServlet HTTP/1.1" 200 152
127.0.0.1 - - [24/Nov/2014:18:19:14 +0900] "GET / HTTP/1.1" 404 1019
0:0:0:0:0:0:0:1 - - [24/Nov/2014:18:19:15 +0900] "GET /PaintBBS/DrawServlet HTTP/1.1" 500 3960
127.0.0.1 - - [24/Nov/2014:18:19:38 +0900] "GET / HTTP/1.1" 404 1019
0:0:0:0:0:0:0:1 - - [24/Nov/2014:18:19:39 +0900] "GET /PaintBBS/DrawServlet HTTP/1.1" 200 182
127.0.0.1 - - [24/Nov/2014:18:20:28 +0900] "GET / HTTP/1.1" 404 1019
0:0:0:0:0:0:0:1 - - [24/Nov/2014:18:20:29 +0900] "GET /PaintBBS/DrawServlet HTTP/1.1" 500 3926
127.0.0.1 - - [24/Nov/2014:19:35:16 +0900] "GET / HTTP/1.1" 404 1019
0:0:0:0:0:0:0:1 - - [24/Nov/2014:19:35:16 +0900] "GET /PaintBBS/WEB-INF/Index.jsp HTTP/1.1" 404 1017
127.0.0.1 - - [24/Nov/2014:19:58:20 +0900] "GET / HTTP/1.1" 404 1019
0:0:0:0:0:0:0:1 - - [24/Nov/2014:19:58:20 +0900] "GET /PaintBBS/WEB-INF/jsp/ForwardIndex.jsp HTTP/1.1" 404 1017
0:0:0:0:0:0:0:1 - - [24/Nov/2014:19:58:24 +0900] "GET /PaintBBS/WEB-INF/Index.jsp HTTP/1.1" 404 1017
0:0:0:0:0:0:0:1 - - [24/Nov/2014:19:58:33 +0900] "GET /PaintBBS/DrawServlet HTTP/1.1" 200 182
0:0:0:0:0:0:0:1 - - [24/Nov/2014:19:58:50 +0900] "GET /PaintBBS/DrawServlet HTTP/1.1" 200 182
127.0.0.1 - - [24/Nov/2014:20:03:04 +0900] "GET / HTTP/1.1" 404 1019
0:0:0:0:0:0:0:1 - - [24/Nov/2014:20:03:05 +0900] "GET /PaintBBS/DrawServlet HTTP/1.1" 500 3947
127.0.0.1 - - [24/Nov/2014:20:12:21 +0900] "GET / HTTP/1.1" 404 1019
0:0:0:0:0:0:0:1 - - [24/Nov/2014:20:12:21 +0900] "GET /PaintBBS/WEB-INF/Index.jsp HTTP/1.1" 404 1017
0:0:0:0:0:0:0:1 - - [24/Nov/2014:20:12:28 +0900] "GET /PaintBBS/DrawServlet HTTP/1.1" 200 182
0:0:0:0:0:0:0:1 - - [24/Nov/2014:20:12:31 +0900] "GET /PaintBBS/DrawServlet HTTP/1.1" 200 182
0:0:0:0:0:0:0:1 - - [24/Nov/2014:22:25:38 +0900] "GET /PaintBBS/DrawServlet HTTP/1.1" 200 182
0:0:0:0:0:0:0:1 - - [24/Nov/2014:22:26:06 +0900] "GET /PaintBBS/WEB-INF/jsp/ForwardIndex.jsp HTTP/1.1" 404 1017
0:0:0:0:0:0:0:1 - - [24/Nov/2014:22:26:11 +0900] "GET /PaintBBS/DrawServlet HTTP/1.1" 200 182
