127.0.0.1 - - [07/Dec/2014:00:00:16 +0900] "GET / HTTP/1.1" 404 1019
0:0:0:0:0:0:0:1 - - [07/Dec/2014:00:00:16 +0900] "GET /PaintBBS/paint.jsp HTTP/1.1" 200 1112
0:0:0:0:0:0:0:1 - - [07/Dec/2014:00:00:17 +0900] "GET /PaintBBS/lib/images/ui-bg_glass_100_f6f6f6_1x400.png HTTP/1.1" 404 1123
0:0:0:0:0:0:0:1 - - [07/Dec/2014:00:00:17 +0900] "GET /PaintBBS/lib/images/ui-bg_gloss-wave_35_f6a828_500x100.png HTTP/1.1" 404 1135
0:0:0:0:0:0:0:1 - - [07/Dec/2014:00:00:19 +0900] "POST /PaintBBS/PostPaint HTTP/1.1" 200 -
127.0.0.1 - - [07/Dec/2014:00:02:01 +0900] "GET / HTTP/1.1" 404 1019
0:0:0:0:0:0:0:1 - - [07/Dec/2014:00:02:02 +0900] "GET /PaintBBS/paint.jsp HTTP/1.1" 200 1112
0:0:0:0:0:0:0:1 - - [07/Dec/2014:00:02:02 +0900] "GET /PaintBBS/lib/images/ui-bg_glass_100_f6f6f6_1x400.png HTTP/1.1" 404 1123
0:0:0:0:0:0:0:1 - - [07/Dec/2014:00:02:02 +0900] "GET /PaintBBS/lib/images/ui-bg_gloss-wave_35_f6a828_500x100.png HTTP/1.1" 404 1135
0:0:0:0:0:0:0:1 - - [07/Dec/2014:00:02:05 +0900] "POST /PaintBBS/PostPaint HTTP/1.1" 200 -
127.0.0.1 - - [07/Dec/2014:00:07:20 +0900] "GET / HTTP/1.1" 404 1019
0:0:0:0:0:0:0:1 - - [07/Dec/2014:00:07:21 +0900] "GET /PaintBBS/paint.jsp HTTP/1.1" 200 1112
0:0:0:0:0:0:0:1 - - [07/Dec/2014:00:07:21 +0900] "GET /PaintBBS/lib/images/ui-bg_glass_100_f6f6f6_1x400.png HTTP/1.1" 404 1123
0:0:0:0:0:0:0:1 - - [07/Dec/2014:00:07:21 +0900] "GET /PaintBBS/lib/images/ui-bg_gloss-wave_35_f6a828_500x100.png HTTP/1.1" 404 1135
0:0:0:0:0:0:0:1 - - [07/Dec/2014:00:07:23 +0900] "GET /PaintBBS/paint.jsp HTTP/1.1" 200 1112
0:0:0:0:0:0:0:1 - - [07/Dec/2014:00:07:23 +0900] "GET /PaintBBS/lib/jquery-ui.min.css HTTP/1.1" 304 -
0:0:0:0:0:0:0:1 - - [07/Dec/2014:00:07:23 +0900] "GET /PaintBBS/lib/jquery.simple-color-picker.css HTTP/1.1" 304 -
0:0:0:0:0:0:0:1 - - [07/Dec/2014:00:07:23 +0900] "GET /PaintBBS/lib/jquery.simple-color-picker.js HTTP/1.1" 304 -
0:0:0:0:0:0:0:1 - - [07/Dec/2014:00:07:23 +0900] "GET /PaintBBS/lib/jquery-ui.min.js HTTP/1.1" 304 -
0:0:0:0:0:0:0:1 - - [07/Dec/2014:00:07:23 +0900] "GET /PaintBBS/lib/jquery-2.1.1.min.js HTTP/1.1" 304 -
0:0:0:0:0:0:0:1 - - [07/Dec/2014:00:07:23 +0900] "GET /PaintBBS/js/paint.js HTTP/1.1" 304 -
0:0:0:0:0:0:0:1 - - [07/Dec/2014:00:07:23 +0900] "GET /PaintBBS/lib/images/ui-bg_glass_100_f6f6f6_1x400.png HTTP/1.1" 404 1123
0:0:0:0:0:0:0:1 - - [07/Dec/2014:00:07:23 +0900] "GET /PaintBBS/lib/images/ui-bg_gloss-wave_35_f6a828_500x100.png HTTP/1.1" 404 1135
0:0:0:0:0:0:0:1 - - [07/Dec/2014:00:07:24 +0900] "POST /PaintBBS/PostPaint HTTP/1.1" 200 -
127.0.0.1 - - [07/Dec/2014:00:07:49 +0900] "GET / HTTP/1.1" 404 1019
0:0:0:0:0:0:0:1 - - [07/Dec/2014:00:07:49 +0900] "GET /PaintBBS/paint.jsp HTTP/1.1" 200 1112
0:0:0:0:0:0:0:1 - - [07/Dec/2014:00:07:50 +0900] "GET /PaintBBS/lib/images/ui-bg_glass_100_f6f6f6_1x400.png HTTP/1.1" 404 1123
0:0:0:0:0:0:0:1 - - [07/Dec/2014:00:07:50 +0900] "GET /PaintBBS/lib/images/ui-bg_gloss-wave_35_f6a828_500x100.png HTTP/1.1" 404 1135
0:0:0:0:0:0:0:1 - - [07/Dec/2014:00:07:51 +0900] "GET /PaintBBS/paint.jsp HTTP/1.1" 200 1112
0:0:0:0:0:0:0:1 - - [07/Dec/2014:00:07:51 +0900] "GET /PaintBBS/lib/jquery-ui.min.css HTTP/1.1" 304 -
0:0:0:0:0:0:0:1 - - [07/Dec/2014:00:07:51 +0900] "GET /PaintBBS/lib/jquery.simple-color-picker.css HTTP/1.1" 304 -
0:0:0:0:0:0:0:1 - - [07/Dec/2014:00:07:51 +0900] "GET /PaintBBS/lib/jquery-2.1.1.min.js HTTP/1.1" 304 -
0:0:0:0:0:0:0:1 - - [07/Dec/2014:00:07:51 +0900] "GET /PaintBBS/lib/jquery.simple-color-picker.js HTTP/1.1" 304 -
0:0:0:0:0:0:0:1 - - [07/Dec/2014:00:07:51 +0900] "GET /PaintBBS/lib/jquery-ui.min.js HTTP/1.1" 304 -
0:0:0:0:0:0:0:1 - - [07/Dec/2014:00:07:51 +0900] "GET /PaintBBS/js/paint.js HTTP/1.1" 304 -
0:0:0:0:0:0:0:1 - - [07/Dec/2014:00:07:52 +0900] "GET /PaintBBS/lib/images/ui-bg_glass_100_f6f6f6_1x400.png HTTP/1.1" 404 1123
0:0:0:0:0:0:0:1 - - [07/Dec/2014:00:07:52 +0900] "GET /PaintBBS/lib/images/ui-bg_gloss-wave_35_f6a828_500x100.png HTTP/1.1" 404 1135
0:0:0:0:0:0:0:1 - - [07/Dec/2014:00:07:53 +0900] "POST /PaintBBS/PostPaint HTTP/1.1" 200 -
127.0.0.1 - - [07/Dec/2014:00:08:19 +0900] "GET / HTTP/1.1" 404 1019
0:0:0:0:0:0:0:1 - - [07/Dec/2014:00:08:19 +0900] "GET /PaintBBS/paint.jsp HTTP/1.1" 200 1112
0:0:0:0:0:0:0:1 - - [07/Dec/2014:00:08:19 +0900] "GET /PaintBBS/lib/images/ui-bg_gloss-wave_35_f6a828_500x100.png HTTP/1.1" 404 1135
0:0:0:0:0:0:0:1 - - [07/Dec/2014:00:08:19 +0900] "GET /PaintBBS/lib/images/ui-bg_glass_100_f6f6f6_1x400.png HTTP/1.1" 404 1123
0:0:0:0:0:0:0:1 - - [07/Dec/2014:00:08:20 +0900] "GET /PaintBBS/paint.jsp HTTP/1.1" 200 1112
0:0:0:0:0:0:0:1 - - [07/Dec/2014:00:08:20 +0900] "GET /PaintBBS/lib/jquery-ui.min.css HTTP/1.1" 304 -
0:0:0:0:0:0:0:1 - - [07/Dec/2014:00:08:20 +0900] "GET /PaintBBS/lib/jquery.simple-color-picker.css HTTP/1.1" 304 -
0:0:0:0:0:0:0:1 - - [07/Dec/2014:00:08:20 +0900] "GET /PaintBBS/lib/jquery.simple-color-picker.js HTTP/1.1" 304 -
0:0:0:0:0:0:0:1 - - [07/Dec/2014:00:08:20 +0900] "GET /PaintBBS/lib/jquery-2.1.1.min.js HTTP/1.1" 304 -
0:0:0:0:0:0:0:1 - - [07/Dec/2014:00:08:20 +0900] "GET /PaintBBS/lib/jquery-ui.min.js HTTP/1.1" 304 -
0:0:0:0:0:0:0:1 - - [07/Dec/2014:00:08:20 +0900] "GET /PaintBBS/js/paint.js HTTP/1.1" 304 -
0:0:0:0:0:0:0:1 - - [07/Dec/2014:00:08:20 +0900] "GET /PaintBBS/lib/images/ui-bg_gloss-wave_35_f6a828_500x100.png HTTP/1.1" 404 1135
0:0:0:0:0:0:0:1 - - [07/Dec/2014:00:08:20 +0900] "GET /PaintBBS/lib/images/ui-bg_glass_100_f6f6f6_1x400.png HTTP/1.1" 404 1123
0:0:0:0:0:0:0:1 - - [07/Dec/2014:00:08:22 +0900] "POST /PaintBBS/PostPaint HTTP/1.1" 200 -
127.0.0.1 - - [07/Dec/2014:00:10:31 +0900] "GET / HTTP/1.1" 404 1019
0:0:0:0:0:0:0:1 - - [07/Dec/2014:00:10:31 +0900] "GET /PaintBBS/paint.jsp HTTP/1.1" 200 1112
0:0:0:0:0:0:0:1 - - [07/Dec/2014:00:10:31 +0900] "GET /PaintBBS/lib/images/ui-bg_glass_100_f6f6f6_1x400.png HTTP/1.1" 404 1123
0:0:0:0:0:0:0:1 - - [07/Dec/2014:00:10:31 +0900] "GET /PaintBBS/lib/images/ui-bg_gloss-wave_35_f6a828_500x100.png HTTP/1.1" 404 1135
0:0:0:0:0:0:0:1 - - [07/Dec/2014:00:10:33 +0900] "GET /PaintBBS/paint.jsp HTTP/1.1" 200 1112
0:0:0:0:0:0:0:1 - - [07/Dec/2014:00:10:33 +0900] "GET /PaintBBS/lib/jquery-ui.min.css HTTP/1.1" 304 -
0:0:0:0:0:0:0:1 - - [07/Dec/2014:00:10:33 +0900] "GET /PaintBBS/lib/jquery.simple-color-picker.css HTTP/1.1" 304 -
0:0:0:0:0:0:0:1 - - [07/Dec/2014:00:10:33 +0900] "GET /PaintBBS/lib/jquery-2.1.1.min.js HTTP/1.1" 304 -
0:0:0:0:0:0:0:1 - - [07/Dec/2014:00:10:33 +0900] "GET /PaintBBS/lib/jquery.simple-color-picker.js HTTP/1.1" 304 -
0:0:0:0:0:0:0:1 - - [07/Dec/2014:00:10:33 +0900] "GET /PaintBBS/lib/jquery-ui.min.js HTTP/1.1" 304 -
0:0:0:0:0:0:0:1 - - [07/Dec/2014:00:10:33 +0900] "GET /PaintBBS/js/paint.js HTTP/1.1" 304 -
0:0:0:0:0:0:0:1 - - [07/Dec/2014:00:10:33 +0900] "GET /PaintBBS/lib/images/ui-bg_gloss-wave_35_f6a828_500x100.png HTTP/1.1" 404 1135
0:0:0:0:0:0:0:1 - - [07/Dec/2014:00:10:33 +0900] "GET /PaintBBS/lib/images/ui-bg_glass_100_f6f6f6_1x400.png HTTP/1.1" 404 1123
0:0:0:0:0:0:0:1 - - [07/Dec/2014:00:10:34 +0900] "GET /PaintBBS/lib/images/ui-bg_glass_100_fdf5ce_1x400.png HTTP/1.1" 404 1123
0:0:0:0:0:0:0:1 - - [07/Dec/2014:00:10:34 +0900] "POST /PaintBBS/PostPaint HTTP/1.1" 500 1540
127.0.0.1 - - [07/Dec/2014:00:12:42 +0900] "GET / HTTP/1.1" 404 1019
0:0:0:0:0:0:0:1 - - [07/Dec/2014:00:12:43 +0900] "GET /PaintBBS/paint.jsp HTTP/1.1" 200 1112
0:0:0:0:0:0:0:1 - - [07/Dec/2014:00:12:43 +0900] "GET /PaintBBS/lib/images/ui-bg_glass_100_f6f6f6_1x400.png HTTP/1.1" 404 1123
0:0:0:0:0:0:0:1 - - [07/Dec/2014:00:12:43 +0900] "GET /PaintBBS/lib/images/ui-bg_gloss-wave_35_f6a828_500x100.png HTTP/1.1" 404 1135
0:0:0:0:0:0:0:1 - - [07/Dec/2014:00:12:45 +0900] "GET /PaintBBS/paint.jsp HTTP/1.1" 200 1112
0:0:0:0:0:0:0:1 - - [07/Dec/2014:00:12:45 +0900] "GET /PaintBBS/lib/jquery.simple-color-picker.css HTTP/1.1" 304 -
0:0:0:0:0:0:0:1 - - [07/Dec/2014:00:12:45 +0900] "GET /PaintBBS/lib/jquery-ui.min.css HTTP/1.1" 304 -
0:0:0:0:0:0:0:1 - - [07/Dec/2014:00:12:45 +0900] "GET /PaintBBS/lib/jquery.simple-color-picker.js HTTP/1.1" 304 -
0:0:0:0:0:0:0:1 - - [07/Dec/2014:00:12:45 +0900] "GET /PaintBBS/lib/jquery-2.1.1.min.js HTTP/1.1" 304 -
0:0:0:0:0:0:0:1 - - [07/Dec/2014:00:12:45 +0900] "GET /PaintBBS/lib/jquery-ui.min.js HTTP/1.1" 304 -
0:0:0:0:0:0:0:1 - - [07/Dec/2014:00:12:45 +0900] "GET /PaintBBS/js/paint.js HTTP/1.1" 304 -
0:0:0:0:0:0:0:1 - - [07/Dec/2014:00:12:45 +0900] "GET /PaintBBS/lib/images/ui-bg_gloss-wave_35_f6a828_500x100.png HTTP/1.1" 404 1135
0:0:0:0:0:0:0:1 - - [07/Dec/2014:00:12:45 +0900] "GET /PaintBBS/lib/images/ui-bg_glass_100_f6f6f6_1x400.png HTTP/1.1" 404 1123
0:0:0:0:0:0:0:1 - - [07/Dec/2014:00:12:46 +0900] "POST /PaintBBS/PostPaint HTTP/1.1" 500 1540
127.0.0.1 - - [07/Dec/2014:00:15:04 +0900] "GET / HTTP/1.1" 404 1019
0:0:0:0:0:0:0:1 - - [07/Dec/2014:00:15:04 +0900] "GET /PaintBBS/paint.jsp HTTP/1.1" 200 1112
0:0:0:0:0:0:0:1 - - [07/Dec/2014:00:15:05 +0900] "GET /PaintBBS/lib/images/ui-bg_glass_100_f6f6f6_1x400.png HTTP/1.1" 404 1123
0:0:0:0:0:0:0:1 - - [07/Dec/2014:00:15:05 +0900] "GET /PaintBBS/lib/images/ui-bg_gloss-wave_35_f6a828_500x100.png HTTP/1.1" 404 1135
0:0:0:0:0:0:0:1 - - [07/Dec/2014:00:15:08 +0900] "GET /PaintBBS/paint.jsp HTTP/1.1" 200 1112
0:0:0:0:0:0:0:1 - - [07/Dec/2014:00:15:08 +0900] "GET /PaintBBS/lib/jquery-ui.min.css HTTP/1.1" 304 -
0:0:0:0:0:0:0:1 - - [07/Dec/2014:00:15:08 +0900] "GET /PaintBBS/lib/jquery.simple-color-picker.css HTTP/1.1" 304 -
0:0:0:0:0:0:0:1 - - [07/Dec/2014:00:15:08 +0900] "GET /PaintBBS/lib/jquery.simple-color-picker.js HTTP/1.1" 304 -
0:0:0:0:0:0:0:1 - - [07/Dec/2014:00:15:08 +0900] "GET /PaintBBS/lib/jquery-2.1.1.min.js HTTP/1.1" 304 -
0:0:0:0:0:0:0:1 - - [07/Dec/2014:00:15:08 +0900] "GET /PaintBBS/lib/jquery-ui.min.js HTTP/1.1" 304 -
0:0:0:0:0:0:0:1 - - [07/Dec/2014:00:15:08 +0900] "GET /PaintBBS/js/paint.js HTTP/1.1" 304 -
0:0:0:0:0:0:0:1 - - [07/Dec/2014:00:15:08 +0900] "GET /PaintBBS/lib/images/ui-bg_gloss-wave_35_f6a828_500x100.png HTTP/1.1" 404 1135
0:0:0:0:0:0:0:1 - - [07/Dec/2014:00:15:08 +0900] "GET /PaintBBS/lib/images/ui-bg_glass_100_f6f6f6_1x400.png HTTP/1.1" 404 1123
0:0:0:0:0:0:0:1 - - [07/Dec/2014:00:15:10 +0900] "POST /PaintBBS/PostPaint HTTP/1.1" 200 -
127.0.0.1 - - [07/Dec/2014:00:15:56 +0900] "GET / HTTP/1.1" 404 1019
0:0:0:0:0:0:0:1 - - [07/Dec/2014:00:15:57 +0900] "GET /PaintBBS/paint.jsp HTTP/1.1" 200 1112
0:0:0:0:0:0:0:1 - - [07/Dec/2014:00:15:57 +0900] "GET /PaintBBS/lib/images/ui-bg_glass_100_f6f6f6_1x400.png HTTP/1.1" 404 1123
0:0:0:0:0:0:0:1 - - [07/Dec/2014:00:15:57 +0900] "GET /PaintBBS/lib/images/ui-bg_gloss-wave_35_f6a828_500x100.png HTTP/1.1" 404 1135
0:0:0:0:0:0:0:1 - - [07/Dec/2014:00:16:06 +0900] "GET /PaintBBS/paint.jsp HTTP/1.1" 200 1112
0:0:0:0:0:0:0:1 - - [07/Dec/2014:00:16:06 +0900] "GET /PaintBBS/lib/jquery-ui.min.css HTTP/1.1" 304 -
0:0:0:0:0:0:0:1 - - [07/Dec/2014:00:16:06 +0900] "GET /PaintBBS/lib/jquery.simple-color-picker.css HTTP/1.1" 304 -
0:0:0:0:0:0:0:1 - - [07/Dec/2014:00:16:06 +0900] "GET /PaintBBS/lib/jquery-2.1.1.min.js HTTP/1.1" 304 -
0:0:0:0:0:0:0:1 - - [07/Dec/2014:00:16:06 +0900] "GET /PaintBBS/lib/jquery.simple-color-picker.js HTTP/1.1" 304 -
0:0:0:0:0:0:0:1 - - [07/Dec/2014:00:16:06 +0900] "GET /PaintBBS/lib/jquery-ui.min.js HTTP/1.1" 304 -
0:0:0:0:0:0:0:1 - - [07/Dec/2014:00:16:06 +0900] "GET /PaintBBS/js/paint.js HTTP/1.1" 304 -
0:0:0:0:0:0:0:1 - - [07/Dec/2014:00:16:06 +0900] "GET /PaintBBS/lib/images/ui-bg_glass_100_f6f6f6_1x400.png HTTP/1.1" 404 1123
0:0:0:0:0:0:0:1 - - [07/Dec/2014:00:16:06 +0900] "GET /PaintBBS/lib/images/ui-bg_gloss-wave_35_f6a828_500x100.png HTTP/1.1" 404 1135
0:0:0:0:0:0:0:1 - - [07/Dec/2014:00:16:08 +0900] "POST /PaintBBS/PostPaint HTTP/1.1" 200 -
0:0:0:0:0:0:0:1 - - [07/Dec/2014:00:25:56 +0900] "GET /PaintBBS/paint.jsp HTTP/1.1" 200 1114
0:0:0:0:0:0:0:1 - - [07/Dec/2014:00:25:56 +0900] "GET /PaintBBS/lib/images/ui-bg_glass_100_f6f6f6_1x400.png HTTP/1.1" 404 1123
0:0:0:0:0:0:0:1 - - [07/Dec/2014:00:25:56 +0900] "GET /PaintBBS/lib/images/ui-bg_gloss-wave_35_f6a828_500x100.png HTTP/1.1" 404 1135
0:0:0:0:0:0:0:1 - - [07/Dec/2014:00:25:57 +0900] "GET /PaintBBS/paint.jsp HTTP/1.1" 200 1114
0:0:0:0:0:0:0:1 - - [07/Dec/2014:00:25:57 +0900] "GET /PaintBBS/lib/jquery.simple-color-picker.css HTTP/1.1" 304 -
0:0:0:0:0:0:0:1 - - [07/Dec/2014:00:25:57 +0900] "GET /PaintBBS/lib/jquery-ui.min.css HTTP/1.1" 304 -
0:0:0:0:0:0:0:1 - - [07/Dec/2014:00:25:57 +0900] "GET /PaintBBS/lib/jquery-2.1.1.min.js HTTP/1.1" 304 -
0:0:0:0:0:0:0:1 - - [07/Dec/2014:00:25:57 +0900] "GET /PaintBBS/lib/jquery.simple-color-picker.js HTTP/1.1" 304 -
0:0:0:0:0:0:0:1 - - [07/Dec/2014:00:25:57 +0900] "GET /PaintBBS/lib/jquery-ui.min.js HTTP/1.1" 304 -
0:0:0:0:0:0:0:1 - - [07/Dec/2014:00:25:57 +0900] "GET /PaintBBS/js/paint.js HTTP/1.1" 304 -
0:0:0:0:0:0:0:1 - - [07/Dec/2014:00:25:57 +0900] "GET /PaintBBS/lib/images/ui-bg_glass_100_f6f6f6_1x400.png HTTP/1.1" 404 1123
0:0:0:0:0:0:0:1 - - [07/Dec/2014:00:25:57 +0900] "GET /PaintBBS/lib/images/ui-bg_gloss-wave_35_f6a828_500x100.png HTTP/1.1" 404 1135
0:0:0:0:0:0:0:1 - - [07/Dec/2014:00:26:03 +0900] "POST /PaintBBS/PostPaint HTTP/1.1" 200 -
127.0.0.1 - - [07/Dec/2014:00:34:11 +0900] "GET / HTTP/1.1" 404 1019
0:0:0:0:0:0:0:1 - - [07/Dec/2014:00:34:12 +0900] "GET /PaintBBS/paint.jsp HTTP/1.1" 200 1112
0:0:0:0:0:0:0:1 - - [07/Dec/2014:00:34:12 +0900] "GET /PaintBBS/lib/images/ui-bg_gloss-wave_35_f6a828_500x100.png HTTP/1.1" 404 1135
0:0:0:0:0:0:0:1 - - [07/Dec/2014:00:34:12 +0900] "GET /PaintBBS/lib/images/ui-bg_glass_100_f6f6f6_1x400.png HTTP/1.1" 404 1123
0:0:0:0:0:0:0:1 - - [07/Dec/2014:00:34:27 +0900] "GET /PaintBBS/paint.jsp HTTP/1.1" 200 1112
0:0:0:0:0:0:0:1 - - [07/Dec/2014:00:34:27 +0900] "GET /PaintBBS/lib/images/ui-bg_gloss-wave_35_f6a828_500x100.png HTTP/1.1" 404 1135
0:0:0:0:0:0:0:1 - - [07/Dec/2014:00:34:27 +0900] "GET /PaintBBS/lib/images/ui-bg_glass_100_f6f6f6_1x400.png HTTP/1.1" 404 1123
0:0:0:0:0:0:0:1 - - [07/Dec/2014:00:34:31 +0900] "GET /PaintBBS/lib/images/ui-bg_glass_100_fdf5ce_1x400.png HTTP/1.1" 404 1123
0:0:0:0:0:0:0:1 - - [07/Dec/2014:00:34:33 +0900] "POST /PaintBBS/PostPaint HTTP/1.1" 200 -
127.0.0.1 - - [07/Dec/2014:00:35:28 +0900] "GET / HTTP/1.1" 404 1019
0:0:0:0:0:0:0:1 - - [07/Dec/2014:00:35:29 +0900] "GET /PaintBBS/paint.jsp HTTP/1.1" 200 1112
0:0:0:0:0:0:0:1 - - [07/Dec/2014:00:35:29 +0900] "GET /PaintBBS/lib/images/ui-bg_glass_100_f6f6f6_1x400.png HTTP/1.1" 404 1123
0:0:0:0:0:0:0:1 - - [07/Dec/2014:00:35:29 +0900] "GET /PaintBBS/lib/images/ui-bg_gloss-wave_35_f6a828_500x100.png HTTP/1.1" 404 1135
0:0:0:0:0:0:0:1 - - [07/Dec/2014:00:35:34 +0900] "GET /PaintBBS/lib/images/ui-bg_glass_100_fdf5ce_1x400.png HTTP/1.1" 404 1123
0:0:0:0:0:0:0:1 - - [07/Dec/2014:00:35:35 +0900] "POST /PaintBBS/PostPaint HTTP/1.1" 200 -
127.0.0.1 - - [07/Dec/2014:01:03:34 +0900] "GET / HTTP/1.1" 404 1019
0:0:0:0:0:0:0:1 - - [07/Dec/2014:01:03:34 +0900] "GET /PaintBBS/paint.jsp HTTP/1.1" 200 1112
0:0:0:0:0:0:0:1 - - [07/Dec/2014:01:03:34 +0900] "GET /PaintBBS/lib/images/ui-bg_gloss-wave_35_f6a828_500x100.png HTTP/1.1" 404 1135
0:0:0:0:0:0:0:1 - - [07/Dec/2014:01:03:34 +0900] "GET /PaintBBS/lib/images/ui-bg_glass_100_f6f6f6_1x400.png HTTP/1.1" 404 1123
0:0:0:0:0:0:0:1 - - [07/Dec/2014:01:03:40 +0900] "POST /PaintBBS/PostPaint HTTP/1.1" 200 -
0:0:0:0:0:0:0:1 - - [07/Dec/2014:01:05:06 +0900] "GET /PaintBBS/paint.jsp HTTP/1.1" 200 1112
0:0:0:0:0:0:0:1 - - [07/Dec/2014:01:05:06 +0900] "GET /PaintBBS/lib/images/ui-bg_glass_100_f6f6f6_1x400.png HTTP/1.1" 404 1123
0:0:0:0:0:0:0:1 - - [07/Dec/2014:01:05:06 +0900] "GET /PaintBBS/lib/images/ui-bg_gloss-wave_35_f6a828_500x100.png HTTP/1.1" 404 1135
0:0:0:0:0:0:0:1 - - [07/Dec/2014:01:05:08 +0900] "GET /PaintBBS/lib/images/ui-bg_glass_65_ffffff_1x400.png HTTP/1.1" 404 1121
0:0:0:0:0:0:0:1 - - [07/Dec/2014:01:05:08 +0900] "GET /PaintBBS/lib/images/ui-bg_glass_100_fdf5ce_1x400.png HTTP/1.1" 404 1123
0:0:0:0:0:0:0:1 - - [07/Dec/2014:01:05:11 +0900] "POST /PaintBBS/PostPaint HTTP/1.1" 200 -
127.0.0.1 - - [07/Dec/2014:01:06:06 +0900] "GET / HTTP/1.1" 404 1019
0:0:0:0:0:0:0:1 - - [07/Dec/2014:01:06:07 +0900] "GET /PaintBBS/paint.jsp HTTP/1.1" 200 1112
0:0:0:0:0:0:0:1 - - [07/Dec/2014:01:06:07 +0900] "GET /PaintBBS/lib/images/ui-bg_gloss-wave_35_f6a828_500x100.png HTTP/1.1" 404 1135
0:0:0:0:0:0:0:1 - - [07/Dec/2014:01:06:07 +0900] "GET /PaintBBS/lib/images/ui-bg_glass_100_f6f6f6_1x400.png HTTP/1.1" 404 1123
0:0:0:0:0:0:0:1 - - [07/Dec/2014:01:06:08 +0900] "GET /PaintBBS/lib/images/ui-bg_glass_65_ffffff_1x400.png HTTP/1.1" 404 1121
0:0:0:0:0:0:0:1 - - [07/Dec/2014:01:06:08 +0900] "GET /PaintBBS/lib/images/ui-bg_glass_100_fdf5ce_1x400.png HTTP/1.1" 404 1123
0:0:0:0:0:0:0:1 - - [07/Dec/2014:01:06:44 +0900] "POST /PaintBBS/PostPaint HTTP/1.1" 200 -
127.0.0.1 - - [07/Dec/2014:01:11:37 +0900] "GET / HTTP/1.1" 404 1019
0:0:0:0:0:0:0:1 - - [07/Dec/2014:01:11:38 +0900] "GET /PaintBBS/paint.jsp HTTP/1.1" 200 1112
0:0:0:0:0:0:0:1 - - [07/Dec/2014:01:11:38 +0900] "GET /PaintBBS/lib/images/ui-bg_glass_100_f6f6f6_1x400.png HTTP/1.1" 404 1123
0:0:0:0:0:0:0:1 - - [07/Dec/2014:01:11:38 +0900] "GET /PaintBBS/lib/images/ui-bg_gloss-wave_35_f6a828_500x100.png HTTP/1.1" 404 1135
0:0:0:0:0:0:0:1 - - [07/Dec/2014:01:11:46 +0900] "GET /PaintBBS/lib/images/ui-bg_glass_100_fdf5ce_1x400.png HTTP/1.1" 404 1123
0:0:0:0:0:0:0:1 - - [07/Dec/2014:01:11:47 +0900] "GET /PaintBBS/lib/images/ui-bg_glass_65_ffffff_1x400.png HTTP/1.1" 404 1121
0:0:0:0:0:0:0:1 - - [07/Dec/2014:01:11:55 +0900] "POST /PaintBBS/PostPaint HTTP/1.1" 200 -
0:0:0:0:0:0:0:1 - - [07/Dec/2014:02:42:58 +0900] "GET /PaintBBS/DrawServlet HTTP/1.1" 200 457
0:0:0:0:0:0:0:1 - - [07/Dec/2014:02:42:58 +0900] "GET /PaintBBS/Draw/1.jpg HTTP/1.1" 304 -
0:0:0:0:0:0:0:1 - - [07/Dec/2014:02:42:58 +0900] "GET /PaintBBS/Draw/2.jpg HTTP/1.1" 304 -
0:0:0:0:0:0:0:1 - - [07/Dec/2014:02:42:58 +0900] "GET /PaintBBS/Draw/3.jpg HTTP/1.1" 304 -
0:0:0:0:0:0:0:1 - - [07/Dec/2014:02:42:58 +0900] "GET /PaintBBS/Draw/4.jpg HTTP/1.1" 304 -
0:0:0:0:0:0:0:1 - - [07/Dec/2014:02:43:02 +0900] "GET /PaintBBS/paint.jsp HTTP/1.1" 200 1112
0:0:0:0:0:0:0:1 - - [07/Dec/2014:02:43:03 +0900] "GET /PaintBBS/lib/images/ui-bg_glass_100_f6f6f6_1x400.png HTTP/1.1" 404 1123
0:0:0:0:0:0:0:1 - - [07/Dec/2014:02:43:03 +0900] "GET /PaintBBS/lib/images/ui-bg_gloss-wave_35_f6a828_500x100.png HTTP/1.1" 404 1135
0:0:0:0:0:0:0:1 - - [07/Dec/2014:02:43:25 +0900] "POST /PaintBBS/PostPaint HTTP/1.1" 200 -
0:0:0:0:0:0:0:1 - - [07/Dec/2014:09:18:02 +0900] "GET /PaintBBS/paint.jsp HTTP/1.1" 200 1112
0:0:0:0:0:0:0:1 - - [07/Dec/2014:09:18:02 +0900] "GET /PaintBBS/lib/images/ui-bg_gloss-wave_35_f6a828_500x100.png HTTP/1.1" 404 1135
0:0:0:0:0:0:0:1 - - [07/Dec/2014:09:18:02 +0900] "GET /PaintBBS/lib/images/ui-bg_glass_100_f6f6f6_1x400.png HTTP/1.1" 404 1123
0:0:0:0:0:0:0:1 - - [07/Dec/2014:19:59:27 +0900] "GET /PaintBBS/DrawServlet HTTP/1.1" 200 457
0:0:0:0:0:0:0:1 - - [07/Dec/2014:19:59:27 +0900] "GET /PaintBBS/Draw/5.jpg HTTP/1.1" 304 -
0:0:0:0:0:0:0:1 - - [07/Dec/2014:19:59:27 +0900] "GET /PaintBBS/Draw/6.jpg HTTP/1.1" 304 -
0:0:0:0:0:0:0:1 - - [07/Dec/2014:23:59:36 +0900] "GET /PaintBBS/DrawServlet HTTP/1.1" 200 457
