127.0.0.1 - - [19/Dec/2014:11:20:48 +0900] "GET / HTTP/1.1" 404 1019
0:0:0:0:0:0:0:1 - - [19/Dec/2014:11:20:48 +0900] "GET /PaintBBS/WEB-INF/classes/jp/co/us717/model/PostResBean.java HTTP/1.1" 404 1017
127.0.0.1 - - [19/Dec/2014:11:35:48 +0900] "GET / HTTP/1.1" 404 1019
0:0:0:0:0:0:0:1 - - [19/Dec/2014:11:35:49 +0900] "GET /PaintBBS/WEB-INF/classes/jp/co/us717/model/PostResBean.java HTTP/1.1" 404 1017
127.0.0.1 - - [19/Dec/2014:18:48:49 +0900] "GET / HTTP/1.1" 404 1019
0:0:0:0:0:0:0:1 - - [19/Dec/2014:18:48:50 +0900] "GET /PaintBBS/WEB-INF/classes/jp/co/us717/model/PostResBean.java HTTP/1.1" 404 1017
