127.0.0.1 - - [18/Jan/2015:00:26:17 +0900] "GET / HTTP/1.1" 404 1019
127.0.0.1 - - [18/Jan/2015:00:26:18 +0900] "GET /PaintBBS/jsp/headline.jsp HTTP/1.1" 404 1063
127.0.0.1 - - [18/Jan/2015:00:26:57 +0900] "GET / HTTP/1.1" 404 1019
127.0.0.1 - - [18/Jan/2015:00:26:59 +0900] "GET /PaintBBS/jsp/headline.jsp HTTP/1.1" 200 369
127.0.0.1 - - [18/Jan/2015:00:30:37 +0900] "GET / HTTP/1.1" 404 1019
127.0.0.1 - - [18/Jan/2015:00:30:38 +0900] "GET /PaintBBS/jsp/headline.jsp HTTP/1.1" 404 1063
127.0.0.1 - - [18/Jan/2015:00:33:26 +0900] "GET / HTTP/1.1" 404 1019
127.0.0.1 - - [18/Jan/2015:00:33:28 +0900] "GET /PaintBBS/jsp/headline.jsp HTTP/1.1" 200 369
127.0.0.1 - - [18/Jan/2015:00:36:39 +0900] "GET / HTTP/1.1" 404 1019
127.0.0.1 - - [18/Jan/2015:00:36:41 +0900] "GET /PaintBBS/jsp/headline.jsp HTTP/1.1" 200 369
127.0.0.1 - - [18/Jan/2015:00:42:25 +0900] "GET / HTTP/1.1" 404 1019
127.0.0.1 - - [18/Jan/2015:00:42:26 +0900] "GET /PaintBBS/jsp/headline.jsp HTTP/1.1" 200 369
127.0.0.1 - - [18/Jan/2015:00:42:50 +0900] "GET / HTTP/1.1" 404 1019
127.0.0.1 - - [18/Jan/2015:00:42:51 +0900] "GET /PaintBBS/jsp/headline.jsp HTTP/1.1" 200 540
127.0.0.1 - - [18/Jan/2015:00:48:37 +0900] "GET / HTTP/1.1" 404 1019
127.0.0.1 - - [18/Jan/2015:00:48:39 +0900] "GET /PaintBBS/jsp/headline.jsp HTTP/1.1" 200 540
127.0.0.1 - - [18/Jan/2015:00:48:44 +0900] "GET /PaintBBS/jsp/headline.jsp?page=2 HTTP/1.1" 200 255
127.0.0.1 - - [18/Jan/2015:11:07:54 +0900] "GET / HTTP/1.1" 404 1019
127.0.0.1 - - [18/Jan/2015:11:07:56 +0900] "GET /PaintBBS/jsp/headline.jsp HTTP/1.1" 200 437
127.0.0.1 - - [18/Jan/2015:11:19:27 +0900] "GET / HTTP/1.1" 404 1019
127.0.0.1 - - [18/Jan/2015:11:19:28 +0900] "GET /PaintBBS/jsp/headline.jsp HTTP/1.1" 200 519
127.0.0.1 - - [18/Jan/2015:11:20:36 +0900] "GET / HTTP/1.1" 404 1019
127.0.0.1 - - [18/Jan/2015:11:20:37 +0900] "GET /PaintBBS/jsp/headline.jsp HTTP/1.1" 200 519
127.0.0.1 - - [18/Jan/2015:11:21:11 +0900] "GET / HTTP/1.1" 404 1019
127.0.0.1 - - [18/Jan/2015:11:21:13 +0900] "GET /PaintBBS/jsp/headline.jsp HTTP/1.1" 200 526
127.0.0.1 - - [18/Jan/2015:11:27:42 +0900] "GET / HTTP/1.1" 404 1019
127.0.0.1 - - [18/Jan/2015:11:27:43 +0900] "GET /PaintBBS/jsp/headline.jsp HTTP/1.1" 404 1063
127.0.0.1 - - [18/Jan/2015:11:32:26 +0900] "GET / HTTP/1.1" 404 1019
127.0.0.1 - - [18/Jan/2015:11:32:27 +0900] "GET /PaintBBS/jsp/headline.jsp HTTP/1.1" 404 1063
127.0.0.1 - - [18/Jan/2015:11:32:46 +0900] "GET / HTTP/1.1" 404 1019
127.0.0.1 - - [18/Jan/2015:11:32:46 +0900] "GET /PaintBBS/jsp/headline.jsp HTTP/1.1" 404 1063
127.0.0.1 - - [18/Jan/2015:11:33:05 +0900] "GET / HTTP/1.1" 404 1019
127.0.0.1 - - [18/Jan/2015:11:33:06 +0900] "GET /PaintBBS/jsp/headline.jsp HTTP/1.1" 404 1063
127.0.0.1 - - [18/Jan/2015:11:34:16 +0900] "GET / HTTP/1.1" 404 1019
127.0.0.1 - - [18/Jan/2015:11:34:18 +0900] "GET /PaintBBS/jsp/headline.jsp HTTP/1.1" 200 528
127.0.0.1 - - [18/Jan/2015:11:35:07 +0900] "GET / HTTP/1.1" 404 1019
127.0.0.1 - - [18/Jan/2015:11:35:08 +0900] "GET /PaintBBS/jsp/headline.jsp HTTP/1.1" 200 525
127.0.0.1 - - [18/Jan/2015:11:35:37 +0900] "GET / HTTP/1.1" 404 1019
127.0.0.1 - - [18/Jan/2015:11:35:38 +0900] "GET /PaintBBS/jsp/headline.jsp HTTP/1.1" 404 1063
127.0.0.1 - - [18/Jan/2015:11:36:34 +0900] "GET / HTTP/1.1" 404 1019
127.0.0.1 - - [18/Jan/2015:11:36:35 +0900] "GET /PaintBBS/jsp/headline.jsp HTTP/1.1" 200 527
127.0.0.1 - - [18/Jan/2015:11:36:57 +0900] "GET / HTTP/1.1" 404 1019
127.0.0.1 - - [18/Jan/2015:11:36:59 +0900] "GET /PaintBBS/jsp/headline.jsp HTTP/1.1" 200 526
127.0.0.1 - - [18/Jan/2015:12:10:00 +0900] "GET / HTTP/1.1" 404 1019
127.0.0.1 - - [18/Jan/2015:12:10:02 +0900] "GET /PaintBBS/jsp/headline.jsp HTTP/1.1" 200 572
127.0.0.1 - - [18/Jan/2015:12:38:39 +0900] "GET / HTTP/1.1" 404 1019
127.0.0.1 - - [18/Jan/2015:12:38:40 +0900] "GET /PaintBBS/jsp/headline.jsp HTTP/1.1" 404 1063
127.0.0.1 - - [18/Jan/2015:12:40:47 +0900] "GET / HTTP/1.1" 404 1019
127.0.0.1 - - [18/Jan/2015:12:40:49 +0900] "GET /PaintBBS/jsp/headline.jsp HTTP/1.1" 200 1092
127.0.0.1 - - [18/Jan/2015:12:41:48 +0900] "GET / HTTP/1.1" 404 1019
127.0.0.1 - - [18/Jan/2015:12:41:50 +0900] "GET /PaintBBS/jsp/headline.jsp HTTP/1.1" 200 1542
127.0.0.1 - - [18/Jan/2015:12:43:22 +0900] "GET / HTTP/1.1" 404 1019
127.0.0.1 - - [18/Jan/2015:12:43:24 +0900] "GET /PaintBBS/jsp/headline.jsp HTTP/1.1" 200 740
127.0.0.1 - - [18/Jan/2015:12:44:10 +0900] "GET / HTTP/1.1" 404 1019
127.0.0.1 - - [18/Jan/2015:12:44:12 +0900] "GET /PaintBBS/jsp/headline.jsp HTTP/1.1" 200 746
127.0.0.1 - - [18/Jan/2015:12:44:20 +0900] "GET /PaintBBS/jsp/headline.jsp?page=2 HTTP/1.1" 200 267
127.0.0.1 - - [18/Jan/2015:12:44:26 +0900] "GET /PaintBBS/jsp/headline.jsp?page=1 HTTP/1.1" 200 267
127.0.0.1 - - [18/Jan/2015:12:44:32 +0900] "GET /PaintBBS/jsp/headline.jsp?page=0 HTTP/1.1" 200 746
127.0.0.1 - - [18/Jan/2015:12:45:07 +0900] "GET / HTTP/1.1" 404 1019
127.0.0.1 - - [18/Jan/2015:12:45:08 +0900] "GET /PaintBBS/jsp/headline.jsp HTTP/1.1" 200 790
127.0.0.1 - - [18/Jan/2015:12:45:11 +0900] "GET /PaintBBS/jsp/headline.jsp?page=2 HTTP/1.1" 200 267
127.0.0.1 - - [18/Jan/2015:12:45:17 +0900] "GET /PaintBBS/jsp/headline.jsp?page=2 HTTP/1.1" 200 267
127.0.0.1 - - [18/Jan/2015:12:45:18 +0900] "GET /PaintBBS/jsp/headline.jsp?page=2 HTTP/1.1" 200 267
127.0.0.1 - - [18/Jan/2015:12:45:20 +0900] "GET /PaintBBS/jsp/headline.jsp?page=1 HTTP/1.1" 200 399
127.0.0.1 - - [18/Jan/2015:12:58:16 +0900] "GET / HTTP/1.1" 404 1019
127.0.0.1 - - [18/Jan/2015:12:58:17 +0900] "GET /PaintBBS/jsp/headline.jsp HTTP/1.1" 200 790
127.0.0.1 - - [18/Jan/2015:13:12:55 +0900] "GET / HTTP/1.1" 404 1019
127.0.0.1 - - [18/Jan/2015:13:12:56 +0900] "GET /PaintBBS/jsp/headline.jsp HTTP/1.1" 200 765
127.0.0.1 - - [18/Jan/2015:13:13:56 +0900] "GET / HTTP/1.1" 404 1019
127.0.0.1 - - [18/Jan/2015:13:13:57 +0900] "GET /PaintBBS/jsp/index.jsp HTTP/1.1" 200 173
127.0.0.1 - - [18/Jan/2015:13:14:07 +0900] "GET / HTTP/1.1" 404 1019
127.0.0.1 - - [18/Jan/2015:13:14:08 +0900] "GET /PaintBBS/jsp/headline.jsp HTTP/1.1" 404 1063
127.0.0.1 - - [18/Jan/2015:13:19:02 +0900] "GET / HTTP/1.1" 404 1019
127.0.0.1 - - [18/Jan/2015:13:19:03 +0900] "GET /PaintBBS/jsp/headline.jsp HTTP/1.1" 200 828
127.0.0.1 - - [18/Jan/2015:13:20:05 +0900] "GET /PaintBBS/jsp/headline.jsp HTTP/1.1" 200 277
127.0.0.1 - - [18/Jan/2015:13:20:08 +0900] "GET /PaintBBS/jsp/headline.jsp HTTP/1.1" 200 277
127.0.0.1 - - [18/Jan/2015:13:20:11 +0900] "GET /PaintBBS/jsp/headline.jsp?page=2 HTTP/1.1" 200 277
127.0.0.1 - - [18/Jan/2015:13:51:53 +0900] "GET / HTTP/1.1" 404 1019
127.0.0.1 - - [18/Jan/2015:13:51:54 +0900] "GET /PaintBBS/jsp/headline.jsp HTTP/1.1" 404 1063
127.0.0.1 - - [18/Jan/2015:13:53:06 +0900] "GET / HTTP/1.1" 404 1019
127.0.0.1 - - [18/Jan/2015:13:53:08 +0900] "GET /PaintBBS/jsp/headline.jsp HTTP/1.1" 200 825
127.0.0.1 - - [18/Jan/2015:14:03:40 +0900] "GET /PaintBBS/jsp/headline.jsp HTTP/1.1" 200 825
127.0.0.1 - - [18/Jan/2015:21:23:37 +0900] "GET / HTTP/1.1" 404 1019
127.0.0.1 - - [18/Jan/2015:21:23:38 +0900] "GET /PaintBBS/jsp/headline.jsp HTTP/1.1" 200 671
127.0.0.1 - - [18/Jan/2015:21:26:59 +0900] "GET /PaintBBS/jsp/headline.jsp HTTP/1.1" 200 671
127.0.0.1 - - [18/Jan/2015:21:27:28 +0900] "GET / HTTP/1.1" 404 1019
127.0.0.1 - - [18/Jan/2015:21:27:30 +0900] "GET /PaintBBS/jsp/headline.jsp HTTP/1.1" 200 627
127.0.0.1 - - [18/Jan/2015:21:27:58 +0900] "GET /PaintBBS/jsp/headline.jsp?page=2 HTTP/1.1" 200 349
127.0.0.1 - - [18/Jan/2015:21:28:02 +0900] "GET /PaintBBS/jsp/headline.jsp?page=1 HTTP/1.1" 200 539
127.0.0.1 - - [18/Jan/2015:21:28:40 +0900] "GET /PaintBBS/jsp/headline.jsp?page=0 HTTP/1.1" 200 627
127.0.0.1 - - [18/Jan/2015:21:28:46 +0900] "GET /PaintBBS/jsp/headline.jsp?page=1 HTTP/1.1" 200 539
127.0.0.1 - - [18/Jan/2015:22:04:37 +0900] "GET /PaintBBS/jsp/headline.jsp HTTP/1.1" 200 627
127.0.0.1 - - [18/Jan/2015:22:04:43 +0900] "GET /PaintBBS/jsp/headline.jsp?page=2 HTTP/1.1" 200 349
127.0.0.1 - - [18/Jan/2015:22:04:48 +0900] "GET /PaintBBS/jsp/headline.jsp?page=1 HTTP/1.1" 200 539
127.0.0.1 - - [18/Jan/2015:22:05:08 +0900] "GET /PaintBBS/jsp/headline.jsp?page=0 HTTP/1.1" 200 627
127.0.0.1 - - [18/Jan/2015:22:24:48 +0900] "GET / HTTP/1.1" 404 1019
127.0.0.1 - - [18/Jan/2015:22:24:49 +0900] "GET /PaintBBS/WEB-INF/classes/jp/co/us717/model/HeadLineBean.java HTTP/1.1" 404 1017
127.0.0.1 - - [18/Jan/2015:22:24:55 +0900] "GET /PaintBBS/jsp/headline.jsp HTTP/1.1" 200 627
127.0.0.1 - - [18/Jan/2015:22:25:30 +0900] "GET /PaintBBS/WEB-INF/classes/jp/co/us717/model/HeadLineBean.java HTTP/1.1" 404 1017
127.0.0.1 - - [18/Jan/2015:22:25:40 +0900] "GET /PaintBBS/jsp/headline.jsp HTTP/1.1" 200 627
127.0.0.1 - - [18/Jan/2015:22:25:46 +0900] "GET /PaintBBS/jsp/headline.jsp?page=2 HTTP/1.1" 200 349
127.0.0.1 - - [18/Jan/2015:22:41:32 +0900] "GET / HTTP/1.1" 404 1019
127.0.0.1 - - [18/Jan/2015:22:41:33 +0900] "GET /PaintBBS/jsp/headline.jsp HTTP/1.1" 200 627
127.0.0.1 - - [18/Jan/2015:22:42:14 +0900] "GET /PaintBBS/jsp/headline.jsp?page=2 HTTP/1.1" 200 349
127.0.0.1 - - [18/Jan/2015:22:42:16 +0900] "GET /PaintBBS/jsp/headline.jsp?page=2 HTTP/1.1" 200 349
127.0.0.1 - - [18/Jan/2015:22:42:19 +0900] "GET /PaintBBS/jsp/headline.jsp?page=1 HTTP/1.1" 200 539
127.0.0.1 - - [18/Jan/2015:23:12:33 +0900] "GET / HTTP/1.1" 404 1019
127.0.0.1 - - [18/Jan/2015:23:12:34 +0900] "GET /PaintBBS/jsp/headline.jsp HTTP/1.1" 200 627
