127.0.0.1 - - [11/Dec/2014:05:11:17 +0900] "GET / HTTP/1.1" 404 1019
0:0:0:0:0:0:0:1 - - [11/Dec/2014:05:11:18 +0900] "GET /PaintBBS/DrawServlet HTTP/1.1" 200 181
0:0:0:0:0:0:0:1 - - [11/Dec/2014:05:12:27 +0900] "GET /PaintBBS/DrawServlet HTTP/1.1" 200 181
0:0:0:0:0:0:0:1 - - [11/Dec/2014:05:17:24 +0900] "GET /PaintBBS/index.jsp HTTP/1.1" 200 181
0:0:0:0:0:0:0:1 - - [11/Dec/2014:05:19:35 +0900] "GET /PaintBBS/index.jsp HTTP/1.1" 200 181
0:0:0:0:0:0:0:1 - - [11/Dec/2014:05:20:27 +0900] "GET /PaintBBS/index.jsp HTTP/1.1" 200 181
0:0:0:0:0:0:0:1 - - [11/Dec/2014:05:20:32 +0900] "GET /PaintBBS/index.jsp HTTP/1.1" 200 181
0:0:0:0:0:0:0:1 - - [11/Dec/2014:05:20:33 +0900] "GET /PaintBBS/index.jsp HTTP/1.1" 200 181
0:0:0:0:0:0:0:1 - - [11/Dec/2014:05:20:45 +0900] "GET /PaintBBS/index.jsp HTTP/1.1" 200 181
127.0.0.1 - - [11/Dec/2014:05:21:26 +0900] "GET / HTTP/1.1" 404 1019
0:0:0:0:0:0:0:1 - - [11/Dec/2014:05:21:26 +0900] "GET /PaintBBS/index.jsp HTTP/1.1" 200 181
0:0:0:0:0:0:0:1 - - [11/Dec/2014:05:21:58 +0900] "GET /PaintBBS/index.jsp HTTP/1.1" 200 181
0:0:0:0:0:0:0:1 - - [11/Dec/2014:05:22:23 +0900] "GET /PaintBBS/index.jsp HTTP/1.1" 200 181
0:0:0:0:0:0:0:1 - - [11/Dec/2014:05:22:24 +0900] "GET /PaintBBS/index.jsp HTTP/1.1" 200 181
0:0:0:0:0:0:0:1 - - [11/Dec/2014:05:22:25 +0900] "GET /PaintBBS/index.jsp HTTP/1.1" 200 181
0:0:0:0:0:0:0:1 - - [11/Dec/2014:05:22:25 +0900] "GET /PaintBBS/index.jsp HTTP/1.1" 200 181
0:0:0:0:0:0:0:1 - - [11/Dec/2014:05:22:26 +0900] "GET /PaintBBS/index.jsp HTTP/1.1" 200 181
0:0:0:0:0:0:0:1 - - [11/Dec/2014:05:22:26 +0900] "GET /PaintBBS/index.jsp HTTP/1.1" 200 181
0:0:0:0:0:0:0:1 - - [11/Dec/2014:05:22:27 +0900] "GET /PaintBBS/index.jsp HTTP/1.1" 200 181
0:0:0:0:0:0:0:1 - - [11/Dec/2014:05:22:28 +0900] "GET /PaintBBS/index.jsp HTTP/1.1" 200 181
127.0.0.1 - - [11/Dec/2014:05:24:05 +0900] "GET / HTTP/1.1" 404 1019
0:0:0:0:0:0:0:1 - - [11/Dec/2014:05:24:06 +0900] "GET /PaintBBS/index.jsp HTTP/1.1" 200 457
0:0:0:0:0:0:0:1 - - [11/Dec/2014:05:24:06 +0900] "GET /PaintBBS/Draw/1.jpg HTTP/1.1" 304 -
0:0:0:0:0:0:0:1 - - [11/Dec/2014:05:24:06 +0900] "GET /PaintBBS/Draw/2.jpg HTTP/1.1" 304 -
0:0:0:0:0:0:0:1 - - [11/Dec/2014:05:24:06 +0900] "GET /PaintBBS/Draw/4.jpg HTTP/1.1" 304 -
0:0:0:0:0:0:0:1 - - [11/Dec/2014:05:24:06 +0900] "GET /PaintBBS/Draw/3.jpg HTTP/1.1" 304 -
0:0:0:0:0:0:0:1 - - [11/Dec/2014:05:24:06 +0900] "GET /PaintBBS/Draw/5.jpg HTTP/1.1" 304 -
0:0:0:0:0:0:0:1 - - [11/Dec/2014:05:24:06 +0900] "GET /PaintBBS/Draw/6.jpg HTTP/1.1" 304 -
127.0.0.1 - - [11/Dec/2014:05:33:35 +0900] "GET / HTTP/1.1" 404 1019
0:0:0:0:0:0:0:1 - - [11/Dec/2014:05:33:36 +0900] "GET /PaintBBS/DrawServlet HTTP/1.1" 200 181
