0:0:0:0:0:0:0:1 - - [19/Nov/2014:08:13:55 +0900] "GET /PaintBBS/Test.jsp HTTP/1.1" 200 231
0:0:0:0:0:0:0:1 - - [19/Nov/2014:08:14:29 +0900] "GET /PaintBBS/Test.jsp HTTP/1.1" 200 223
0:0:0:0:0:0:0:1 - - [19/Nov/2014:09:07:49 +0900] "GET /PaintBBS/Test.jsp HTTP/1.1" 200 344
0:0:0:0:0:0:0:1 - - [19/Nov/2014:09:08:40 +0900] "GET /PaintBBS/Test.jsp HTTP/1.1" 200 344
0:0:0:0:0:0:0:1 - - [19/Nov/2014:09:09:32 +0900] "GET /PaintBBS/Test.jsp HTTP/1.1" 200 345
0:0:0:0:0:0:0:1 - - [19/Nov/2014:09:09:34 +0900] "POST /PaintBBS/Test HTTP/1.1" 200 -
0:0:0:0:0:0:0:1 - - [19/Nov/2014:09:12:01 +0900] "GET /PaintBBS/Test.jsp HTTP/1.1" 200 345
0:0:0:0:0:0:0:1 - - [19/Nov/2014:09:12:05 +0900] "POST /PaintBBS/Test HTTP/1.1" 200 -
0:0:0:0:0:0:0:1 - - [19/Nov/2014:09:12:21 +0900] "GET /PaintBBS/Test.jsp HTTP/1.1" 200 345
0:0:0:0:0:0:0:1 - - [19/Nov/2014:09:12:24 +0900] "POST /PaintBBS/Test HTTP/1.1" 200 -
127.0.0.1 - - [19/Nov/2014:09:20:23 +0900] "GET / HTTP/1.1" 404 1019
0:0:0:0:0:0:0:1 - - [19/Nov/2014:09:20:24 +0900] "GET /PaintBBS/Test.jsp HTTP/1.1" 200 345
0:0:0:0:0:0:0:1 - - [19/Nov/2014:09:20:27 +0900] "POST /PaintBBS/Test HTTP/1.1" 200 -
0:0:0:0:0:0:0:1 - - [19/Nov/2014:09:38:05 +0900] "GET /PaintBBS/Test.jsp HTTP/1.1" 200 345
0:0:0:0:0:0:0:1 - - [19/Nov/2014:09:38:08 +0900] "POST /PaintBBS/Test HTTP/1.1" 500 1713
0:0:0:0:0:0:0:1 - - [19/Nov/2014:09:38:15 +0900] "GET /PaintBBS/Test.jsp HTTP/1.1" 200 345
0:0:0:0:0:0:0:1 - - [19/Nov/2014:09:38:18 +0900] "POST /PaintBBS/Test HTTP/1.1" 500 1713
0:0:0:0:0:0:0:1 - - [19/Nov/2014:09:38:27 +0900] "GET /PaintBBS/Test.jsp HTTP/1.1" 200 345
0:0:0:0:0:0:0:1 - - [19/Nov/2014:09:38:30 +0900] "POST /PaintBBS/Test HTTP/1.1" 500 1770
127.0.0.1 - - [19/Nov/2014:11:15:43 +0900] "GET / HTTP/1.1" 404 1019
0:0:0:0:0:0:0:1 - - [19/Nov/2014:11:15:44 +0900] "GET /PaintBBS/TestResult.jsp HTTP/1.1" 200 238
127.0.0.1 - - [19/Nov/2014:12:20:37 +0900] "GET / HTTP/1.1" 404 1019
0:0:0:0:0:0:0:1 - - [19/Nov/2014:12:20:37 +0900] "GET /PaintBBS/Test HTTP/1.1" 200 111
0:0:0:0:0:0:0:1 - - [19/Nov/2014:12:20:42 +0900] "GET /PaintBBS/TestResult.jsp HTTP/1.1" 200 238
0:0:0:0:0:0:0:1 - - [19/Nov/2014:12:21:39 +0900] "GET /PaintBBS/Test.jsp HTTP/1.1" 200 317
127.0.0.1 - - [19/Nov/2014:12:22:17 +0900] "GET / HTTP/1.1" 404 1019
0:0:0:0:0:0:0:1 - - [19/Nov/2014:12:22:18 +0900] "GET /PaintBBS/Test.jsp HTTP/1.1" 200 319
0:0:0:0:0:0:0:1 - - [19/Nov/2014:12:22:32 +0900] "GET /PaintBBS/Test.jsp HTTP/1.1" 200 318
0:0:0:0:0:0:0:1 - - [19/Nov/2014:12:22:45 +0900] "POST /PaintBBS/Test HTTP/1.1" 404 1065
127.0.0.1 - - [19/Nov/2014:12:36:42 +0900] "GET / HTTP/1.1" 404 1019
0:0:0:0:0:0:0:1 - - [19/Nov/2014:12:36:43 +0900] "GET /PaintBBS/Test.jsp HTTP/1.1" 200 318
0:0:0:0:0:0:0:1 - - [19/Nov/2014:12:36:44 +0900] "POST /PaintBBS/Test HTTP/1.1" 500 1713
127.0.0.1 - - [19/Nov/2014:12:37:18 +0900] "GET / HTTP/1.1" 404 1019
0:0:0:0:0:0:0:1 - - [19/Nov/2014:12:37:19 +0900] "GET /PaintBBS/Test.jsp HTTP/1.1" 200 318
0:0:0:0:0:0:0:1 - - [19/Nov/2014:12:37:25 +0900] "POST /PaintBBS/Test HTTP/1.1" 404 1065
0:0:0:0:0:0:0:1 - - [19/Nov/2014:12:40:30 +0900] "GET /PaintBBS/TestResult.jsp HTTP/1.1" 200 238
0:0:0:0:0:0:0:1 - - [19/Nov/2014:12:40:34 +0900] "GET /PaintBBS/Test.jsp HTTP/1.1" 200 318
0:0:0:0:0:0:0:1 - - [19/Nov/2014:12:40:35 +0900] "POST /PaintBBS/Test HTTP/1.1" 500 1713
0:0:0:0:0:0:0:1 - - [19/Nov/2014:12:42:14 +0900] "GET /PaintBBS/Test.jsp HTTP/1.1" 200 311
0:0:0:0:0:0:0:1 - - [19/Nov/2014:12:42:15 +0900] "POST /PaintBBS/Test HTTP/1.1" 500 1713
0:0:0:0:0:0:0:1 - - [19/Nov/2014:12:43:27 +0900] "GET /PaintBBS/TestResult.jsp HTTP/1.1" 200 231
0:0:0:0:0:0:0:1 - - [19/Nov/2014:12:44:12 +0900] "GET /PaintBBS/Test.jsp HTTP/1.1" 200 311
0:0:0:0:0:0:0:1 - - [19/Nov/2014:12:44:20 +0900] "POST /PaintBBS/Test HTTP/1.1" 404 1065
0:0:0:0:0:0:0:1 - - [19/Nov/2014:12:45:31 +0900] "GET /PaintBBS/Test.jsp HTTP/1.1" 200 336
0:0:0:0:0:0:0:1 - - [19/Nov/2014:12:45:37 +0900] "POST /PaintBBS/Test HTTP/1.1" 404 1065
0:0:0:0:0:0:0:1 - - [19/Nov/2014:12:46:05 +0900] "GET /PaintBBS/Test.jsp HTTP/1.1" 200 336
0:0:0:0:0:0:0:1 - - [19/Nov/2014:12:46:06 +0900] "POST /PaintBBS/Test HTTP/1.1" 500 1713
0:0:0:0:0:0:0:1 - - [19/Nov/2014:12:48:00 +0900] "GET /PaintBBS/Test.jsp HTTP/1.1" 200 336
0:0:0:0:0:0:0:1 - - [19/Nov/2014:12:48:01 +0900] "POST /PaintBBS/Test HTTP/1.1" 500 1713
0:0:0:0:0:0:0:1 - - [19/Nov/2014:12:50:04 +0900] "GET /PaintBBS/Test.jsp HTTP/1.1" 200 336
0:0:0:0:0:0:0:1 - - [19/Nov/2014:12:50:05 +0900] "POST /PaintBBS/Test HTTP/1.1" 500 1713
0:0:0:0:0:0:0:1 - - [19/Nov/2014:12:50:09 +0900] "GET /PaintBBS/Test.jsp HTTP/1.1" 200 336
0:0:0:0:0:0:0:1 - - [19/Nov/2014:12:50:14 +0900] "POST /PaintBBS/Test HTTP/1.1" 404 1065
127.0.0.1 - - [19/Nov/2014:12:53:26 +0900] "GET / HTTP/1.1" 404 1019
0:0:0:0:0:0:0:1 - - [19/Nov/2014:12:53:27 +0900] "GET /PaintBBS/Test HTTP/1.1" 200 111
0:0:0:0:0:0:0:1 - - [19/Nov/2014:12:53:30 +0900] "GET /PaintBBS/Test.jsp HTTP/1.1" 200 336
0:0:0:0:0:0:0:1 - - [19/Nov/2014:12:53:36 +0900] "POST /PaintBBS/Test HTTP/1.1" 404 1065
0:0:0:0:0:0:0:1 - - [19/Nov/2014:12:58:01 +0900] "GET /PaintBBS/Test.jsp HTTP/1.1" 200 336
0:0:0:0:0:0:0:1 - - [19/Nov/2014:12:58:05 +0900] "POST /PaintBBS/Test HTTP/1.1" 404 1065
0:0:0:0:0:0:0:1 - - [19/Nov/2014:12:58:14 +0900] "GET /PaintBBS/Test.jsp HTTP/1.1" 200 336
0:0:0:0:0:0:0:1 - - [19/Nov/2014:12:58:15 +0900] "POST /PaintBBS/Test HTTP/1.1" 500 1713
0:0:0:0:0:0:0:1 - - [19/Nov/2014:12:58:19 +0900] "GET /PaintBBS/Test.jsp HTTP/1.1" 200 336
0:0:0:0:0:0:0:1 - - [19/Nov/2014:12:58:25 +0900] "POST /PaintBBS/Test HTTP/1.1" 404 1065
0:0:0:0:0:0:0:1 - - [19/Nov/2014:13:14:10 +0900] "GET /PaintBBS/TestResult.jsp HTTP/1.1" 200 256
0:0:0:0:0:0:0:1 - - [19/Nov/2014:13:16:31 +0900] "GET /PaintBBS/Test.jsp HTTP/1.1" 200 336
0:0:0:0:0:0:0:1 - - [19/Nov/2014:13:16:38 +0900] "POST /PaintBBS/Test HTTP/1.1" 404 1065
0:0:0:0:0:0:0:1 - - [19/Nov/2014:13:17:45 +0900] "GET /PaintBBS/Test.jsp HTTP/1.1" 200 336
0:0:0:0:0:0:0:1 - - [19/Nov/2014:13:17:54 +0900] "POST /PaintBBS/Test HTTP/1.1" 404 1065
0:0:0:0:0:0:0:1 - - [19/Nov/2014:13:18:53 +0900] "GET /PaintBBS/Test.jsp HTTP/1.1" 200 336
0:0:0:0:0:0:0:1 - - [19/Nov/2014:13:19:00 +0900] "POST /PaintBBS/Test HTTP/1.1" 404 1065
127.0.0.1 - - [19/Nov/2014:13:24:04 +0900] "GET / HTTP/1.1" 404 1019
0:0:0:0:0:0:0:1 - - [19/Nov/2014:13:24:04 +0900] "GET /PaintBBS/Test.jsp HTTP/1.1" 200 336
0:0:0:0:0:0:0:1 - - [19/Nov/2014:13:24:10 +0900] "POST /PaintBBS/Test HTTP/1.1" 404 1065
0:0:0:0:0:0:0:1 - - [19/Nov/2014:13:25:54 +0900] "GET /PaintBBS/Test.jsp HTTP/1.1" 200 336
0:0:0:0:0:0:0:1 - - [19/Nov/2014:13:26:01 +0900] "POST /PaintBBS/Test HTTP/1.1" 404 1065
127.0.0.1 - - [19/Nov/2014:13:27:52 +0900] "GET / HTTP/1.1" 404 1019
0:0:0:0:0:0:0:1 - - [19/Nov/2014:13:27:52 +0900] "GET /PaintBBS/Test.jsp HTTP/1.1" 200 336
0:0:0:0:0:0:0:1 - - [19/Nov/2014:13:27:59 +0900] "POST /PaintBBS/Test HTTP/1.1" 404 1065
0:0:0:0:0:0:0:1 - - [19/Nov/2014:13:28:22 +0900] "GET /PaintBBS/Test.jsp HTTP/1.1" 200 336
0:0:0:0:0:0:0:1 - - [19/Nov/2014:13:28:29 +0900] "POST /PaintBBS/Test HTTP/1.1" 404 1065
127.0.0.1 - - [19/Nov/2014:13:32:16 +0900] "GET / HTTP/1.1" 404 1019
0:0:0:0:0:0:0:1 - - [19/Nov/2014:13:32:16 +0900] "GET /PaintBBS/Test.jsp HTTP/1.1" 200 336
0:0:0:0:0:0:0:1 - - [19/Nov/2014:13:32:26 +0900] "POST /PaintBBS/Test HTTP/1.1" 404 1057
0:0:0:0:0:0:0:1 - - [19/Nov/2014:13:32:53 +0900] "GET /PaintBBS/Test.jsp HTTP/1.1" 200 336
0:0:0:0:0:0:0:1 - - [19/Nov/2014:13:32:58 +0900] "POST /PaintBBS/Test HTTP/1.1" 404 1057
127.0.0.1 - - [19/Nov/2014:13:33:35 +0900] "GET / HTTP/1.1" 404 1019
0:0:0:0:0:0:0:1 - - [19/Nov/2014:13:33:35 +0900] "GET /PaintBBS/Test.jsp HTTP/1.1" 200 336
0:0:0:0:0:0:0:1 - - [19/Nov/2014:13:33:43 +0900] "POST /PaintBBS/Test HTTP/1.1" 200 124
0:0:0:0:0:0:0:1 - - [19/Nov/2014:13:33:49 +0900] "GET /PaintBBS/Test.jsp HTTP/1.1" 200 336
0:0:0:0:0:0:0:1 - - [19/Nov/2014:13:33:54 +0900] "POST /PaintBBS/Test HTTP/1.1" 200 124
0:0:0:0:0:0:0:1 - - [19/Nov/2014:13:37:24 +0900] "GET /PaintBBS/Test HTTP/1.1" 200 -
127.0.0.1 - - [19/Nov/2014:13:37:32 +0900] "GET / HTTP/1.1" 404 1019
0:0:0:0:0:0:0:1 - - [19/Nov/2014:13:37:32 +0900] "GET /PaintBBS/Test.jsp HTTP/1.1" 200 336
0:0:0:0:0:0:0:1 - - [19/Nov/2014:13:37:37 +0900] "POST /PaintBBS/Test HTTP/1.1" 404 1065
127.0.0.1 - - [19/Nov/2014:13:38:11 +0900] "GET / HTTP/1.1" 404 1019
0:0:0:0:0:0:0:1 - - [19/Nov/2014:13:38:11 +0900] "GET /PaintBBS/Test.jsp HTTP/1.1" 200 336
0:0:0:0:0:0:0:1 - - [19/Nov/2014:13:38:19 +0900] "POST /PaintBBS/Test HTTP/1.1" 200 124
0:0:0:0:0:0:0:1 - - [19/Nov/2014:13:38:44 +0900] "GET /PaintBBS/Test.jsp HTTP/1.1" 200 336
0:0:0:0:0:0:0:1 - - [19/Nov/2014:13:38:50 +0900] "POST /PaintBBS/Test HTTP/1.1" 200 232
127.0.0.1 - - [19/Nov/2014:16:15:47 +0900] "GET / HTTP/1.1" 404 1019
0:0:0:0:0:0:0:1 - - [19/Nov/2014:16:15:48 +0900] "GET /PaintBBS/TestResult.jsp HTTP/1.1" 200 201
0:0:0:0:0:0:0:1 - - [19/Nov/2014:16:16:08 +0900] "GET /PaintBBS/Test.jsp HTTP/1.1" 200 336
0:0:0:0:0:0:0:1 - - [19/Nov/2014:16:16:14 +0900] "POST /PaintBBS/Test HTTP/1.1" 200 228
0:0:0:0:0:0:0:1 - - [19/Nov/2014:16:16:52 +0900] "GET /PaintBBS/Test.jsp HTTP/1.1" 200 336
0:0:0:0:0:0:0:1 - - [19/Nov/2014:16:17:01 +0900] "POST /PaintBBS/Test HTTP/1.1" 500 1713
0:0:0:0:0:0:0:1 - - [19/Nov/2014:16:17:05 +0900] "GET /PaintBBS/Test.jsp HTTP/1.1" 200 336
0:0:0:0:0:0:0:1 - - [19/Nov/2014:16:17:12 +0900] "POST /PaintBBS/Test HTTP/1.1" 200 228
0:0:0:0:0:0:0:1 - - [19/Nov/2014:16:17:19 +0900] "POST /PaintBBS/Test HTTP/1.1" 200 228
0:0:0:0:0:0:0:1 - - [19/Nov/2014:16:17:26 +0900] "POST /PaintBBS/Test HTTP/1.1" 200 228
0:0:0:0:0:0:0:1 - - [19/Nov/2014:16:17:29 +0900] "POST /PaintBBS/Test HTTP/1.1" 200 228
0:0:0:0:0:0:0:1 - - [19/Nov/2014:16:17:38 +0900] "POST /PaintBBS/Test HTTP/1.1" 200 228
0:0:0:0:0:0:0:1 - - [19/Nov/2014:16:17:39 +0900] "POST /PaintBBS/Test HTTP/1.1" 200 228
0:0:0:0:0:0:0:1 - - [19/Nov/2014:16:17:46 +0900] "POST /PaintBBS/Test HTTP/1.1" 200 228
0:0:0:0:0:0:0:1 - - [19/Nov/2014:16:17:55 +0900] "POST /PaintBBS/Test HTTP/1.1" 200 228
0:0:0:0:0:0:0:1 - - [19/Nov/2014:16:19:49 +0900] "GET /PaintBBS/TestResult.jsp HTTP/1.1" 200 197
0:0:0:0:0:0:0:1 - - [19/Nov/2014:16:29:07 +0900] "GET /PaintBBS/Test HTTP/1.1" 200 111
0:0:0:0:0:0:0:1 - - [19/Nov/2014:16:29:13 +0900] "GET /PaintBBS/Test.jsp HTTP/1.1" 200 336
0:0:0:0:0:0:0:1 - - [19/Nov/2014:16:29:20 +0900] "POST /PaintBBS/Test HTTP/1.1" 200 229
0:0:0:0:0:0:0:1 - - [19/Nov/2014:16:29:29 +0900] "POST /PaintBBS/Test HTTP/1.1" 200 229
0:0:0:0:0:0:0:1 - - [19/Nov/2014:16:29:39 +0900] "POST /PaintBBS/Test HTTP/1.1" 200 229
0:0:0:0:0:0:0:1 - - [19/Nov/2014:16:29:53 +0900] "POST /PaintBBS/Test HTTP/1.1" 200 229
0:0:0:0:0:0:0:1 - - [19/Nov/2014:16:35:24 +0900] "GET /PaintBBS/Test.jsp HTTP/1.1" 200 336
127.0.0.1 - - [19/Nov/2014:16:42:36 +0900] "GET / HTTP/1.1" 404 1019
0:0:0:0:0:0:0:1 - - [19/Nov/2014:16:42:36 +0900] "GET /PaintBBS/Test.jsp HTTP/1.1" 200 336
0:0:0:0:0:0:0:1 - - [19/Nov/2014:16:42:44 +0900] "POST /PaintBBS/Test HTTP/1.1" 200 217
0:0:0:0:0:0:0:1 - - [19/Nov/2014:16:42:48 +0900] "POST /PaintBBS/Test HTTP/1.1" 200 217
127.0.0.1 - - [19/Nov/2014:16:45:41 +0900] "GET / HTTP/1.1" 404 1019
0:0:0:0:0:0:0:1 - - [19/Nov/2014:16:45:42 +0900] "GET /PaintBBS/Test.jsp HTTP/1.1" 200 336
0:0:0:0:0:0:0:1 - - [19/Nov/2014:16:45:48 +0900] "POST /PaintBBS/Test HTTP/1.1" 200 217
0:0:0:0:0:0:0:1 - - [19/Nov/2014:16:48:51 +0900] "GET /PaintBBS/Test HTTP/1.1" 200 111
127.0.0.1 - - [19/Nov/2014:18:29:14 +0900] "GET / HTTP/1.1" 404 1019
0:0:0:0:0:0:0:1 - - [19/Nov/2014:18:29:14 +0900] "GET /PaintBBS/Test.jsp HTTP/1.1" 200 336
0:0:0:0:0:0:0:1 - - [19/Nov/2014:18:29:27 +0900] "POST /PaintBBS/Test HTTP/1.1" 500 3909
0:0:0:0:0:0:0:1 - - [19/Nov/2014:18:30:53 +0900] "GET /PaintBBS/Test.jsp HTTP/1.1" 200 336
0:0:0:0:0:0:0:1 - - [19/Nov/2014:18:31:01 +0900] "POST /PaintBBS/Test HTTP/1.1" 500 3909
0:0:0:0:0:0:0:1 - - [19/Nov/2014:18:34:34 +0900] "GET /PaintBBS/TestResult.jsp HTTP/1.1" 500 2777
0:0:0:0:0:0:0:1 - - [19/Nov/2014:18:34:51 +0900] "GET /PaintBBS/TestResult.jsp HTTP/1.1" 500 2777
0:0:0:0:0:0:0:1 - - [19/Nov/2014:18:35:24 +0900] "GET /PaintBBS/TestResult.jsp HTTP/1.1" 200 199
0:0:0:0:0:0:0:1 - - [19/Nov/2014:18:35:28 +0900] "GET /PaintBBS/Test.jsp HTTP/1.1" 200 336
0:0:0:0:0:0:0:1 - - [19/Nov/2014:18:35:33 +0900] "POST /PaintBBS/Test HTTP/1.1" 500 3963
0:0:0:0:0:0:0:1 - - [19/Nov/2014:18:36:00 +0900] "GET /PaintBBS/Test.jsp HTTP/1.1" 200 336
0:0:0:0:0:0:0:1 - - [19/Nov/2014:18:36:06 +0900] "POST /PaintBBS/Test HTTP/1.1" 500 3690
127.0.0.1 - - [19/Nov/2014:18:38:13 +0900] "GET / HTTP/1.1" 404 1019
0:0:0:0:0:0:0:1 - - [19/Nov/2014:18:38:13 +0900] "GET /PaintBBS/WEB-INF/classes/jp/co/us717/ServletTest.java HTTP/1.1" 404 1017
127.0.0.1 - - [19/Nov/2014:18:44:20 +0900] "GET / HTTP/1.1" 404 1019
0:0:0:0:0:0:0:1 - - [19/Nov/2014:18:44:20 +0900] "GET /PaintBBS/Test.jsp HTTP/1.1" 200 336
0:0:0:0:0:0:0:1 - - [19/Nov/2014:18:44:27 +0900] "POST /PaintBBS/Test HTTP/1.1" 500 3690
127.0.0.1 - - [19/Nov/2014:18:52:03 +0900] "GET / HTTP/1.1" 404 1019
0:0:0:0:0:0:0:1 - - [19/Nov/2014:18:52:04 +0900] "GET /PaintBBS/Test.jsp HTTP/1.1" 200 336
0:0:0:0:0:0:0:1 - - [19/Nov/2014:18:52:09 +0900] "POST /PaintBBS/Test HTTP/1.1" 500 3690
0:0:0:0:0:0:0:1 - - [19/Nov/2014:19:10:51 +0900] "GET /PaintBBS/TestResult.jsp HTTP/1.1" 200 199
0:0:0:0:0:0:0:1 - - [19/Nov/2014:19:13:16 +0900] "GET /PaintBBS/TestResult.jsp HTTP/1.1" 200 199
0:0:0:0:0:0:0:1 - - [19/Nov/2014:19:13:21 +0900] "GET /PaintBBS/Test.jsp HTTP/1.1" 200 336
0:0:0:0:0:0:0:1 - - [19/Nov/2014:19:13:27 +0900] "POST /PaintBBS/Test HTTP/1.1" 500 3690
0:0:0:0:0:0:0:1 - - [19/Nov/2014:19:15:37 +0900] "GET /PaintBBS/Test.jsp HTTP/1.1" 200 336
0:0:0:0:0:0:0:1 - - [19/Nov/2014:19:15:43 +0900] "POST /PaintBBS/Test HTTP/1.1" 500 3963
0:0:0:0:0:0:0:1 - - [19/Nov/2014:19:16:51 +0900] "GET /PaintBBS/Test.jsp HTTP/1.1" 200 336
0:0:0:0:0:0:0:1 - - [19/Nov/2014:19:16:57 +0900] "POST /PaintBBS/Test HTTP/1.1" 200 231
