127.0.0.1 - - [16/Dec/2014:05:59:41 +0900] "GET / HTTP/1.1" 404 1019
0:0:0:0:0:0:0:1 - - [16/Dec/2014:05:59:42 +0900] "GET /PaintBBS/DrawServlet HTTP/1.1" 500 4999
127.0.0.1 - - [16/Dec/2014:08:24:11 +0900] "GET / HTTP/1.1" 404 1019
0:0:0:0:0:0:0:1 - - [16/Dec/2014:08:24:12 +0900] "GET /PaintBBS/WEB-INF/classes/jp/co/us717/model/PostResBean.java HTTP/1.1" 404 1017
127.0.0.1 - - [16/Dec/2014:10:28:35 +0900] "GET / HTTP/1.1" 404 1019
0:0:0:0:0:0:0:1 - - [16/Dec/2014:10:28:35 +0900] "GET /PaintBBS/WEB-INF/classes/jp/co/us717/model/PostResBean.java HTTP/1.1" 404 1017
127.0.0.1 - - [16/Dec/2014:11:38:46 +0900] "GET / HTTP/1.1" 404 1019
0:0:0:0:0:0:0:1 - - [16/Dec/2014:11:38:47 +0900] "GET /PaintBBS/index.jsp HTTP/1.1" 500 4359
0:0:0:0:0:0:0:1 - - [16/Dec/2014:11:38:51 +0900] "GET /PaintBBS/paint.jsp HTTP/1.1" 500 4359
0:0:0:0:0:0:0:1 - - [16/Dec/2014:11:39:02 +0900] "GET /PaintBBS/paint.jsp HTTP/1.1" 500 4359
0:0:0:0:0:0:0:1 - - [16/Dec/2014:11:39:11 +0900] "GET /PaintBBS/paint.jsp HTTP/1.1" 500 4359
0:0:0:0:0:0:0:1 - - [16/Dec/2014:11:39:34 +0900] "GET /PaintBBS/index.jsp HTTP/1.1" 500 4359
127.0.0.1 - - [16/Dec/2014:11:40:43 +0900] "GET / HTTP/1.1" 404 1019
0:0:0:0:0:0:0:1 - - [16/Dec/2014:11:40:44 +0900] "GET /PaintBBS/paint.jsp HTTP/1.1" 500 4359
0:0:0:0:0:0:0:1 - - [16/Dec/2014:11:41:19 +0900] "GET /PaintBBS/paint.jsp HTTP/1.1" 500 4359
0:0:0:0:0:0:0:1 - - [16/Dec/2014:11:41:22 +0900] "GET /PaintBBS/paint.jsp HTTP/1.1" 500 4359
0:0:0:0:0:0:0:1 - - [16/Dec/2014:11:41:24 +0900] "GET /PaintBBS/paint.jsp HTTP/1.1" 500 4359
0:0:0:0:0:0:0:1 - - [16/Dec/2014:11:41:26 +0900] "GET /PaintBBS/paint.jsp HTTP/1.1" 500 4359
0:0:0:0:0:0:0:1 - - [16/Dec/2014:11:41:26 +0900] "GET /PaintBBS/paint.jsp HTTP/1.1" 500 4359
0:0:0:0:0:0:0:1 - - [16/Dec/2014:11:41:27 +0900] "GET /PaintBBS/paint.jsp HTTP/1.1" 500 4359
0:0:0:0:0:0:0:1 - - [16/Dec/2014:11:41:27 +0900] "GET /PaintBBS/paint.jsp HTTP/1.1" 500 4359
0:0:0:0:0:0:0:1 - - [16/Dec/2014:11:41:28 +0900] "GET /PaintBBS/paint.jsp HTTP/1.1" 500 4359
0:0:0:0:0:0:0:1 - - [16/Dec/2014:11:41:28 +0900] "GET /PaintBBS/paint.jsp HTTP/1.1" 500 4359
127.0.0.1 - - [16/Dec/2014:11:42:25 +0900] "GET / HTTP/1.1" 404 1019
0:0:0:0:0:0:0:1 - - [16/Dec/2014:11:42:25 +0900] "GET /PaintBBS/paint.jsp HTTP/1.1" 500 4359
127.0.0.1 - - [16/Dec/2014:11:43:06 +0900] "GET / HTTP/1.1" 404 1019
0:0:0:0:0:0:0:1 - - [16/Dec/2014:11:43:07 +0900] "GET /PaintBBS/paint.jsp HTTP/1.1" 500 4359
0:0:0:0:0:0:0:1 - - [16/Dec/2014:11:43:58 +0900] "GET /PaintBBS/paint.jsp HTTP/1.1" 500 4359
0:0:0:0:0:0:0:1 - - [16/Dec/2014:11:43:59 +0900] "GET /PaintBBS/paint.jsp HTTP/1.1" 500 4359
0:0:0:0:0:0:0:1 - - [16/Dec/2014:11:44:01 +0900] "GET /PaintBBS/paint.jsp HTTP/1.1" 500 4359
0:0:0:0:0:0:0:1 - - [16/Dec/2014:11:44:33 +0900] "GET /PaintBBS/paint.jsp HTTP/1.1" 500 4359
127.0.0.1 - - [16/Dec/2014:11:44:46 +0900] "GET / HTTP/1.1" 404 1019
127.0.0.1 - - [16/Dec/2014:11:45:03 +0900] "GET / HTTP/1.1" 404 1019
0:0:0:0:0:0:0:1 - - [16/Dec/2014:11:45:03 +0900] "GET /PaintBBS/paint.jsp HTTP/1.1" 500 4359
0:0:0:0:0:0:0:1 - - [16/Dec/2014:11:45:49 +0900] "GET /PaintBBS/index.jsp HTTP/1.1" 500 4359
0:0:0:0:0:0:0:1 - - [16/Dec/2014:11:46:56 +0900] "GET /PaintBBS/paint.jsp HTTP/1.1" 500 4359
127.0.0.1 - - [16/Dec/2014:12:05:00 +0900] "GET / HTTP/1.1" 404 1019
0:0:0:0:0:0:0:1 - - [16/Dec/2014:12:05:01 +0900] "GET /PaintBBS/paint.jsp HTTP/1.1" 500 4359
0:0:0:0:0:0:0:1 - - [16/Dec/2014:12:06:20 +0900] "GET /PaintBBS/paint.jsp HTTP/1.1" 500 4359
0:0:0:0:0:0:0:1 - - [16/Dec/2014:12:06:29 +0900] "GET /PaintBBS/PostPaint HTTP/1.1" 405 1203
0:0:0:0:0:0:0:1 - - [16/Dec/2014:12:08:42 +0900] "GET /PaintBBS/WEB-INF/jsp/ForwardIndex.jsp HTTP/1.1" 404 1017
127.0.0.1 - - [16/Dec/2014:12:09:08 +0900] "GET / HTTP/1.1" 404 1019
0:0:0:0:0:0:0:1 - - [16/Dec/2014:12:09:08 +0900] "GET /PaintBBS/paint.jsp HTTP/1.1" 500 4359
0:0:0:0:0:0:0:1 - - [16/Dec/2014:13:29:08 +0900] "GET /PaintBBS/DrawServlet HTTP/1.1" 500 2098
0:0:0:0:0:0:0:1 - - [16/Dec/2014:13:29:11 +0900] "GET /PaintBBS/DrawServlet HTTP/1.1" 500 2098
0:0:0:0:0:0:0:1 - - [16/Dec/2014:13:29:13 +0900] "GET /PaintBBS/DrawServlet HTTP/1.1" 404 1017
0:0:0:0:0:0:0:1 - - [16/Dec/2014:13:29:14 +0900] "GET /PaintBBS/DrawServlet HTTP/1.1" 404 1017
127.0.0.1 - - [16/Dec/2014:13:29:39 +0900] "GET / HTTP/1.1" 404 1019
0:0:0:0:0:0:0:1 - - [16/Dec/2014:13:29:40 +0900] "GET /PaintBBS/paint.jsp HTTP/1.1" 404 1055
0:0:0:0:0:0:0:1 - - [16/Dec/2014:13:30:05 +0900] "GET /PaintBBS/paint.jsp HTTP/1.1" 404 1055
0:0:0:0:0:0:0:1 - - [16/Dec/2014:13:30:38 +0900] "GET /PaintBBS/paint.jsp HTTP/1.1" 404 1055
0:0:0:0:0:0:0:1 - - [16/Dec/2014:13:31:42 +0900] "GET /PaintBBS/paint.jsp HTTP/1.1" 404 1055
0:0:0:0:0:0:0:1 - - [16/Dec/2014:13:31:51 +0900] "GET /PaintBBS/paint.jsp HTTP/1.1" 404 1055
0:0:0:0:0:0:0:1 - - [16/Dec/2014:13:31:53 +0900] "GET /PaintBBS/paint.jsp HTTP/1.1" 404 1055
0:0:0:0:0:0:0:1 - - [16/Dec/2014:13:31:54 +0900] "GET /PaintBBS/paint.jsp HTTP/1.1" 404 1055
0:0:0:0:0:0:0:1 - - [16/Dec/2014:13:31:56 +0900] "GET /PaintBBS/paint.jsp HTTP/1.1" 404 1055
0:0:0:0:0:0:0:1 - - [16/Dec/2014:13:31:56 +0900] "GET /PaintBBS/paint.jsp HTTP/1.1" 404 1055
0:0:0:0:0:0:0:1 - - [16/Dec/2014:13:31:57 +0900] "GET /PaintBBS/paint.jsp HTTP/1.1" 404 1055
0:0:0:0:0:0:0:1 - - [16/Dec/2014:13:31:57 +0900] "GET /PaintBBS/paint.jsp HTTP/1.1" 404 1055
0:0:0:0:0:0:0:1 - - [16/Dec/2014:13:31:57 +0900] "GET /PaintBBS/paint.jsp HTTP/1.1" 404 1055
0:0:0:0:0:0:0:1 - - [16/Dec/2014:13:31:58 +0900] "GET /PaintBBS/paint.jsp HTTP/1.1" 404 1055
0:0:0:0:0:0:0:1 - - [16/Dec/2014:13:31:58 +0900] "GET /PaintBBS/paint.jsp HTTP/1.1" 404 1055
0:0:0:0:0:0:0:1 - - [16/Dec/2014:13:31:59 +0900] "GET /PaintBBS/paint.jsp HTTP/1.1" 404 1055
0:0:0:0:0:0:0:1 - - [16/Dec/2014:13:31:59 +0900] "GET /PaintBBS/paint.jsp HTTP/1.1" 404 1055
0:0:0:0:0:0:0:1 - - [16/Dec/2014:13:32:00 +0900] "GET /PaintBBS/paint.jsp HTTP/1.1" 404 1055
0:0:0:0:0:0:0:1 - - [16/Dec/2014:13:32:00 +0900] "GET /PaintBBS/paint.jsp HTTP/1.1" 404 1055
0:0:0:0:0:0:0:1 - - [16/Dec/2014:13:32:01 +0900] "GET /PaintBBS/paint.jsp HTTP/1.1" 404 1055
0:0:0:0:0:0:0:1 - - [16/Dec/2014:13:32:01 +0900] "GET /PaintBBS/paint.jsp HTTP/1.1" 404 1055
0:0:0:0:0:0:0:1 - - [16/Dec/2014:13:32:02 +0900] "GET /PaintBBS/paint.jsp HTTP/1.1" 404 1055
0:0:0:0:0:0:0:1 - - [16/Dec/2014:13:32:02 +0900] "GET /PaintBBS/paint.jsp HTTP/1.1" 404 1055
0:0:0:0:0:0:0:1 - - [16/Dec/2014:13:32:04 +0900] "GET /PaintBBS/paint.jsp HTTP/1.1" 404 1055
0:0:0:0:0:0:0:1 - - [16/Dec/2014:13:32:05 +0900] "GET /PaintBBS/paint.jsp HTTP/1.1" 404 1055
0:0:0:0:0:0:0:1 - - [16/Dec/2014:13:32:06 +0900] "GET /PaintBBS/paint.jsp HTTP/1.1" 404 1055
0:0:0:0:0:0:0:1 - - [16/Dec/2014:13:32:06 +0900] "GET /PaintBBS/paint.jsp HTTP/1.1" 404 1055
127.0.0.1 - - [16/Dec/2014:13:33:05 +0900] "GET / HTTP/1.1" 404 1019
0:0:0:0:0:0:0:1 - - [16/Dec/2014:13:33:06 +0900] "GET /PaintBBS/paint.jsp HTTP/1.1" 404 1055
127.0.0.1 - - [16/Dec/2014:13:36:30 +0900] "GET / HTTP/1.1" 404 1019
0:0:0:0:0:0:0:1 - - [16/Dec/2014:13:36:30 +0900] "GET /PaintBBS/paint.jsp HTTP/1.1" 200 1112
0:0:0:0:0:0:0:1 - - [16/Dec/2014:13:36:30 +0900] "GET /PaintBBS/lib/jquery.simple-color-picker.css HTTP/1.1" 404 1105
0:0:0:0:0:0:0:1 - - [16/Dec/2014:13:36:30 +0900] "GET /PaintBBS/lib/jquery-ui.min.css HTTP/1.1" 404 1079
0:0:0:0:0:0:0:1 - - [16/Dec/2014:13:36:30 +0900] "GET /PaintBBS/lib/jquery-2.1.1.min.js HTTP/1.1" 404 1083
0:0:0:0:0:0:0:1 - - [16/Dec/2014:13:36:30 +0900] "GET /PaintBBS/lib/jquery.simple-color-picker.js HTTP/1.1" 404 1103
0:0:0:0:0:0:0:1 - - [16/Dec/2014:13:36:30 +0900] "GET /PaintBBS/lib/jquery-ui.min.js HTTP/1.1" 404 1077
0:0:0:0:0:0:0:1 - - [16/Dec/2014:13:36:30 +0900] "GET /PaintBBS/js/paint.js HTTP/1.1" 404 1059
0:0:0:0:0:0:0:1 - - [16/Dec/2014:13:36:36 +0900] "POST /PaintBBS/PostPaint HTTP/1.1" 500 2433
127.0.0.1 - - [16/Dec/2014:13:36:43 +0900] "GET / HTTP/1.1" 404 1019
0:0:0:0:0:0:0:1 - - [16/Dec/2014:13:36:43 +0900] "GET /PaintBBS/paint.jsp HTTP/1.1" 200 1112
0:0:0:0:0:0:0:1 - - [16/Dec/2014:13:36:43 +0900] "GET /PaintBBS/lib/jquery-ui.min.css HTTP/1.1" 404 1079
0:0:0:0:0:0:0:1 - - [16/Dec/2014:13:36:43 +0900] "GET /PaintBBS/lib/jquery.simple-color-picker.css HTTP/1.1" 404 1105
0:0:0:0:0:0:0:1 - - [16/Dec/2014:13:36:43 +0900] "GET /PaintBBS/lib/jquery-2.1.1.min.js HTTP/1.1" 404 1083
0:0:0:0:0:0:0:1 - - [16/Dec/2014:13:36:43 +0900] "GET /PaintBBS/lib/jquery-ui.min.js HTTP/1.1" 404 1077
0:0:0:0:0:0:0:1 - - [16/Dec/2014:13:36:43 +0900] "GET /PaintBBS/lib/jquery.simple-color-picker.js HTTP/1.1" 404 1103
0:0:0:0:0:0:0:1 - - [16/Dec/2014:13:36:43 +0900] "GET /PaintBBS/js/paint.js HTTP/1.1" 404 1059
0:0:0:0:0:0:0:1 - - [16/Dec/2014:13:37:34 +0900] "GET /PaintBBS/paint.jsp HTTP/1.1" 200 1112
0:0:0:0:0:0:0:1 - - [16/Dec/2014:13:37:34 +0900] "GET /PaintBBS/lib/jquery-ui.min.css HTTP/1.1" 404 1079
0:0:0:0:0:0:0:1 - - [16/Dec/2014:13:37:34 +0900] "GET /PaintBBS/lib/jquery.simple-color-picker.css HTTP/1.1" 404 1105
0:0:0:0:0:0:0:1 - - [16/Dec/2014:13:37:34 +0900] "GET /PaintBBS/lib/jquery-2.1.1.min.js HTTP/1.1" 404 1083
0:0:0:0:0:0:0:1 - - [16/Dec/2014:13:37:34 +0900] "GET /PaintBBS/lib/jquery.simple-color-picker.js HTTP/1.1" 404 1103
0:0:0:0:0:0:0:1 - - [16/Dec/2014:13:37:34 +0900] "GET /PaintBBS/lib/jquery-ui.min.js HTTP/1.1" 404 1077
0:0:0:0:0:0:0:1 - - [16/Dec/2014:13:37:34 +0900] "GET /PaintBBS/js/paint.js HTTP/1.1" 404 1059
0:0:0:0:0:0:0:1 - - [16/Dec/2014:13:37:43 +0900] "GET /PaintBBS/paint.jsp HTTP/1.1" 200 1112
0:0:0:0:0:0:0:1 - - [16/Dec/2014:13:37:43 +0900] "GET /PaintBBS/lib/jquery.simple-color-picker.css HTTP/1.1" 404 1105
0:0:0:0:0:0:0:1 - - [16/Dec/2014:13:37:43 +0900] "GET /PaintBBS/lib/jquery-ui.min.css HTTP/1.1" 404 1079
0:0:0:0:0:0:0:1 - - [16/Dec/2014:13:37:43 +0900] "GET /PaintBBS/lib/jquery-2.1.1.min.js HTTP/1.1" 404 1083
0:0:0:0:0:0:0:1 - - [16/Dec/2014:13:37:43 +0900] "GET /PaintBBS/lib/jquery.simple-color-picker.js HTTP/1.1" 404 1103
0:0:0:0:0:0:0:1 - - [16/Dec/2014:13:37:43 +0900] "GET /PaintBBS/lib/jquery-ui.min.js HTTP/1.1" 404 1077
0:0:0:0:0:0:0:1 - - [16/Dec/2014:13:37:43 +0900] "GET /PaintBBS/js/paint.js HTTP/1.1" 404 1059
0:0:0:0:0:0:0:1 - - [16/Dec/2014:13:37:44 +0900] "GET /PaintBBS/paint.jsp HTTP/1.1" 200 1112
0:0:0:0:0:0:0:1 - - [16/Dec/2014:13:37:44 +0900] "GET /PaintBBS/lib/jquery.simple-color-picker.css HTTP/1.1" 404 1105
0:0:0:0:0:0:0:1 - - [16/Dec/2014:13:37:44 +0900] "GET /PaintBBS/lib/jquery-ui.min.css HTTP/1.1" 404 1079
0:0:0:0:0:0:0:1 - - [16/Dec/2014:13:37:44 +0900] "GET /PaintBBS/lib/jquery.simple-color-picker.js HTTP/1.1" 404 1103
0:0:0:0:0:0:0:1 - - [16/Dec/2014:13:37:44 +0900] "GET /PaintBBS/lib/jquery-2.1.1.min.js HTTP/1.1" 404 1083
0:0:0:0:0:0:0:1 - - [16/Dec/2014:13:37:44 +0900] "GET /PaintBBS/lib/jquery-ui.min.js HTTP/1.1" 404 1077
0:0:0:0:0:0:0:1 - - [16/Dec/2014:13:37:44 +0900] "GET /PaintBBS/js/paint.js HTTP/1.1" 404 1059
0:0:0:0:0:0:0:1 - - [16/Dec/2014:13:37:45 +0900] "GET /PaintBBS/paint.jsp HTTP/1.1" 200 1112
0:0:0:0:0:0:0:1 - - [16/Dec/2014:13:37:45 +0900] "GET /PaintBBS/lib/jquery.simple-color-picker.css HTTP/1.1" 404 1105
0:0:0:0:0:0:0:1 - - [16/Dec/2014:13:37:45 +0900] "GET /PaintBBS/lib/jquery-ui.min.css HTTP/1.1" 404 1079
0:0:0:0:0:0:0:1 - - [16/Dec/2014:13:37:45 +0900] "GET /PaintBBS/lib/jquery-2.1.1.min.js HTTP/1.1" 404 1083
0:0:0:0:0:0:0:1 - - [16/Dec/2014:13:37:45 +0900] "GET /PaintBBS/lib/jquery-ui.min.js HTTP/1.1" 404 1077
0:0:0:0:0:0:0:1 - - [16/Dec/2014:13:37:45 +0900] "GET /PaintBBS/lib/jquery.simple-color-picker.js HTTP/1.1" 404 1103
0:0:0:0:0:0:0:1 - - [16/Dec/2014:13:37:45 +0900] "GET /PaintBBS/js/paint.js HTTP/1.1" 404 1059
0:0:0:0:0:0:0:1 - - [16/Dec/2014:13:37:47 +0900] "POST /PaintBBS/PostPaint HTTP/1.1" 500 2433
0:0:0:0:0:0:0:1 - - [16/Dec/2014:13:37:55 +0900] "GET /PaintBBS/paint.jsp HTTP/1.1" 200 1112
0:0:0:0:0:0:0:1 - - [16/Dec/2014:13:37:56 +0900] "GET /PaintBBS/lib/jquery-ui.min.css HTTP/1.1" 404 1079
0:0:0:0:0:0:0:1 - - [16/Dec/2014:13:37:56 +0900] "GET /PaintBBS/lib/jquery.simple-color-picker.css HTTP/1.1" 404 1105
0:0:0:0:0:0:0:1 - - [16/Dec/2014:13:37:56 +0900] "GET /PaintBBS/lib/jquery-2.1.1.min.js HTTP/1.1" 404 1083
0:0:0:0:0:0:0:1 - - [16/Dec/2014:13:37:56 +0900] "GET /PaintBBS/lib/jquery.simple-color-picker.js HTTP/1.1" 404 1103
0:0:0:0:0:0:0:1 - - [16/Dec/2014:13:37:56 +0900] "GET /PaintBBS/lib/jquery-ui.min.js HTTP/1.1" 404 1077
0:0:0:0:0:0:0:1 - - [16/Dec/2014:13:37:56 +0900] "GET /PaintBBS/js/paint.js HTTP/1.1" 404 1059
0:0:0:0:0:0:0:1 - - [16/Dec/2014:13:38:04 +0900] "GET /PaintBBS/paint.jsp HTTP/1.1" 200 1112
0:0:0:0:0:0:0:1 - - [16/Dec/2014:13:38:04 +0900] "GET /PaintBBS/lib/jquery-ui.min.css HTTP/1.1" 404 1079
0:0:0:0:0:0:0:1 - - [16/Dec/2014:13:38:04 +0900] "GET /PaintBBS/lib/jquery.simple-color-picker.css HTTP/1.1" 404 1105
0:0:0:0:0:0:0:1 - - [16/Dec/2014:13:38:04 +0900] "GET /PaintBBS/lib/jquery.simple-color-picker.js HTTP/1.1" 404 1103
0:0:0:0:0:0:0:1 - - [16/Dec/2014:13:38:04 +0900] "GET /PaintBBS/lib/jquery-2.1.1.min.js HTTP/1.1" 404 1083
0:0:0:0:0:0:0:1 - - [16/Dec/2014:13:38:04 +0900] "GET /PaintBBS/js/paint.js HTTP/1.1" 404 1059
0:0:0:0:0:0:0:1 - - [16/Dec/2014:13:38:04 +0900] "GET /PaintBBS/lib/jquery-ui.min.js HTTP/1.1" 404 1077
0:0:0:0:0:0:0:1 - - [16/Dec/2014:13:38:07 +0900] "GET /PaintBBS/paint.jsp HTTP/1.1" 200 1112
0:0:0:0:0:0:0:1 - - [16/Dec/2014:13:38:07 +0900] "GET /PaintBBS/lib/jquery.simple-color-picker.css HTTP/1.1" 404 1105
0:0:0:0:0:0:0:1 - - [16/Dec/2014:13:38:07 +0900] "GET /PaintBBS/lib/jquery-ui.min.css HTTP/1.1" 404 1079
0:0:0:0:0:0:0:1 - - [16/Dec/2014:13:38:07 +0900] "GET /PaintBBS/lib/jquery-2.1.1.min.js HTTP/1.1" 404 1083
0:0:0:0:0:0:0:1 - - [16/Dec/2014:13:38:07 +0900] "GET /PaintBBS/lib/jquery.simple-color-picker.js HTTP/1.1" 404 1103
0:0:0:0:0:0:0:1 - - [16/Dec/2014:13:38:07 +0900] "GET /PaintBBS/lib/jquery-ui.min.js HTTP/1.1" 404 1077
0:0:0:0:0:0:0:1 - - [16/Dec/2014:13:38:07 +0900] "GET /PaintBBS/js/paint.js HTTP/1.1" 404 1059
0:0:0:0:0:0:0:1 - - [16/Dec/2014:13:38:08 +0900] "GET /PaintBBS/paint.jsp HTTP/1.1" 200 1112
0:0:0:0:0:0:0:1 - - [16/Dec/2014:13:38:08 +0900] "GET /PaintBBS/lib/jquery-ui.min.css HTTP/1.1" 404 1079
0:0:0:0:0:0:0:1 - - [16/Dec/2014:13:38:08 +0900] "GET /PaintBBS/lib/jquery.simple-color-picker.css HTTP/1.1" 404 1105
0:0:0:0:0:0:0:1 - - [16/Dec/2014:13:38:08 +0900] "GET /PaintBBS/lib/jquery.simple-color-picker.js HTTP/1.1" 404 1103
0:0:0:0:0:0:0:1 - - [16/Dec/2014:13:38:08 +0900] "GET /PaintBBS/lib/jquery-2.1.1.min.js HTTP/1.1" 404 1083
0:0:0:0:0:0:0:1 - - [16/Dec/2014:13:38:08 +0900] "GET /PaintBBS/lib/jquery-ui.min.js HTTP/1.1" 404 1077
0:0:0:0:0:0:0:1 - - [16/Dec/2014:13:38:08 +0900] "GET /PaintBBS/js/paint.js HTTP/1.1" 404 1059
0:0:0:0:0:0:0:1 - - [16/Dec/2014:13:39:21 +0900] "GET /PaintBBS/paint.jsp HTTP/1.1" 200 1112
0:0:0:0:0:0:0:1 - - [16/Dec/2014:13:39:21 +0900] "GET /PaintBBS/lib/jquery.simple-color-picker.css HTTP/1.1" 404 1105
0:0:0:0:0:0:0:1 - - [16/Dec/2014:13:39:21 +0900] "GET /PaintBBS/lib/jquery-ui.min.css HTTP/1.1" 404 1079
0:0:0:0:0:0:0:1 - - [16/Dec/2014:13:39:21 +0900] "GET /PaintBBS/lib/jquery-2.1.1.min.js HTTP/1.1" 404 1083
0:0:0:0:0:0:0:1 - - [16/Dec/2014:13:39:21 +0900] "GET /PaintBBS/lib/jquery.simple-color-picker.js HTTP/1.1" 404 1103
0:0:0:0:0:0:0:1 - - [16/Dec/2014:13:39:21 +0900] "GET /PaintBBS/lib/jquery-ui.min.js HTTP/1.1" 404 1077
0:0:0:0:0:0:0:1 - - [16/Dec/2014:13:39:21 +0900] "GET /PaintBBS/js/paint.js HTTP/1.1" 404 1059
127.0.0.1 - - [16/Dec/2014:13:39:51 +0900] "GET / HTTP/1.1" 404 1019
0:0:0:0:0:0:0:1 - - [16/Dec/2014:13:39:52 +0900] "GET /PaintBBS/paint.jsp HTTP/1.1" 200 1112
0:0:0:0:0:0:0:1 - - [16/Dec/2014:13:39:52 +0900] "GET /PaintBBS/lib/jquery.simple-color-picker.css HTTP/1.1" 404 1105
0:0:0:0:0:0:0:1 - - [16/Dec/2014:13:39:52 +0900] "GET /PaintBBS/lib/jquery-2.1.1.min.js HTTP/1.1" 404 1083
0:0:0:0:0:0:0:1 - - [16/Dec/2014:13:39:52 +0900] "GET /PaintBBS/lib/jquery-ui.min.css HTTP/1.1" 404 1079
0:0:0:0:0:0:0:1 - - [16/Dec/2014:13:39:52 +0900] "GET /PaintBBS/lib/jquery-ui.min.js HTTP/1.1" 404 1077
0:0:0:0:0:0:0:1 - - [16/Dec/2014:13:39:52 +0900] "GET /PaintBBS/lib/jquery.simple-color-picker.js HTTP/1.1" 404 1103
0:0:0:0:0:0:0:1 - - [16/Dec/2014:13:39:52 +0900] "GET /PaintBBS/js/paint.js HTTP/1.1" 404 1059
127.0.0.1 - - [16/Dec/2014:13:41:00 +0900] "GET / HTTP/1.1" 404 1019
0:0:0:0:0:0:0:1 - - [16/Dec/2014:13:41:00 +0900] "GET /PaintBBS/paint.jsp HTTP/1.1" 200 1112
0:0:0:0:0:0:0:1 - - [16/Dec/2014:13:41:00 +0900] "GET /PaintBBS/lib/jquery.simple-color-picker.css HTTP/1.1" 404 1105
0:0:0:0:0:0:0:1 - - [16/Dec/2014:13:41:00 +0900] "GET /PaintBBS/lib/jquery-ui.min.css HTTP/1.1" 404 1079
0:0:0:0:0:0:0:1 - - [16/Dec/2014:13:41:00 +0900] "GET /PaintBBS/lib/jquery-2.1.1.min.js HTTP/1.1" 404 1083
0:0:0:0:0:0:0:1 - - [16/Dec/2014:13:41:00 +0900] "GET /PaintBBS/lib/jquery.simple-color-picker.js HTTP/1.1" 404 1103
0:0:0:0:0:0:0:1 - - [16/Dec/2014:13:41:00 +0900] "GET /PaintBBS/lib/jquery-ui.min.js HTTP/1.1" 404 1077
0:0:0:0:0:0:0:1 - - [16/Dec/2014:13:41:00 +0900] "GET /PaintBBS/js/paint.js HTTP/1.1" 404 1059
127.0.0.1 - - [16/Dec/2014:13:42:06 +0900] "GET / HTTP/1.1" 404 1019
127.0.0.1 - - [16/Dec/2014:13:42:12 +0900] "GET / HTTP/1.1" 404 1019
0:0:0:0:0:0:0:1 - - [16/Dec/2014:13:42:12 +0900] "GET /PaintBBS/paint.jsp HTTP/1.1" 200 1112
0:0:0:0:0:0:0:1 - - [16/Dec/2014:13:42:12 +0900] "GET /PaintBBS/lib/jquery.simple-color-picker.css HTTP/1.1" 404 1105
0:0:0:0:0:0:0:1 - - [16/Dec/2014:13:42:12 +0900] "GET /PaintBBS/lib/jquery-2.1.1.min.js HTTP/1.1" 404 1083
0:0:0:0:0:0:0:1 - - [16/Dec/2014:13:42:12 +0900] "GET /PaintBBS/lib/jquery-ui.min.css HTTP/1.1" 404 1079
0:0:0:0:0:0:0:1 - - [16/Dec/2014:13:42:12 +0900] "GET /PaintBBS/lib/jquery-ui.min.js HTTP/1.1" 404 1077
0:0:0:0:0:0:0:1 - - [16/Dec/2014:13:42:12 +0900] "GET /PaintBBS/lib/jquery.simple-color-picker.js HTTP/1.1" 404 1103
0:0:0:0:0:0:0:1 - - [16/Dec/2014:13:42:12 +0900] "GET /PaintBBS/js/paint.js HTTP/1.1" 404 1059
0:0:0:0:0:0:0:1 - - [16/Dec/2014:13:43:40 +0900] "GET /PaintBBS/paint.jsp HTTP/1.1" 200 1112
0:0:0:0:0:0:0:1 - - [16/Dec/2014:13:43:40 +0900] "GET /PaintBBS/lib/jquery-ui.min.css HTTP/1.1" 404 1079
0:0:0:0:0:0:0:1 - - [16/Dec/2014:13:43:40 +0900] "GET /PaintBBS/lib/jquery.simple-color-picker.css HTTP/1.1" 404 1105
0:0:0:0:0:0:0:1 - - [16/Dec/2014:13:43:40 +0900] "GET /PaintBBS/lib/jquery-2.1.1.min.js HTTP/1.1" 404 1083
0:0:0:0:0:0:0:1 - - [16/Dec/2014:13:43:40 +0900] "GET /PaintBBS/lib/jquery.simple-color-picker.js HTTP/1.1" 404 1103
0:0:0:0:0:0:0:1 - - [16/Dec/2014:13:43:40 +0900] "GET /PaintBBS/lib/jquery-ui.min.js HTTP/1.1" 404 1077
0:0:0:0:0:0:0:1 - - [16/Dec/2014:13:43:40 +0900] "GET /PaintBBS/js/paint.js HTTP/1.1" 404 1059
0:0:0:0:0:0:0:1 - - [16/Dec/2014:13:43:46 +0900] "POST /PaintBBS/PostPaint HTTP/1.1" 500 2433
0:0:0:0:0:0:0:1 - - [16/Dec/2014:13:44:28 +0900] "GET /PaintBBS/paint.jsp HTTP/1.1" 200 1112
0:0:0:0:0:0:0:1 - - [16/Dec/2014:13:44:28 +0900] "GET /PaintBBS/lib/jquery.simple-color-picker.css HTTP/1.1" 404 1105
0:0:0:0:0:0:0:1 - - [16/Dec/2014:13:44:28 +0900] "GET /PaintBBS/lib/jquery-ui.min.css HTTP/1.1" 404 1079
0:0:0:0:0:0:0:1 - - [16/Dec/2014:13:44:28 +0900] "GET /PaintBBS/lib/jquery-2.1.1.min.js HTTP/1.1" 404 1083
0:0:0:0:0:0:0:1 - - [16/Dec/2014:13:44:28 +0900] "GET /PaintBBS/lib/jquery.simple-color-picker.js HTTP/1.1" 404 1103
0:0:0:0:0:0:0:1 - - [16/Dec/2014:13:44:28 +0900] "GET /PaintBBS/lib/jquery-ui.min.js HTTP/1.1" 404 1077
0:0:0:0:0:0:0:1 - - [16/Dec/2014:13:44:28 +0900] "GET /PaintBBS/js/paint.js HTTP/1.1" 404 1059
0:0:0:0:0:0:0:1 - - [16/Dec/2014:13:44:31 +0900] "POST /PaintBBS/PostPaint HTTP/1.1" 500 1876
0:0:0:0:0:0:0:1 - - [16/Dec/2014:13:45:23 +0900] "GET /PaintBBS/paint.jsp HTTP/1.1" 200 1112
0:0:0:0:0:0:0:1 - - [16/Dec/2014:13:45:23 +0900] "GET /PaintBBS/lib/jquery-ui.min.css HTTP/1.1" 404 1079
0:0:0:0:0:0:0:1 - - [16/Dec/2014:13:45:23 +0900] "GET /PaintBBS/lib/jquery.simple-color-picker.css HTTP/1.1" 404 1105
0:0:0:0:0:0:0:1 - - [16/Dec/2014:13:45:23 +0900] "GET /PaintBBS/lib/jquery-2.1.1.min.js HTTP/1.1" 404 1083
0:0:0:0:0:0:0:1 - - [16/Dec/2014:13:45:23 +0900] "GET /PaintBBS/lib/jquery.simple-color-picker.js HTTP/1.1" 404 1103
0:0:0:0:0:0:0:1 - - [16/Dec/2014:13:45:23 +0900] "GET /PaintBBS/lib/jquery-ui.min.js HTTP/1.1" 404 1077
0:0:0:0:0:0:0:1 - - [16/Dec/2014:13:45:23 +0900] "GET /PaintBBS/js/paint.js HTTP/1.1" 404 1059
0:0:0:0:0:0:0:1 - - [16/Dec/2014:13:45:25 +0900] "POST /PaintBBS/PostPaint HTTP/1.1" 500 1876
127.0.0.1 - - [16/Dec/2014:13:46:26 +0900] "GET / HTTP/1.1" 404 1019
0:0:0:0:0:0:0:1 - - [16/Dec/2014:13:46:27 +0900] "GET /PaintBBS/paint.jsp HTTP/1.1" 200 1112
0:0:0:0:0:0:0:1 - - [16/Dec/2014:13:46:27 +0900] "GET /PaintBBS/lib/jquery-ui.min.css HTTP/1.1" 404 1079
0:0:0:0:0:0:0:1 - - [16/Dec/2014:13:46:27 +0900] "GET /PaintBBS/lib/jquery.simple-color-picker.css HTTP/1.1" 404 1105
0:0:0:0:0:0:0:1 - - [16/Dec/2014:13:46:27 +0900] "GET /PaintBBS/lib/jquery-2.1.1.min.js HTTP/1.1" 404 1083
0:0:0:0:0:0:0:1 - - [16/Dec/2014:13:46:27 +0900] "GET /PaintBBS/lib/jquery.simple-color-picker.js HTTP/1.1" 404 1103
0:0:0:0:0:0:0:1 - - [16/Dec/2014:13:46:27 +0900] "GET /PaintBBS/lib/jquery-ui.min.js HTTP/1.1" 404 1077
0:0:0:0:0:0:0:1 - - [16/Dec/2014:13:46:27 +0900] "GET /PaintBBS/js/paint.js HTTP/1.1" 404 1059
127.0.0.1 - - [16/Dec/2014:13:46:39 +0900] "GET / HTTP/1.1" 404 1019
0:0:0:0:0:0:0:1 - - [16/Dec/2014:13:46:46 +0900] "POST /PaintBBS/PostPaint HTTP/1.1" 500 2433
127.0.0.1 - - [16/Dec/2014:13:49:47 +0900] "GET / HTTP/1.1" 404 1019
0:0:0:0:0:0:0:1 - - [16/Dec/2014:13:49:47 +0900] "GET /PaintBBS/paint.jsp HTTP/1.1" 200 1112
0:0:0:0:0:0:0:1 - - [16/Dec/2014:13:49:47 +0900] "GET /PaintBBS/lib/jquery.simple-color-picker.css HTTP/1.1" 404 1105
0:0:0:0:0:0:0:1 - - [16/Dec/2014:13:49:47 +0900] "GET /PaintBBS/lib/jquery-ui.min.css HTTP/1.1" 404 1079
0:0:0:0:0:0:0:1 - - [16/Dec/2014:13:49:47 +0900] "GET /PaintBBS/lib/jquery.simple-color-picker.js HTTP/1.1" 404 1103
0:0:0:0:0:0:0:1 - - [16/Dec/2014:13:49:47 +0900] "GET /PaintBBS/lib/jquery-ui.min.js HTTP/1.1" 404 1077
0:0:0:0:0:0:0:1 - - [16/Dec/2014:13:49:47 +0900] "GET /PaintBBS/js/paint.js HTTP/1.1" 404 1059
0:0:0:0:0:0:0:1 - - [16/Dec/2014:13:49:47 +0900] "GET /PaintBBS/lib/jquery-2.1.1.min.js HTTP/1.1" 404 1083
0:0:0:0:0:0:0:1 - - [16/Dec/2014:13:50:03 +0900] "GET /PaintBBS/DrawServlet HTTP/1.1" 500 2411
0:0:0:0:0:0:0:1 - - [16/Dec/2014:13:50:08 +0900] "GET /PaintBBS/paint.jsp HTTP/1.1" 200 1112
0:0:0:0:0:0:0:1 - - [16/Dec/2014:13:50:08 +0900] "GET /PaintBBS/lib/jquery-ui.min.css HTTP/1.1" 404 1079
0:0:0:0:0:0:0:1 - - [16/Dec/2014:13:50:08 +0900] "GET /PaintBBS/lib/jquery-2.1.1.min.js HTTP/1.1" 404 1083
0:0:0:0:0:0:0:1 - - [16/Dec/2014:13:50:08 +0900] "GET /PaintBBS/lib/jquery.simple-color-picker.css HTTP/1.1" 404 1105
0:0:0:0:0:0:0:1 - - [16/Dec/2014:13:50:08 +0900] "GET /PaintBBS/lib/jquery-ui.min.js HTTP/1.1" 404 1077
0:0:0:0:0:0:0:1 - - [16/Dec/2014:13:50:08 +0900] "GET /PaintBBS/lib/jquery.simple-color-picker.js HTTP/1.1" 404 1103
0:0:0:0:0:0:0:1 - - [16/Dec/2014:13:50:08 +0900] "GET /PaintBBS/js/paint.js HTTP/1.1" 404 1059
0:0:0:0:0:0:0:1 - - [16/Dec/2014:13:50:10 +0900] "POST /PaintBBS/PostPaint HTTP/1.1" 500 2433
127.0.0.1 - - [16/Dec/2014:13:51:15 +0900] "GET / HTTP/1.1" 404 1019
0:0:0:0:0:0:0:1 - - [16/Dec/2014:13:51:15 +0900] "GET /PaintBBS/paint.jsp HTTP/1.1" 200 1112
0:0:0:0:0:0:0:1 - - [16/Dec/2014:13:51:15 +0900] "GET /PaintBBS/lib/jquery-ui.min.css HTTP/1.1" 404 1079
0:0:0:0:0:0:0:1 - - [16/Dec/2014:13:51:15 +0900] "GET /PaintBBS/lib/jquery.simple-color-picker.css HTTP/1.1" 404 1105
0:0:0:0:0:0:0:1 - - [16/Dec/2014:13:51:15 +0900] "GET /PaintBBS/js/paint.js HTTP/1.1" 404 1059
0:0:0:0:0:0:0:1 - - [16/Dec/2014:13:51:15 +0900] "GET /PaintBBS/lib/jquery.simple-color-picker.js HTTP/1.1" 404 1103
0:0:0:0:0:0:0:1 - - [16/Dec/2014:13:51:15 +0900] "GET /PaintBBS/lib/jquery-2.1.1.min.js HTTP/1.1" 404 1083
0:0:0:0:0:0:0:1 - - [16/Dec/2014:13:51:15 +0900] "GET /PaintBBS/lib/jquery-ui.min.js HTTP/1.1" 404 1077
127.0.0.1 - - [16/Dec/2014:13:54:11 +0900] "GET / HTTP/1.1" 404 1019
0:0:0:0:0:0:0:1 - - [16/Dec/2014:13:54:11 +0900] "GET /PaintBBS/paint.jsp HTTP/1.1" 200 1112
0:0:0:0:0:0:0:1 - - [16/Dec/2014:13:54:11 +0900] "GET /PaintBBS/lib/jquery.simple-color-picker.css HTTP/1.1" 404 1105
0:0:0:0:0:0:0:1 - - [16/Dec/2014:13:54:11 +0900] "GET /PaintBBS/lib/jquery-ui.min.css HTTP/1.1" 404 1079
0:0:0:0:0:0:0:1 - - [16/Dec/2014:13:54:11 +0900] "GET /PaintBBS/lib/jquery.simple-color-picker.js HTTP/1.1" 404 1103
0:0:0:0:0:0:0:1 - - [16/Dec/2014:13:54:11 +0900] "GET /PaintBBS/lib/jquery-2.1.1.min.js HTTP/1.1" 404 1083
0:0:0:0:0:0:0:1 - - [16/Dec/2014:13:54:11 +0900] "GET /PaintBBS/js/paint.js HTTP/1.1" 404 1059
0:0:0:0:0:0:0:1 - - [16/Dec/2014:13:54:11 +0900] "GET /PaintBBS/lib/jquery-ui.min.js HTTP/1.1" 404 1077
0:0:0:0:0:0:0:1 - - [16/Dec/2014:13:54:13 +0900] "POST /PaintBBS/PostPaint HTTP/1.1" 500 2433
0:0:0:0:0:0:0:1 - - [16/Dec/2014:13:55:39 +0900] "GET /PaintBBS/paint.jsp HTTP/1.1" 200 1112
0:0:0:0:0:0:0:1 - - [16/Dec/2014:13:55:39 +0900] "GET /PaintBBS/lib/jquery.simple-color-picker.css HTTP/1.1" 404 1105
0:0:0:0:0:0:0:1 - - [16/Dec/2014:13:55:39 +0900] "GET /PaintBBS/lib/jquery-2.1.1.min.js HTTP/1.1" 404 1083
0:0:0:0:0:0:0:1 - - [16/Dec/2014:13:55:39 +0900] "GET /PaintBBS/lib/jquery-ui.min.css HTTP/1.1" 404 1079
0:0:0:0:0:0:0:1 - - [16/Dec/2014:13:55:39 +0900] "GET /PaintBBS/lib/jquery.simple-color-picker.js HTTP/1.1" 404 1103
0:0:0:0:0:0:0:1 - - [16/Dec/2014:13:55:39 +0900] "GET /PaintBBS/lib/jquery-ui.min.js HTTP/1.1" 404 1077
0:0:0:0:0:0:0:1 - - [16/Dec/2014:13:55:39 +0900] "GET /PaintBBS/js/paint.js HTTP/1.1" 404 1059
0:0:0:0:0:0:0:1 - - [16/Dec/2014:13:55:44 +0900] "POST /PaintBBS/PostPaint HTTP/1.1" 500 1876
0:0:0:0:0:0:0:1 - - [16/Dec/2014:13:56:20 +0900] "GET /PaintBBS/paint.jsp HTTP/1.1" 200 1112
0:0:0:0:0:0:0:1 - - [16/Dec/2014:13:56:20 +0900] "GET /PaintBBS/lib/jquery.simple-color-picker.css HTTP/1.1" 404 1105
0:0:0:0:0:0:0:1 - - [16/Dec/2014:13:56:20 +0900] "GET /PaintBBS/lib/jquery-ui.min.css HTTP/1.1" 404 1079
0:0:0:0:0:0:0:1 - - [16/Dec/2014:13:56:20 +0900] "GET /PaintBBS/lib/jquery-2.1.1.min.js HTTP/1.1" 404 1083
0:0:0:0:0:0:0:1 - - [16/Dec/2014:13:56:20 +0900] "GET /PaintBBS/lib/jquery.simple-color-picker.js HTTP/1.1" 404 1103
0:0:0:0:0:0:0:1 - - [16/Dec/2014:13:56:20 +0900] "GET /PaintBBS/lib/jquery-ui.min.js HTTP/1.1" 404 1077
0:0:0:0:0:0:0:1 - - [16/Dec/2014:13:56:20 +0900] "GET /PaintBBS/js/paint.js HTTP/1.1" 404 1059
0:0:0:0:0:0:0:1 - - [16/Dec/2014:13:56:20 +0900] "GET /PaintBBS/paint.jsp HTTP/1.1" 200 1112
0:0:0:0:0:0:0:1 - - [16/Dec/2014:13:56:20 +0900] "GET /PaintBBS/lib/jquery.simple-color-picker.css HTTP/1.1" 404 1105
0:0:0:0:0:0:0:1 - - [16/Dec/2014:13:56:20 +0900] "GET /PaintBBS/lib/jquery-ui.min.css HTTP/1.1" 404 1079
0:0:0:0:0:0:0:1 - - [16/Dec/2014:13:56:20 +0900] "GET /PaintBBS/lib/jquery.simple-color-picker.js HTTP/1.1" 404 1103
0:0:0:0:0:0:0:1 - - [16/Dec/2014:13:56:20 +0900] "GET /PaintBBS/lib/jquery-2.1.1.min.js HTTP/1.1" 404 1083
0:0:0:0:0:0:0:1 - - [16/Dec/2014:13:56:20 +0900] "GET /PaintBBS/js/paint.js HTTP/1.1" 404 1059
0:0:0:0:0:0:0:1 - - [16/Dec/2014:13:56:20 +0900] "GET /PaintBBS/lib/jquery-ui.min.js HTTP/1.1" 404 1077
0:0:0:0:0:0:0:1 - - [16/Dec/2014:13:56:23 +0900] "GET /PaintBBS/paint.jsp HTTP/1.1" 200 1112
0:0:0:0:0:0:0:1 - - [16/Dec/2014:13:56:23 +0900] "GET /PaintBBS/lib/jquery-ui.min.css HTTP/1.1" 404 1079
0:0:0:0:0:0:0:1 - - [16/Dec/2014:13:56:23 +0900] "GET /PaintBBS/lib/jquery.simple-color-picker.css HTTP/1.1" 404 1105
0:0:0:0:0:0:0:1 - - [16/Dec/2014:13:56:23 +0900] "GET /PaintBBS/lib/jquery.simple-color-picker.js HTTP/1.1" 404 1103
0:0:0:0:0:0:0:1 - - [16/Dec/2014:13:56:23 +0900] "GET /PaintBBS/lib/jquery-2.1.1.min.js HTTP/1.1" 404 1083
0:0:0:0:0:0:0:1 - - [16/Dec/2014:13:56:23 +0900] "GET /PaintBBS/lib/jquery-ui.min.js HTTP/1.1" 404 1077
0:0:0:0:0:0:0:1 - - [16/Dec/2014:13:56:23 +0900] "GET /PaintBBS/js/paint.js HTTP/1.1" 404 1059
0:0:0:0:0:0:0:1 - - [16/Dec/2014:13:56:25 +0900] "GET /PaintBBS/paint.jsp HTTP/1.1" 200 1112
0:0:0:0:0:0:0:1 - - [16/Dec/2014:13:56:25 +0900] "GET /PaintBBS/lib/jquery-ui.min.css HTTP/1.1" 404 1079
0:0:0:0:0:0:0:1 - - [16/Dec/2014:13:56:25 +0900] "GET /PaintBBS/lib/jquery.simple-color-picker.css HTTP/1.1" 404 1105
0:0:0:0:0:0:0:1 - - [16/Dec/2014:13:56:25 +0900] "GET /PaintBBS/lib/jquery-2.1.1.min.js HTTP/1.1" 404 1083
0:0:0:0:0:0:0:1 - - [16/Dec/2014:13:56:25 +0900] "GET /PaintBBS/lib/jquery.simple-color-picker.js HTTP/1.1" 404 1103
0:0:0:0:0:0:0:1 - - [16/Dec/2014:13:56:25 +0900] "GET /PaintBBS/lib/jquery-ui.min.js HTTP/1.1" 404 1077
0:0:0:0:0:0:0:1 - - [16/Dec/2014:13:56:25 +0900] "GET /PaintBBS/js/paint.js HTTP/1.1" 404 1059
0:0:0:0:0:0:0:1 - - [16/Dec/2014:13:56:27 +0900] "GET /PaintBBS/paint.jsp HTTP/1.1" 200 1112
0:0:0:0:0:0:0:1 - - [16/Dec/2014:13:56:27 +0900] "GET /PaintBBS/lib/jquery-ui.min.css HTTP/1.1" 404 1079
0:0:0:0:0:0:0:1 - - [16/Dec/2014:13:56:27 +0900] "GET /PaintBBS/lib/jquery.simple-color-picker.css HTTP/1.1" 404 1105
0:0:0:0:0:0:0:1 - - [16/Dec/2014:13:56:27 +0900] "GET /PaintBBS/lib/jquery-2.1.1.min.js HTTP/1.1" 404 1083
0:0:0:0:0:0:0:1 - - [16/Dec/2014:13:56:27 +0900] "GET /PaintBBS/lib/jquery.simple-color-picker.js HTTP/1.1" 404 1103
0:0:0:0:0:0:0:1 - - [16/Dec/2014:13:56:27 +0900] "GET /PaintBBS/lib/jquery-ui.min.js HTTP/1.1" 404 1077
0:0:0:0:0:0:0:1 - - [16/Dec/2014:13:56:27 +0900] "GET /PaintBBS/js/paint.js HTTP/1.1" 404 1059
0:0:0:0:0:0:0:1 - - [16/Dec/2014:13:56:28 +0900] "GET /PaintBBS/paint.jsp HTTP/1.1" 200 1112
0:0:0:0:0:0:0:1 - - [16/Dec/2014:13:56:28 +0900] "GET /PaintBBS/lib/jquery.simple-color-picker.css HTTP/1.1" 404 1105
0:0:0:0:0:0:0:1 - - [16/Dec/2014:13:56:28 +0900] "GET /PaintBBS/lib/jquery-ui.min.css HTTP/1.1" 404 1079
0:0:0:0:0:0:0:1 - - [16/Dec/2014:13:56:28 +0900] "GET /PaintBBS/lib/jquery-2.1.1.min.js HTTP/1.1" 404 1083
0:0:0:0:0:0:0:1 - - [16/Dec/2014:13:56:28 +0900] "GET /PaintBBS/lib/jquery.simple-color-picker.js HTTP/1.1" 404 1103
0:0:0:0:0:0:0:1 - - [16/Dec/2014:13:56:28 +0900] "GET /PaintBBS/lib/jquery-ui.min.js HTTP/1.1" 404 1077
0:0:0:0:0:0:0:1 - - [16/Dec/2014:13:56:28 +0900] "GET /PaintBBS/js/paint.js HTTP/1.1" 404 1059
0:0:0:0:0:0:0:1 - - [16/Dec/2014:13:56:29 +0900] "GET /PaintBBS/paint.jsp HTTP/1.1" 200 1112
0:0:0:0:0:0:0:1 - - [16/Dec/2014:13:56:29 +0900] "GET /PaintBBS/lib/jquery.simple-color-picker.css HTTP/1.1" 404 1105
0:0:0:0:0:0:0:1 - - [16/Dec/2014:13:56:29 +0900] "GET /PaintBBS/lib/jquery-ui.min.css HTTP/1.1" 404 1079
0:0:0:0:0:0:0:1 - - [16/Dec/2014:13:56:29 +0900] "GET /PaintBBS/lib/jquery.simple-color-picker.js HTTP/1.1" 404 1103
0:0:0:0:0:0:0:1 - - [16/Dec/2014:13:56:29 +0900] "GET /PaintBBS/lib/jquery-2.1.1.min.js HTTP/1.1" 404 1083
0:0:0:0:0:0:0:1 - - [16/Dec/2014:13:56:29 +0900] "GET /PaintBBS/lib/jquery-ui.min.js HTTP/1.1" 404 1077
0:0:0:0:0:0:0:1 - - [16/Dec/2014:13:56:29 +0900] "GET /PaintBBS/js/paint.js HTTP/1.1" 404 1059
0:0:0:0:0:0:0:1 - - [16/Dec/2014:13:56:31 +0900] "GET /PaintBBS/paint.jsp HTTP/1.1" 200 1112
0:0:0:0:0:0:0:1 - - [16/Dec/2014:13:56:31 +0900] "GET /PaintBBS/lib/jquery.simple-color-picker.css HTTP/1.1" 404 1105
0:0:0:0:0:0:0:1 - - [16/Dec/2014:13:56:31 +0900] "GET /PaintBBS/lib/jquery-ui.min.css HTTP/1.1" 404 1079
0:0:0:0:0:0:0:1 - - [16/Dec/2014:13:56:31 +0900] "GET /PaintBBS/lib/jquery.simple-color-picker.js HTTP/1.1" 404 1103
0:0:0:0:0:0:0:1 - - [16/Dec/2014:13:56:31 +0900] "GET /PaintBBS/lib/jquery-2.1.1.min.js HTTP/1.1" 404 1083
0:0:0:0:0:0:0:1 - - [16/Dec/2014:13:56:31 +0900] "GET /PaintBBS/lib/jquery-ui.min.js HTTP/1.1" 404 1077
0:0:0:0:0:0:0:1 - - [16/Dec/2014:13:56:31 +0900] "GET /PaintBBS/js/paint.js HTTP/1.1" 404 1059
0:0:0:0:0:0:0:1 - - [16/Dec/2014:13:56:31 +0900] "GET /PaintBBS/paint.jsp HTTP/1.1" 200 1112
0:0:0:0:0:0:0:1 - - [16/Dec/2014:13:56:31 +0900] "GET /PaintBBS/lib/jquery-ui.min.css HTTP/1.1" 404 1079
0:0:0:0:0:0:0:1 - - [16/Dec/2014:13:56:31 +0900] "GET /PaintBBS/lib/jquery.simple-color-picker.css HTTP/1.1" 404 1105
0:0:0:0:0:0:0:1 - - [16/Dec/2014:13:56:31 +0900] "GET /PaintBBS/lib/jquery.simple-color-picker.js HTTP/1.1" 404 1103
0:0:0:0:0:0:0:1 - - [16/Dec/2014:13:56:31 +0900] "GET /PaintBBS/lib/jquery-2.1.1.min.js HTTP/1.1" 404 1083
0:0:0:0:0:0:0:1 - - [16/Dec/2014:13:56:31 +0900] "GET /PaintBBS/lib/jquery-ui.min.js HTTP/1.1" 404 1077
0:0:0:0:0:0:0:1 - - [16/Dec/2014:13:56:31 +0900] "GET /PaintBBS/js/paint.js HTTP/1.1" 404 1059
0:0:0:0:0:0:0:1 - - [16/Dec/2014:13:56:32 +0900] "GET /PaintBBS/paint.jsp HTTP/1.1" 200 1112
0:0:0:0:0:0:0:1 - - [16/Dec/2014:13:56:32 +0900] "GET /PaintBBS/lib/jquery.simple-color-picker.css HTTP/1.1" 404 1105
0:0:0:0:0:0:0:1 - - [16/Dec/2014:13:56:32 +0900] "GET /PaintBBS/lib/jquery-ui.min.css HTTP/1.1" 404 1079
0:0:0:0:0:0:0:1 - - [16/Dec/2014:13:56:32 +0900] "GET /PaintBBS/lib/jquery-2.1.1.min.js HTTP/1.1" 404 1083
0:0:0:0:0:0:0:1 - - [16/Dec/2014:13:56:32 +0900] "GET /PaintBBS/lib/jquery.simple-color-picker.js HTTP/1.1" 404 1103
0:0:0:0:0:0:0:1 - - [16/Dec/2014:13:56:32 +0900] "GET /PaintBBS/lib/jquery-ui.min.js HTTP/1.1" 404 1077
0:0:0:0:0:0:0:1 - - [16/Dec/2014:13:56:32 +0900] "GET /PaintBBS/js/paint.js HTTP/1.1" 404 1059
0:0:0:0:0:0:0:1 - - [16/Dec/2014:13:56:32 +0900] "GET /PaintBBS/paint.jsp HTTP/1.1" 200 1112
0:0:0:0:0:0:0:1 - - [16/Dec/2014:13:56:32 +0900] "GET /PaintBBS/lib/jquery.simple-color-picker.css HTTP/1.1" 404 1105
0:0:0:0:0:0:0:1 - - [16/Dec/2014:13:56:32 +0900] "GET /PaintBBS/lib/jquery-ui.min.css HTTP/1.1" 404 1079
0:0:0:0:0:0:0:1 - - [16/Dec/2014:13:56:32 +0900] "GET /PaintBBS/lib/jquery.simple-color-picker.js HTTP/1.1" 404 1103
0:0:0:0:0:0:0:1 - - [16/Dec/2014:13:56:32 +0900] "GET /PaintBBS/lib/jquery-2.1.1.min.js HTTP/1.1" 404 1083
0:0:0:0:0:0:0:1 - - [16/Dec/2014:13:56:32 +0900] "GET /PaintBBS/lib/jquery-ui.min.js HTTP/1.1" 404 1077
0:0:0:0:0:0:0:1 - - [16/Dec/2014:13:56:32 +0900] "GET /PaintBBS/js/paint.js HTTP/1.1" 404 1059
0:0:0:0:0:0:0:1 - - [16/Dec/2014:13:56:35 +0900] "GET /PaintBBS/paint.jsp HTTP/1.1" 200 1112
0:0:0:0:0:0:0:1 - - [16/Dec/2014:13:56:35 +0900] "GET /PaintBBS/lib/jquery.simple-color-picker.css HTTP/1.1" 404 1105
0:0:0:0:0:0:0:1 - - [16/Dec/2014:13:56:35 +0900] "GET /PaintBBS/lib/jquery-ui.min.css HTTP/1.1" 404 1079
0:0:0:0:0:0:0:1 - - [16/Dec/2014:13:56:35 +0900] "GET /PaintBBS/lib/jquery.simple-color-picker.js HTTP/1.1" 404 1103
0:0:0:0:0:0:0:1 - - [16/Dec/2014:13:56:35 +0900] "GET /PaintBBS/lib/jquery-2.1.1.min.js HTTP/1.1" 404 1083
0:0:0:0:0:0:0:1 - - [16/Dec/2014:13:56:35 +0900] "GET /PaintBBS/js/paint.js HTTP/1.1" 404 1059
0:0:0:0:0:0:0:1 - - [16/Dec/2014:13:56:35 +0900] "GET /PaintBBS/lib/jquery-ui.min.js HTTP/1.1" 404 1077
0:0:0:0:0:0:0:1 - - [16/Dec/2014:13:56:35 +0900] "GET /PaintBBS/paint.jsp HTTP/1.1" 200 1112
0:0:0:0:0:0:0:1 - - [16/Dec/2014:13:56:35 +0900] "GET /PaintBBS/lib/jquery.simple-color-picker.css HTTP/1.1" 404 1105
0:0:0:0:0:0:0:1 - - [16/Dec/2014:13:56:35 +0900] "GET /PaintBBS/lib/jquery-ui.min.css HTTP/1.1" 404 1079
0:0:0:0:0:0:0:1 - - [16/Dec/2014:13:56:35 +0900] "GET /PaintBBS/lib/jquery-2.1.1.min.js HTTP/1.1" 404 1083
0:0:0:0:0:0:0:1 - - [16/Dec/2014:13:56:35 +0900] "GET /PaintBBS/lib/jquery-ui.min.js HTTP/1.1" 404 1077
0:0:0:0:0:0:0:1 - - [16/Dec/2014:13:56:35 +0900] "GET /PaintBBS/lib/jquery.simple-color-picker.js HTTP/1.1" 404 1103
0:0:0:0:0:0:0:1 - - [16/Dec/2014:13:56:35 +0900] "GET /PaintBBS/js/paint.js HTTP/1.1" 404 1059
0:0:0:0:0:0:0:1 - - [16/Dec/2014:13:56:39 +0900] "POST /PaintBBS/PostPaint HTTP/1.1" 500 1876
0:0:0:0:0:0:0:1 - - [16/Dec/2014:13:57:06 +0900] "GET /PaintBBS/paint.jsp HTTP/1.1" 200 1112
0:0:0:0:0:0:0:1 - - [16/Dec/2014:13:57:06 +0900] "GET /PaintBBS/lib/jquery.simple-color-picker.css HTTP/1.1" 404 1105
0:0:0:0:0:0:0:1 - - [16/Dec/2014:13:57:06 +0900] "GET /PaintBBS/lib/jquery-2.1.1.min.js HTTP/1.1" 404 1083
0:0:0:0:0:0:0:1 - - [16/Dec/2014:13:57:06 +0900] "GET /PaintBBS/lib/jquery-ui.min.js HTTP/1.1" 404 1077
0:0:0:0:0:0:0:1 - - [16/Dec/2014:13:57:06 +0900] "GET /PaintBBS/js/paint.js HTTP/1.1" 404 1059
0:0:0:0:0:0:0:1 - - [16/Dec/2014:13:57:06 +0900] "GET /PaintBBS/lib/jquery.simple-color-picker.js HTTP/1.1" 404 1103
0:0:0:0:0:0:0:1 - - [16/Dec/2014:13:57:06 +0900] "GET /PaintBBS/lib/jquery-ui.min.css HTTP/1.1" 404 1079
0:0:0:0:0:0:0:1 - - [16/Dec/2014:13:57:06 +0900] "GET /PaintBBS/lib/jquery-ui.min.js HTTP/1.1" 404 1077
0:0:0:0:0:0:0:1 - - [16/Dec/2014:13:57:06 +0900] "GET /PaintBBS/js/paint.js HTTP/1.1" 404 1059
0:0:0:0:0:0:0:1 - - [16/Dec/2014:13:57:06 +0900] "GET /favicon.ico HTTP/1.1" 404 1041
0:0:0:0:0:0:0:1 - - [16/Dec/2014:13:57:06 +0900] "GET /favicon.ico HTTP/1.1" 404 1041
0:0:0:0:0:0:0:1 - - [16/Dec/2014:13:57:08 +0900] "GET /PaintBBS/paint.jsp HTTP/1.1" 200 1112
0:0:0:0:0:0:0:1 - - [16/Dec/2014:13:57:08 +0900] "GET /PaintBBS/lib/jquery-ui.min.css HTTP/1.1" 404 1079
0:0:0:0:0:0:0:1 - - [16/Dec/2014:13:57:08 +0900] "GET /PaintBBS/lib/jquery.simple-color-picker.css HTTP/1.1" 404 1105
0:0:0:0:0:0:0:1 - - [16/Dec/2014:13:57:08 +0900] "GET /PaintBBS/lib/jquery-ui.min.js HTTP/1.1" 404 1077
0:0:0:0:0:0:0:1 - - [16/Dec/2014:13:57:08 +0900] "GET /PaintBBS/lib/jquery-2.1.1.min.js HTTP/1.1" 404 1083
0:0:0:0:0:0:0:1 - - [16/Dec/2014:13:57:08 +0900] "GET /PaintBBS/lib/jquery.simple-color-picker.js HTTP/1.1" 404 1103
0:0:0:0:0:0:0:1 - - [16/Dec/2014:13:57:08 +0900] "GET /PaintBBS/js/paint.js HTTP/1.1" 404 1059
0:0:0:0:0:0:0:1 - - [16/Dec/2014:13:57:08 +0900] "GET /PaintBBS/lib/jquery-ui.min.js HTTP/1.1" 404 1077
0:0:0:0:0:0:0:1 - - [16/Dec/2014:13:57:08 +0900] "GET /PaintBBS/js/paint.js HTTP/1.1" 404 1059
0:0:0:0:0:0:0:1 - - [16/Dec/2014:13:57:09 +0900] "GET /PaintBBS/paint.jsp HTTP/1.1" 200 1112
0:0:0:0:0:0:0:1 - - [16/Dec/2014:13:57:09 +0900] "GET /PaintBBS/lib/jquery.simple-color-picker.css HTTP/1.1" 404 1105
0:0:0:0:0:0:0:1 - - [16/Dec/2014:13:57:09 +0900] "GET /PaintBBS/lib/jquery-ui.min.css HTTP/1.1" 404 1079
0:0:0:0:0:0:0:1 - - [16/Dec/2014:13:57:09 +0900] "GET /PaintBBS/lib/jquery.simple-color-picker.js HTTP/1.1" 404 1103
0:0:0:0:0:0:0:1 - - [16/Dec/2014:13:57:09 +0900] "GET /PaintBBS/lib/jquery-2.1.1.min.js HTTP/1.1" 404 1083
0:0:0:0:0:0:0:1 - - [16/Dec/2014:13:57:09 +0900] "GET /PaintBBS/lib/jquery-ui.min.js HTTP/1.1" 404 1077
0:0:0:0:0:0:0:1 - - [16/Dec/2014:13:57:09 +0900] "GET /PaintBBS/js/paint.js HTTP/1.1" 404 1059
0:0:0:0:0:0:0:1 - - [16/Dec/2014:13:57:09 +0900] "GET /PaintBBS/lib/jquery.simple-color-picker.js HTTP/1.1" 404 1103
0:0:0:0:0:0:0:1 - - [16/Dec/2014:13:57:09 +0900] "GET /PaintBBS/lib/jquery-ui.min.js HTTP/1.1" 404 1077
0:0:0:0:0:0:0:1 - - [16/Dec/2014:13:57:09 +0900] "GET /PaintBBS/js/paint.js HTTP/1.1" 404 1059
0:0:0:0:0:0:0:1 - - [16/Dec/2014:13:57:11 +0900] "GET /PaintBBS/paint.jsp HTTP/1.1" 200 1112
0:0:0:0:0:0:0:1 - - [16/Dec/2014:13:57:11 +0900] "GET /PaintBBS/lib/jquery-ui.min.css HTTP/1.1" 404 1079
0:0:0:0:0:0:0:1 - - [16/Dec/2014:13:57:11 +0900] "GET /PaintBBS/lib/jquery.simple-color-picker.css HTTP/1.1" 404 1105
0:0:0:0:0:0:0:1 - - [16/Dec/2014:13:57:11 +0900] "GET /PaintBBS/lib/jquery-2.1.1.min.js HTTP/1.1" 404 1083
0:0:0:0:0:0:0:1 - - [16/Dec/2014:13:57:11 +0900] "GET /PaintBBS/lib/jquery-ui.min.js HTTP/1.1" 404 1077
0:0:0:0:0:0:0:1 - - [16/Dec/2014:13:57:11 +0900] "GET /PaintBBS/lib/jquery.simple-color-picker.js HTTP/1.1" 404 1103
0:0:0:0:0:0:0:1 - - [16/Dec/2014:13:57:11 +0900] "GET /PaintBBS/js/paint.js HTTP/1.1" 404 1059
0:0:0:0:0:0:0:1 - - [16/Dec/2014:13:57:11 +0900] "GET /PaintBBS/lib/jquery-ui.min.js HTTP/1.1" 404 1077
0:0:0:0:0:0:0:1 - - [16/Dec/2014:13:57:11 +0900] "GET /PaintBBS/js/paint.js HTTP/1.1" 404 1059
0:0:0:0:0:0:0:1 - - [16/Dec/2014:13:57:11 +0900] "GET /PaintBBS/paint.jsp HTTP/1.1" 200 1112
0:0:0:0:0:0:0:1 - - [16/Dec/2014:13:57:11 +0900] "GET /PaintBBS/lib/jquery-ui.min.css HTTP/1.1" 404 1079
0:0:0:0:0:0:0:1 - - [16/Dec/2014:13:57:11 +0900] "GET /PaintBBS/lib/jquery.simple-color-picker.js HTTP/1.1" 404 1103
0:0:0:0:0:0:0:1 - - [16/Dec/2014:13:57:11 +0900] "GET /PaintBBS/lib/jquery.simple-color-picker.css HTTP/1.1" 404 1105
0:0:0:0:0:0:0:1 - - [16/Dec/2014:13:57:11 +0900] "GET /PaintBBS/js/paint.js HTTP/1.1" 404 1059
0:0:0:0:0:0:0:1 - - [16/Dec/2014:13:57:11 +0900] "GET /PaintBBS/lib/jquery-ui.min.js HTTP/1.1" 404 1077
0:0:0:0:0:0:0:1 - - [16/Dec/2014:13:57:11 +0900] "GET /PaintBBS/lib/jquery-2.1.1.min.js HTTP/1.1" 404 1083
0:0:0:0:0:0:0:1 - - [16/Dec/2014:13:57:11 +0900] "GET /PaintBBS/lib/jquery.simple-color-picker.js HTTP/1.1" 404 1103
0:0:0:0:0:0:0:1 - - [16/Dec/2014:13:57:11 +0900] "GET /PaintBBS/lib/jquery-ui.min.js HTTP/1.1" 404 1077
0:0:0:0:0:0:0:1 - - [16/Dec/2014:13:57:11 +0900] "GET /PaintBBS/js/paint.js HTTP/1.1" 404 1059
0:0:0:0:0:0:0:1 - - [16/Dec/2014:13:57:21 +0900] "GET /PaintBBS/paint.jsp HTTP/1.1" 200 1112
0:0:0:0:0:0:0:1 - - [16/Dec/2014:13:57:21 +0900] "GET /PaintBBS/lib/jquery-2.1.1.min.js HTTP/1.1" 404 1083
0:0:0:0:0:0:0:1 - - [16/Dec/2014:13:57:21 +0900] "GET /PaintBBS/lib/jquery.simple-color-picker.css HTTP/1.1" 404 1105
0:0:0:0:0:0:0:1 - - [16/Dec/2014:13:57:21 +0900] "GET /PaintBBS/lib/jquery-ui.min.js HTTP/1.1" 404 1077
0:0:0:0:0:0:0:1 - - [16/Dec/2014:13:57:21 +0900] "GET /PaintBBS/lib/jquery.simple-color-picker.js HTTP/1.1" 404 1103
0:0:0:0:0:0:0:1 - - [16/Dec/2014:13:57:21 +0900] "GET /PaintBBS/lib/jquery-ui.min.css HTTP/1.1" 404 1079
0:0:0:0:0:0:0:1 - - [16/Dec/2014:13:57:21 +0900] "GET /PaintBBS/js/paint.js HTTP/1.1" 404 1059
0:0:0:0:0:0:0:1 - - [16/Dec/2014:13:57:21 +0900] "GET /PaintBBS/lib/jquery.simple-color-picker.js HTTP/1.1" 404 1103
0:0:0:0:0:0:0:1 - - [16/Dec/2014:13:57:21 +0900] "GET /PaintBBS/lib/jquery-ui.min.js HTTP/1.1" 404 1077
0:0:0:0:0:0:0:1 - - [16/Dec/2014:13:57:21 +0900] "GET /PaintBBS/js/paint.js HTTP/1.1" 404 1059
0:0:0:0:0:0:0:1 - - [16/Dec/2014:13:58:26 +0900] "GET /PaintBBS/index.jsp HTTP/1.1" 404 1055
0:0:0:0:0:0:0:1 - - [16/Dec/2014:13:58:32 +0900] "GET /PaintBBS/index.jsp HTTP/1.1" 404 1055
0:0:0:0:0:0:0:1 - - [16/Dec/2014:13:58:34 +0900] "GET /PaintBBS/index.jsp HTTP/1.1" 404 1055
0:0:0:0:0:0:0:1 - - [16/Dec/2014:13:58:36 +0900] "GET /PaintBBS/index.jsp HTTP/1.1" 404 1055
0:0:0:0:0:0:0:1 - - [16/Dec/2014:13:58:37 +0900] "GET /PaintBBS/index.jsp HTTP/1.1" 404 1055
0:0:0:0:0:0:0:1 - - [16/Dec/2014:13:58:37 +0900] "GET /PaintBBS/index.jsp HTTP/1.1" 404 1055
0:0:0:0:0:0:0:1 - - [16/Dec/2014:13:58:37 +0900] "GET /PaintBBS/index.jsp HTTP/1.1" 404 1055
0:0:0:0:0:0:0:1 - - [16/Dec/2014:13:58:38 +0900] "GET /PaintBBS/index.jsp HTTP/1.1" 404 1055
0:0:0:0:0:0:0:1 - - [16/Dec/2014:13:58:38 +0900] "GET /PaintBBS/index.jsp HTTP/1.1" 404 1055
0:0:0:0:0:0:0:1 - - [16/Dec/2014:13:58:38 +0900] "GET /PaintBBS/index.jsp HTTP/1.1" 404 1055
0:0:0:0:0:0:0:1 - - [16/Dec/2014:13:58:38 +0900] "GET /PaintBBS/index.jsp HTTP/1.1" 404 1055
0:0:0:0:0:0:0:1 - - [16/Dec/2014:13:58:39 +0900] "GET /PaintBBS/index.jsp HTTP/1.1" 404 1055
0:0:0:0:0:0:0:1 - - [16/Dec/2014:13:58:39 +0900] "GET /PaintBBS/index.jsp HTTP/1.1" 404 1055
0:0:0:0:0:0:0:1 - - [16/Dec/2014:13:58:39 +0900] "GET /PaintBBS/index.jsp HTTP/1.1" 404 1055
0:0:0:0:0:0:0:1 - - [16/Dec/2014:13:58:39 +0900] "GET /PaintBBS/index.jsp HTTP/1.1" 404 1055
0:0:0:0:0:0:0:1 - - [16/Dec/2014:13:58:39 +0900] "GET /PaintBBS/index.jsp HTTP/1.1" 404 1055
0:0:0:0:0:0:0:1 - - [16/Dec/2014:14:03:51 +0900] "GET /PaintBBS/index.jsp HTTP/1.1" 404 1055
0:0:0:0:0:0:0:1 - - [16/Dec/2014:14:07:32 +0900] "GET /PaintBBS/index.jsp HTTP/1.1" 404 1055
0:0:0:0:0:0:0:1 - - [16/Dec/2014:14:07:39 +0900] "GET /PaintBBS/index.jsp HTTP/1.1" 500 5179
0:0:0:0:0:0:0:1 - - [16/Dec/2014:14:07:39 +0900] "GET /PaintBBS/index.jsp HTTP/1.1" 500 3934
0:0:0:0:0:0:0:1 - - [16/Dec/2014:14:07:40 +0900] "GET /PaintBBS/index.jsp HTTP/1.1" 500 5179
0:0:0:0:0:0:0:1 - - [16/Dec/2014:14:07:40 +0900] "GET /PaintBBS/index.jsp HTTP/1.1" 500 3934
0:0:0:0:0:0:0:1 - - [16/Dec/2014:14:07:40 +0900] "GET /PaintBBS/index.jsp HTTP/1.1" 500 3934
127.0.0.1 - - [16/Dec/2014:14:07:46 +0900] "GET / HTTP/1.1" 404 1019
0:0:0:0:0:0:0:1 - - [16/Dec/2014:14:07:47 +0900] "GET /PaintBBS/index.jsp HTTP/1.1" 500 5179
0:0:0:0:0:0:0:1 - - [16/Dec/2014:14:08:05 +0900] "GET /PaintBBS/index.jsp HTTP/1.1" 500 3934
0:0:0:0:0:0:0:1 - - [16/Dec/2014:14:08:05 +0900] "GET /PaintBBS/index.jsp HTTP/1.1" 500 3934
127.0.0.1 - - [16/Dec/2014:14:08:50 +0900] "GET / HTTP/1.1" 404 1019
0:0:0:0:0:0:0:1 - - [16/Dec/2014:14:08:50 +0900] "GET /PaintBBS/index.jsp HTTP/1.1" 500 5179
127.0.0.1 - - [16/Dec/2014:14:09:56 +0900] "GET / HTTP/1.1" 404 1019
0:0:0:0:0:0:0:1 - - [16/Dec/2014:14:09:56 +0900] "GET /PaintBBS/paint.jsp HTTP/1.1" 200 1112
0:0:0:0:0:0:0:1 - - [16/Dec/2014:14:09:56 +0900] "GET /PaintBBS/lib/jquery-ui.min.css HTTP/1.1" 404 1079
0:0:0:0:0:0:0:1 - - [16/Dec/2014:14:09:56 +0900] "GET /PaintBBS/lib/jquery.simple-color-picker.css HTTP/1.1" 404 1105
0:0:0:0:0:0:0:1 - - [16/Dec/2014:14:09:56 +0900] "GET /PaintBBS/lib/jquery.simple-color-picker.js HTTP/1.1" 404 1103
0:0:0:0:0:0:0:1 - - [16/Dec/2014:14:09:56 +0900] "GET /PaintBBS/lib/jquery-2.1.1.min.js HTTP/1.1" 404 1083
0:0:0:0:0:0:0:1 - - [16/Dec/2014:14:09:56 +0900] "GET /PaintBBS/lib/jquery-ui.min.js HTTP/1.1" 404 1077
0:0:0:0:0:0:0:1 - - [16/Dec/2014:14:09:56 +0900] "GET /PaintBBS/js/paint.js HTTP/1.1" 404 1059
0:0:0:0:0:0:0:1 - - [16/Dec/2014:14:10:34 +0900] "POST /PaintBBS/PostPaint HTTP/1.1" 500 2433
127.0.0.1 - - [16/Dec/2014:14:18:41 +0900] "GET / HTTP/1.1" 404 1019
0:0:0:0:0:0:0:1 - - [16/Dec/2014:14:18:41 +0900] "GET /PaintBBS/paint.jsp HTTP/1.1" 200 1112
0:0:0:0:0:0:0:1 - - [16/Dec/2014:14:18:42 +0900] "GET /PaintBBS/lib/jquery.simple-color-picker.css HTTP/1.1" 404 1105
0:0:0:0:0:0:0:1 - - [16/Dec/2014:14:18:42 +0900] "GET /PaintBBS/lib/jquery-ui.min.css HTTP/1.1" 404 1079
0:0:0:0:0:0:0:1 - - [16/Dec/2014:14:18:42 +0900] "GET /PaintBBS/lib/jquery.simple-color-picker.js HTTP/1.1" 404 1103
0:0:0:0:0:0:0:1 - - [16/Dec/2014:14:18:42 +0900] "GET /PaintBBS/lib/jquery-2.1.1.min.js HTTP/1.1" 404 1083
0:0:0:0:0:0:0:1 - - [16/Dec/2014:14:18:42 +0900] "GET /PaintBBS/js/paint.js HTTP/1.1" 404 1059
0:0:0:0:0:0:0:1 - - [16/Dec/2014:14:18:42 +0900] "GET /PaintBBS/lib/jquery-ui.min.js HTTP/1.1" 404 1077
0:0:0:0:0:0:0:1 - - [16/Dec/2014:14:19:53 +0900] "GET /PaintBBS/index.jsp HTTP/1.1" 500 5179
0:0:0:0:0:0:0:1 - - [16/Dec/2014:14:24:39 +0900] "GET /PaintBBS/paint.jsp HTTP/1.1" 200 1112
0:0:0:0:0:0:0:1 - - [16/Dec/2014:14:24:39 +0900] "GET /PaintBBS/lib/jquery-ui.min.css HTTP/1.1" 404 1079
0:0:0:0:0:0:0:1 - - [16/Dec/2014:14:24:39 +0900] "GET /PaintBBS/lib/jquery.simple-color-picker.css HTTP/1.1" 404 1105
0:0:0:0:0:0:0:1 - - [16/Dec/2014:14:24:39 +0900] "GET /PaintBBS/lib/jquery.simple-color-picker.js HTTP/1.1" 404 1103
0:0:0:0:0:0:0:1 - - [16/Dec/2014:14:24:39 +0900] "GET /PaintBBS/lib/jquery-2.1.1.min.js HTTP/1.1" 404 1083
0:0:0:0:0:0:0:1 - - [16/Dec/2014:14:24:39 +0900] "GET /PaintBBS/lib/jquery-ui.min.js HTTP/1.1" 404 1077
0:0:0:0:0:0:0:1 - - [16/Dec/2014:14:24:39 +0900] "GET /PaintBBS/js/paint.js HTTP/1.1" 404 1059
0:0:0:0:0:0:0:1 - - [16/Dec/2014:14:24:46 +0900] "GET /PaintBBS/index.jsp HTTP/1.1" 500 3934
127.0.0.1 - - [16/Dec/2014:14:26:52 +0900] "GET / HTTP/1.1" 404 1019
0:0:0:0:0:0:0:1 - - [16/Dec/2014:14:26:53 +0900] "GET /PaintBBS/index.jsp HTTP/1.1" 500 5179
0:0:0:0:0:0:0:1 - - [16/Dec/2014:14:27:12 +0900] "GET /PaintBBS/index.jsp HTTP/1.1" 500 3934
0:0:0:0:0:0:0:1 - - [16/Dec/2014:14:27:14 +0900] "GET /PaintBBS/index.jsp HTTP/1.1" 500 3934
0:0:0:0:0:0:0:1 - - [16/Dec/2014:14:27:16 +0900] "GET /PaintBBS/index.jsp HTTP/1.1" 500 3934
0:0:0:0:0:0:0:1 - - [16/Dec/2014:14:27:18 +0900] "GET /PaintBBS/index.jsp HTTP/1.1" 500 3934
0:0:0:0:0:0:0:1 - - [16/Dec/2014:14:27:18 +0900] "GET /PaintBBS/index.jsp HTTP/1.1" 500 3934
0:0:0:0:0:0:0:1 - - [16/Dec/2014:14:27:19 +0900] "GET /PaintBBS/index.jsp HTTP/1.1" 500 3934
0:0:0:0:0:0:0:1 - - [16/Dec/2014:14:27:19 +0900] "GET /PaintBBS/index.jsp HTTP/1.1" 500 3934
0:0:0:0:0:0:0:1 - - [16/Dec/2014:14:27:20 +0900] "GET /PaintBBS/index.jsp HTTP/1.1" 500 3934
127.0.0.1 - - [16/Dec/2014:14:27:31 +0900] "GET / HTTP/1.1" 404 1019
0:0:0:0:0:0:0:1 - - [16/Dec/2014:14:27:32 +0900] "GET /PaintBBS/index.jsp HTTP/1.1" 500 5179
0:0:0:0:0:0:0:1 - - [16/Dec/2014:14:27:33 +0900] "GET /PaintBBS/index.jsp HTTP/1.1" 500 3934
0:0:0:0:0:0:0:1 - - [16/Dec/2014:14:30:33 +0900] "GET /PaintBBS/index.jsp HTTP/1.1" 500 3934
0:0:0:0:0:0:0:1 - - [16/Dec/2014:14:30:52 +0900] "GET /PaintBBS/index.jsp HTTP/1.1" 500 3934
0:0:0:0:0:0:0:1 - - [16/Dec/2014:14:30:54 +0900] "GET /PaintBBS/index.jsp HTTP/1.1" 500 3934
0:0:0:0:0:0:0:1 - - [16/Dec/2014:14:30:55 +0900] "GET /PaintBBS/index.jsp HTTP/1.1" 500 3934
0:0:0:0:0:0:0:1 - - [16/Dec/2014:14:30:56 +0900] "GET /PaintBBS/index.jsp HTTP/1.1" 500 3934
127.0.0.1 - - [16/Dec/2014:14:32:31 +0900] "GET / HTTP/1.1" 404 1019
0:0:0:0:0:0:0:1 - - [16/Dec/2014:14:32:32 +0900] "GET /PaintBBS/index.jsp HTTP/1.1" 500 5336
0:0:0:0:0:0:0:1 - - [16/Dec/2014:14:32:59 +0900] "GET /PaintBBS/index.jsp HTTP/1.1" 500 4092
0:0:0:0:0:0:0:1 - - [16/Dec/2014:14:33:07 +0900] "GET /PaintBBS/index.jsp HTTP/1.1" 500 4092
0:0:0:0:0:0:0:1 - - [16/Dec/2014:14:33:18 +0900] "GET /PaintBBS/index.jsp HTTP/1.1" 500 4091
0:0:0:0:0:0:0:1 - - [16/Dec/2014:14:33:41 +0900] "GET /PaintBBS/index.jsp HTTP/1.1" 500 4091
0:0:0:0:0:0:0:1 - - [16/Dec/2014:14:33:43 +0900] "GET /PaintBBS/index.jsp HTTP/1.1" 500 4091
0:0:0:0:0:0:0:1 - - [16/Dec/2014:14:33:44 +0900] "GET /PaintBBS/index.jsp HTTP/1.1" 500 4091
0:0:0:0:0:0:0:1 - - [16/Dec/2014:14:33:45 +0900] "GET /PaintBBS/index.jsp HTTP/1.1" 500 4091
0:0:0:0:0:0:0:1 - - [16/Dec/2014:14:33:46 +0900] "GET /PaintBBS/index.jsp HTTP/1.1" 500 4091
0:0:0:0:0:0:0:1 - - [16/Dec/2014:14:33:46 +0900] "GET /PaintBBS/index.jsp HTTP/1.1" 500 4091
0:0:0:0:0:0:0:1 - - [16/Dec/2014:14:33:47 +0900] "GET /PaintBBS/index.jsp HTTP/1.1" 500 4091
0:0:0:0:0:0:0:1 - - [16/Dec/2014:14:33:48 +0900] "GET /PaintBBS/index.jsp HTTP/1.1" 500 4091
0:0:0:0:0:0:0:1 - - [16/Dec/2014:14:33:48 +0900] "GET /PaintBBS/index.jsp HTTP/1.1" 500 4091
0:0:0:0:0:0:0:1 - - [16/Dec/2014:14:33:49 +0900] "GET /PaintBBS/index.jsp HTTP/1.1" 500 4091
0:0:0:0:0:0:0:1 - - [16/Dec/2014:14:33:50 +0900] "GET /PaintBBS/index.jsp HTTP/1.1" 500 4091
0:0:0:0:0:0:0:1 - - [16/Dec/2014:14:33:51 +0900] "GET /PaintBBS/index.jsp HTTP/1.1" 500 4091
0:0:0:0:0:0:0:1 - - [16/Dec/2014:14:33:51 +0900] "GET /PaintBBS/index.jsp HTTP/1.1" 500 4091
0:0:0:0:0:0:0:1 - - [16/Dec/2014:14:33:52 +0900] "GET /PaintBBS/index.jsp HTTP/1.1" 500 4091
0:0:0:0:0:0:0:1 - - [16/Dec/2014:14:33:52 +0900] "GET /PaintBBS/index.jsp HTTP/1.1" 500 4091
0:0:0:0:0:0:0:1 - - [16/Dec/2014:14:33:53 +0900] "GET /PaintBBS/index.jsp HTTP/1.1" 500 4091
0:0:0:0:0:0:0:1 - - [16/Dec/2014:14:33:54 +0900] "GET /PaintBBS/index.jsp HTTP/1.1" 500 4091
0:0:0:0:0:0:0:1 - - [16/Dec/2014:14:33:54 +0900] "GET /PaintBBS/index.jsp HTTP/1.1" 500 4091
0:0:0:0:0:0:0:1 - - [16/Dec/2014:14:33:55 +0900] "GET /PaintBBS/index.jsp HTTP/1.1" 500 4091
0:0:0:0:0:0:0:1 - - [16/Dec/2014:14:33:55 +0900] "GET /PaintBBS/index.jsp HTTP/1.1" 500 4091
0:0:0:0:0:0:0:1 - - [16/Dec/2014:14:33:55 +0900] "GET /PaintBBS/index.jsp HTTP/1.1" 500 4091
127.0.0.1 - - [16/Dec/2014:14:34:46 +0900] "GET / HTTP/1.1" 404 1019
0:0:0:0:0:0:0:1 - - [16/Dec/2014:14:34:46 +0900] "GET /PaintBBS/paint.jsp HTTP/1.1" 200 1112
0:0:0:0:0:0:0:1 - - [16/Dec/2014:14:34:46 +0900] "GET /PaintBBS/lib/jquery.simple-color-picker.css HTTP/1.1" 404 1105
0:0:0:0:0:0:0:1 - - [16/Dec/2014:14:34:46 +0900] "GET /PaintBBS/lib/jquery-ui.min.css HTTP/1.1" 404 1079
0:0:0:0:0:0:0:1 - - [16/Dec/2014:14:34:46 +0900] "GET /PaintBBS/lib/jquery-2.1.1.min.js HTTP/1.1" 404 1083
0:0:0:0:0:0:0:1 - - [16/Dec/2014:14:34:46 +0900] "GET /PaintBBS/lib/jquery-ui.min.js HTTP/1.1" 404 1077
0:0:0:0:0:0:0:1 - - [16/Dec/2014:14:34:46 +0900] "GET /PaintBBS/js/paint.js HTTP/1.1" 404 1059
0:0:0:0:0:0:0:1 - - [16/Dec/2014:14:34:46 +0900] "GET /PaintBBS/lib/jquery.simple-color-picker.js HTTP/1.1" 404 1103
0:0:0:0:0:0:0:1 - - [16/Dec/2014:14:34:50 +0900] "POST /PaintBBS/PostPaint HTTP/1.1" 500 2433
0:0:0:0:0:0:0:1 - - [16/Dec/2014:14:35:45 +0900] "GET /PaintBBS/index.jsp HTTP/1.1" 500 5179
127.0.0.1 - - [16/Dec/2014:14:36:58 +0900] "GET / HTTP/1.1" 404 1019
127.0.0.1 - - [16/Dec/2014:14:37:34 +0900] "GET / HTTP/1.1" 404 1019
0:0:0:0:0:0:0:1 - - [16/Dec/2014:14:37:35 +0900] "GET /PaintBBS/index.jsp HTTP/1.1" 500 5179
127.0.0.1 - - [16/Dec/2014:14:41:56 +0900] "GET / HTTP/1.1" 404 1019
0:0:0:0:0:0:0:1 - - [16/Dec/2014:14:41:57 +0900] "GET /PaintBBS/index.jsp HTTP/1.1" 500 5179
0:0:0:0:0:0:0:1 - - [16/Dec/2014:14:42:00 +0900] "GET /PaintBBS/index.jsp HTTP/1.1" 500 3934
0:0:0:0:0:0:0:1 - - [16/Dec/2014:14:42:02 +0900] "GET /PaintBBS/index.jsp HTTP/1.1" 500 3934
127.0.0.1 - - [16/Dec/2014:14:43:12 +0900] "GET / HTTP/1.1" 404 1019
0:0:0:0:0:0:0:1 - - [16/Dec/2014:14:43:12 +0900] "GET /PaintBBS/index.jsp HTTP/1.1" 500 5179
127.0.0.1 - - [16/Dec/2014:14:48:46 +0900] "GET / HTTP/1.1" 404 1019
0:0:0:0:0:0:0:1 - - [16/Dec/2014:14:48:54 +0900] "GET /PaintBBS/index.jsp HTTP/1.1" 500 5179
127.0.0.1 - - [16/Dec/2014:14:55:15 +0900] "GET / HTTP/1.1" 404 1019
0:0:0:0:0:0:0:1 - - [16/Dec/2014:14:55:16 +0900] "GET /PaintBBS/index.jsp HTTP/1.1" 500 4266
127.0.0.1 - - [16/Dec/2014:15:13:51 +0900] "GET / HTTP/1.1" 404 1019
0:0:0:0:0:0:0:1 - - [16/Dec/2014:15:13:51 +0900] "GET /PaintBBS/WEB-INF/classes/DrawServlet.java HTTP/1.1" 404 1017
127.0.0.1 - - [16/Dec/2014:15:28:43 +0900] "GET / HTTP/1.1" 404 1019
0:0:0:0:0:0:0:1 - - [16/Dec/2014:15:28:43 +0900] "GET /PaintBBS/WEB-INF/classes/jp/co/us717/controller/PostPaintServlet.java HTTP/1.1" 404 1017
127.0.0.1 - - [16/Dec/2014:15:52:02 +0900] "GET / HTTP/1.1" 404 1019
0:0:0:0:0:0:0:1 - - [16/Dec/2014:15:52:02 +0900] "GET /PaintBBS/index.jsp HTTP/1.1" 404 1059
0:0:0:0:0:0:0:1 - - [16/Dec/2014:15:52:52 +0900] "GET /PaintBBS/paint.jsp HTTP/1.1" 200 1112
0:0:0:0:0:0:0:1 - - [16/Dec/2014:15:52:52 +0900] "GET /PaintBBS/lib/jquery.simple-color-picker.css HTTP/1.1" 404 1105
0:0:0:0:0:0:0:1 - - [16/Dec/2014:15:52:52 +0900] "GET /PaintBBS/lib/jquery-ui.min.css HTTP/1.1" 404 1079
0:0:0:0:0:0:0:1 - - [16/Dec/2014:15:52:52 +0900] "GET /PaintBBS/lib/jquery-2.1.1.min.js HTTP/1.1" 404 1083
0:0:0:0:0:0:0:1 - - [16/Dec/2014:15:52:52 +0900] "GET /PaintBBS/lib/jquery.simple-color-picker.js HTTP/1.1" 404 1103
0:0:0:0:0:0:0:1 - - [16/Dec/2014:15:52:52 +0900] "GET /PaintBBS/lib/jquery-ui.min.js HTTP/1.1" 404 1077
0:0:0:0:0:0:0:1 - - [16/Dec/2014:15:52:52 +0900] "GET /PaintBBS/js/paint.js HTTP/1.1" 404 1059
0:0:0:0:0:0:0:1 - - [16/Dec/2014:15:52:55 +0900] "POST /PaintBBS/PostPaint HTTP/1.1" 404 1055
0:0:0:0:0:0:0:1 - - [16/Dec/2014:15:53:12 +0900] "GET /PaintBBS/index.jsp HTTP/1.1" 404 1059
0:0:0:0:0:0:0:1 - - [16/Dec/2014:15:53:14 +0900] "GET /PaintBBS/index.jsp HTTP/1.1" 404 1059
0:0:0:0:0:0:0:1 - - [16/Dec/2014:15:53:15 +0900] "GET /PaintBBS/index.jsp HTTP/1.1" 404 1059
0:0:0:0:0:0:0:1 - - [16/Dec/2014:15:53:15 +0900] "GET /PaintBBS/index.jsp HTTP/1.1" 404 1059
0:0:0:0:0:0:0:1 - - [16/Dec/2014:15:53:16 +0900] "GET /PaintBBS/index.jsp HTTP/1.1" 404 1059
0:0:0:0:0:0:0:1 - - [16/Dec/2014:15:53:16 +0900] "GET /PaintBBS/index.jsp HTTP/1.1" 404 1059
0:0:0:0:0:0:0:1 - - [16/Dec/2014:15:53:17 +0900] "GET /PaintBBS/index.jsp HTTP/1.1" 404 1059
0:0:0:0:0:0:0:1 - - [16/Dec/2014:15:53:18 +0900] "GET /PaintBBS/index.jsp HTTP/1.1" 404 1059
0:0:0:0:0:0:0:1 - - [16/Dec/2014:15:53:18 +0900] "GET /PaintBBS/index.jsp HTTP/1.1" 404 1059
0:0:0:0:0:0:0:1 - - [16/Dec/2014:15:53:19 +0900] "GET /PaintBBS/index.jsp HTTP/1.1" 404 1059
0:0:0:0:0:0:0:1 - - [16/Dec/2014:15:53:19 +0900] "GET /PaintBBS/index.jsp HTTP/1.1" 404 1059
0:0:0:0:0:0:0:1 - - [16/Dec/2014:15:53:19 +0900] "GET /PaintBBS/index.jsp HTTP/1.1" 404 1059
0:0:0:0:0:0:0:1 - - [16/Dec/2014:15:53:21 +0900] "GET /PaintBBS/index.jsp HTTP/1.1" 404 1059
0:0:0:0:0:0:0:1 - - [16/Dec/2014:15:53:21 +0900] "GET /PaintBBS/index.jsp HTTP/1.1" 404 1059
0:0:0:0:0:0:0:1 - - [16/Dec/2014:15:53:22 +0900] "GET /PaintBBS/index.jsp HTTP/1.1" 404 1059
0:0:0:0:0:0:0:1 - - [16/Dec/2014:15:53:29 +0900] "GET /PaintBBS/WEB-INF/classes/jp/co/us717/model/PostResBean.java HTTP/1.1" 404 1017
0:0:0:0:0:0:0:1 - - [16/Dec/2014:15:53:40 +0900] "GET /PaintBBS/WEB-INF/classes/jp/co/us717/controller/DrawServlet.java HTTP/1.1" 404 1017
127.0.0.1 - - [16/Dec/2014:15:53:54 +0900] "GET / HTTP/1.1" 404 1019
127.0.0.1 - - [16/Dec/2014:15:54:00 +0900] "GET / HTTP/1.1" 404 1019
0:0:0:0:0:0:0:1 - - [16/Dec/2014:15:54:00 +0900] "GET /PaintBBS/index.jsp HTTP/1.1" 404 1059
0:0:0:0:0:0:0:1 - - [16/Dec/2014:15:54:08 +0900] "GET /PaintBBS/index.jsp HTTP/1.1" 404 1059
0:0:0:0:0:0:0:1 - - [16/Dec/2014:15:54:08 +0900] "GET /PaintBBS/index.jsp HTTP/1.1" 404 1059
0:0:0:0:0:0:0:1 - - [16/Dec/2014:15:54:08 +0900] "GET /PaintBBS/index.jsp HTTP/1.1" 404 1059
0:0:0:0:0:0:0:1 - - [16/Dec/2014:15:54:09 +0900] "GET /PaintBBS/index.jsp HTTP/1.1" 404 1059
0:0:0:0:0:0:0:1 - - [16/Dec/2014:15:54:09 +0900] "GET /PaintBBS/index.jsp HTTP/1.1" 404 1059
0:0:0:0:0:0:0:1 - - [16/Dec/2014:15:54:10 +0900] "GET /PaintBBS/index.jsp HTTP/1.1" 404 1059
0:0:0:0:0:0:0:1 - - [16/Dec/2014:15:54:10 +0900] "GET /PaintBBS/index.jsp HTTP/1.1" 404 1059
0:0:0:0:0:0:0:1 - - [16/Dec/2014:15:54:11 +0900] "GET /PaintBBS/index.jsp HTTP/1.1" 404 1059
127.0.0.1 - - [16/Dec/2014:15:54:25 +0900] "GET / HTTP/1.1" 404 1019
0:0:0:0:0:0:0:1 - - [16/Dec/2014:15:54:26 +0900] "GET /PaintBBS/index.jsp HTTP/1.1" 404 1059
0:0:0:0:0:0:0:1 - - [16/Dec/2014:15:54:45 +0900] "GET /PaintBBS/paint.jsp HTTP/1.1" 200 1112
0:0:0:0:0:0:0:1 - - [16/Dec/2014:15:54:45 +0900] "GET /PaintBBS/lib/jquery-ui.min.css HTTP/1.1" 404 1079
0:0:0:0:0:0:0:1 - - [16/Dec/2014:15:54:45 +0900] "GET /PaintBBS/lib/jquery.simple-color-picker.css HTTP/1.1" 404 1105
0:0:0:0:0:0:0:1 - - [16/Dec/2014:15:54:45 +0900] "GET /PaintBBS/lib/jquery.simple-color-picker.js HTTP/1.1" 404 1103
0:0:0:0:0:0:0:1 - - [16/Dec/2014:15:54:45 +0900] "GET /PaintBBS/lib/jquery-2.1.1.min.js HTTP/1.1" 404 1083
0:0:0:0:0:0:0:1 - - [16/Dec/2014:15:54:45 +0900] "GET /PaintBBS/lib/jquery-ui.min.js HTTP/1.1" 404 1077
0:0:0:0:0:0:0:1 - - [16/Dec/2014:15:54:45 +0900] "GET /PaintBBS/js/paint.js HTTP/1.1" 404 1059
0:0:0:0:0:0:0:1 - - [16/Dec/2014:15:54:47 +0900] "GET /PaintBBS/paint.jsp HTTP/1.1" 200 1112
0:0:0:0:0:0:0:1 - - [16/Dec/2014:15:54:47 +0900] "GET /PaintBBS/lib/jquery-ui.min.css HTTP/1.1" 404 1079
0:0:0:0:0:0:0:1 - - [16/Dec/2014:15:54:47 +0900] "GET /PaintBBS/lib/jquery.simple-color-picker.css HTTP/1.1" 404 1105
0:0:0:0:0:0:0:1 - - [16/Dec/2014:15:54:47 +0900] "GET /PaintBBS/lib/jquery.simple-color-picker.js HTTP/1.1" 404 1103
0:0:0:0:0:0:0:1 - - [16/Dec/2014:15:54:47 +0900] "GET /PaintBBS/lib/jquery-2.1.1.min.js HTTP/1.1" 404 1083
0:0:0:0:0:0:0:1 - - [16/Dec/2014:15:54:47 +0900] "GET /PaintBBS/js/paint.js HTTP/1.1" 404 1059
0:0:0:0:0:0:0:1 - - [16/Dec/2014:15:54:47 +0900] "GET /PaintBBS/lib/jquery-ui.min.js HTTP/1.1" 404 1077
0:0:0:0:0:0:0:1 - - [16/Dec/2014:15:54:48 +0900] "GET /PaintBBS/paint.jsp HTTP/1.1" 200 1112
0:0:0:0:0:0:0:1 - - [16/Dec/2014:15:54:48 +0900] "GET /PaintBBS/lib/jquery.simple-color-picker.css HTTP/1.1" 404 1105
0:0:0:0:0:0:0:1 - - [16/Dec/2014:15:54:48 +0900] "GET /PaintBBS/lib/jquery-ui.min.css HTTP/1.1" 404 1079
0:0:0:0:0:0:0:1 - - [16/Dec/2014:15:54:48 +0900] "GET /PaintBBS/lib/jquery-2.1.1.min.js HTTP/1.1" 404 1083
0:0:0:0:0:0:0:1 - - [16/Dec/2014:15:54:48 +0900] "GET /PaintBBS/lib/jquery.simple-color-picker.js HTTP/1.1" 404 1103
0:0:0:0:0:0:0:1 - - [16/Dec/2014:15:54:48 +0900] "GET /PaintBBS/lib/jquery-ui.min.js HTTP/1.1" 404 1077
0:0:0:0:0:0:0:1 - - [16/Dec/2014:15:54:48 +0900] "GET /PaintBBS/js/paint.js HTTP/1.1" 404 1059
0:0:0:0:0:0:0:1 - - [16/Dec/2014:15:54:49 +0900] "GET /PaintBBS/paint.jsp HTTP/1.1" 200 1112
0:0:0:0:0:0:0:1 - - [16/Dec/2014:15:54:49 +0900] "GET /PaintBBS/lib/jquery.simple-color-picker.css HTTP/1.1" 404 1105
0:0:0:0:0:0:0:1 - - [16/Dec/2014:15:54:49 +0900] "GET /PaintBBS/lib/jquery-2.1.1.min.js HTTP/1.1" 404 1083
0:0:0:0:0:0:0:1 - - [16/Dec/2014:15:54:49 +0900] "GET /PaintBBS/lib/jquery.simple-color-picker.js HTTP/1.1" 404 1103
0:0:0:0:0:0:0:1 - - [16/Dec/2014:15:54:49 +0900] "GET /PaintBBS/lib/jquery-ui.min.css HTTP/1.1" 404 1079
0:0:0:0:0:0:0:1 - - [16/Dec/2014:15:54:49 +0900] "GET /PaintBBS/lib/jquery-ui.min.js HTTP/1.1" 404 1077
0:0:0:0:0:0:0:1 - - [16/Dec/2014:15:54:49 +0900] "GET /PaintBBS/js/paint.js HTTP/1.1" 404 1059
0:0:0:0:0:0:0:1 - - [16/Dec/2014:15:54:50 +0900] "GET /PaintBBS/paint.jsp HTTP/1.1" 200 1112
0:0:0:0:0:0:0:1 - - [16/Dec/2014:15:54:50 +0900] "GET /PaintBBS/lib/jquery.simple-color-picker.css HTTP/1.1" 404 1105
0:0:0:0:0:0:0:1 - - [16/Dec/2014:15:54:50 +0900] "GET /PaintBBS/lib/jquery-ui.min.css HTTP/1.1" 404 1079
0:0:0:0:0:0:0:1 - - [16/Dec/2014:15:54:50 +0900] "GET /PaintBBS/lib/jquery-2.1.1.min.js HTTP/1.1" 404 1083
0:0:0:0:0:0:0:1 - - [16/Dec/2014:15:54:50 +0900] "GET /PaintBBS/lib/jquery.simple-color-picker.js HTTP/1.1" 404 1103
0:0:0:0:0:0:0:1 - - [16/Dec/2014:15:54:50 +0900] "GET /PaintBBS/lib/jquery-ui.min.js HTTP/1.1" 404 1077
0:0:0:0:0:0:0:1 - - [16/Dec/2014:15:54:50 +0900] "GET /PaintBBS/js/paint.js HTTP/1.1" 404 1059
0:0:0:0:0:0:0:1 - - [16/Dec/2014:15:54:50 +0900] "GET /PaintBBS/paint.jsp HTTP/1.1" 200 1112
0:0:0:0:0:0:0:1 - - [16/Dec/2014:15:54:50 +0900] "GET /PaintBBS/lib/jquery-ui.min.css HTTP/1.1" 404 1079
0:0:0:0:0:0:0:1 - - [16/Dec/2014:15:54:50 +0900] "GET /PaintBBS/lib/jquery.simple-color-picker.css HTTP/1.1" 404 1105
0:0:0:0:0:0:0:1 - - [16/Dec/2014:15:54:50 +0900] "GET /PaintBBS/lib/jquery-2.1.1.min.js HTTP/1.1" 404 1083
0:0:0:0:0:0:0:1 - - [16/Dec/2014:15:54:50 +0900] "GET /PaintBBS/lib/jquery.simple-color-picker.js HTTP/1.1" 404 1103
0:0:0:0:0:0:0:1 - - [16/Dec/2014:15:54:50 +0900] "GET /PaintBBS/lib/jquery-ui.min.js HTTP/1.1" 404 1077
0:0:0:0:0:0:0:1 - - [16/Dec/2014:15:54:50 +0900] "GET /PaintBBS/js/paint.js HTTP/1.1" 404 1059
0:0:0:0:0:0:0:1 - - [16/Dec/2014:15:54:52 +0900] "GET /PaintBBS/paint.jsp HTTP/1.1" 200 1112
0:0:0:0:0:0:0:1 - - [16/Dec/2014:15:54:52 +0900] "GET /PaintBBS/lib/jquery.simple-color-picker.css HTTP/1.1" 404 1105
0:0:0:0:0:0:0:1 - - [16/Dec/2014:15:54:52 +0900] "GET /PaintBBS/lib/jquery-ui.min.css HTTP/1.1" 404 1079
0:0:0:0:0:0:0:1 - - [16/Dec/2014:15:54:52 +0900] "GET /PaintBBS/lib/jquery-2.1.1.min.js HTTP/1.1" 404 1083
0:0:0:0:0:0:0:1 - - [16/Dec/2014:15:54:52 +0900] "GET /PaintBBS/lib/jquery.simple-color-picker.js HTTP/1.1" 404 1103
0:0:0:0:0:0:0:1 - - [16/Dec/2014:15:54:52 +0900] "GET /PaintBBS/lib/jquery-ui.min.js HTTP/1.1" 404 1077
0:0:0:0:0:0:0:1 - - [16/Dec/2014:15:54:52 +0900] "GET /PaintBBS/js/paint.js HTTP/1.1" 404 1059
0:0:0:0:0:0:0:1 - - [16/Dec/2014:15:54:52 +0900] "GET /PaintBBS/paint.jsp HTTP/1.1" 200 1112
0:0:0:0:0:0:0:1 - - [16/Dec/2014:15:54:52 +0900] "GET /PaintBBS/lib/jquery.simple-color-picker.css HTTP/1.1" 404 1105
0:0:0:0:0:0:0:1 - - [16/Dec/2014:15:54:52 +0900] "GET /PaintBBS/lib/jquery-ui.min.css HTTP/1.1" 404 1079
0:0:0:0:0:0:0:1 - - [16/Dec/2014:15:54:52 +0900] "GET /PaintBBS/lib/jquery.simple-color-picker.js HTTP/1.1" 404 1103
0:0:0:0:0:0:0:1 - - [16/Dec/2014:15:54:52 +0900] "GET /PaintBBS/lib/jquery-2.1.1.min.js HTTP/1.1" 404 1083
0:0:0:0:0:0:0:1 - - [16/Dec/2014:15:54:52 +0900] "GET /PaintBBS/lib/jquery-ui.min.js HTTP/1.1" 404 1077
0:0:0:0:0:0:0:1 - - [16/Dec/2014:15:54:52 +0900] "GET /PaintBBS/js/paint.js HTTP/1.1" 404 1059
0:0:0:0:0:0:0:1 - - [16/Dec/2014:15:54:56 +0900] "POST /PaintBBS/PostPaint HTTP/1.1" 404 1055
0:0:0:0:0:0:0:1 - - [16/Dec/2014:15:59:45 +0900] "GET /PaintBBS/paint.jsp HTTP/1.1" 200 1112
0:0:0:0:0:0:0:1 - - [16/Dec/2014:15:59:45 +0900] "GET /PaintBBS/lib/jquery.simple-color-picker.css HTTP/1.1" 404 1105
0:0:0:0:0:0:0:1 - - [16/Dec/2014:15:59:45 +0900] "GET /PaintBBS/lib/jquery-ui.min.css HTTP/1.1" 404 1079
0:0:0:0:0:0:0:1 - - [16/Dec/2014:15:59:45 +0900] "GET /PaintBBS/lib/jquery-2.1.1.min.js HTTP/1.1" 404 1083
0:0:0:0:0:0:0:1 - - [16/Dec/2014:15:59:45 +0900] "GET /PaintBBS/lib/jquery.simple-color-picker.js HTTP/1.1" 404 1103
0:0:0:0:0:0:0:1 - - [16/Dec/2014:15:59:45 +0900] "GET /PaintBBS/js/paint.js HTTP/1.1" 404 1059
0:0:0:0:0:0:0:1 - - [16/Dec/2014:15:59:45 +0900] "GET /PaintBBS/lib/jquery-ui.min.js HTTP/1.1" 404 1077
0:0:0:0:0:0:0:1 - - [16/Dec/2014:16:00:17 +0900] "GET /PaintBBS/paint.jsp HTTP/1.1" 200 1112
0:0:0:0:0:0:0:1 - - [16/Dec/2014:16:00:17 +0900] "GET /PaintBBS/lib/jquery.simple-color-picker.css HTTP/1.1" 404 1105
0:0:0:0:0:0:0:1 - - [16/Dec/2014:16:00:17 +0900] "GET /PaintBBS/lib/jquery-ui.min.css HTTP/1.1" 404 1079
0:0:0:0:0:0:0:1 - - [16/Dec/2014:16:00:17 +0900] "GET /PaintBBS/lib/jquery-2.1.1.min.js HTTP/1.1" 404 1083
0:0:0:0:0:0:0:1 - - [16/Dec/2014:16:00:17 +0900] "GET /PaintBBS/lib/jquery.simple-color-picker.js HTTP/1.1" 404 1103
0:0:0:0:0:0:0:1 - - [16/Dec/2014:16:00:17 +0900] "GET /PaintBBS/lib/jquery-ui.min.js HTTP/1.1" 404 1077
0:0:0:0:0:0:0:1 - - [16/Dec/2014:16:00:17 +0900] "GET /PaintBBS/js/paint.js HTTP/1.1" 404 1059
0:0:0:0:0:0:0:1 - - [16/Dec/2014:16:00:18 +0900] "GET /PaintBBS/paint.jsp HTTP/1.1" 200 1112
0:0:0:0:0:0:0:1 - - [16/Dec/2014:16:00:18 +0900] "GET /PaintBBS/lib/jquery-ui.min.css HTTP/1.1" 404 1079
0:0:0:0:0:0:0:1 - - [16/Dec/2014:16:00:18 +0900] "GET /PaintBBS/lib/jquery.simple-color-picker.css HTTP/1.1" 404 1105
0:0:0:0:0:0:0:1 - - [16/Dec/2014:16:00:18 +0900] "GET /PaintBBS/lib/jquery.simple-color-picker.js HTTP/1.1" 404 1103
0:0:0:0:0:0:0:1 - - [16/Dec/2014:16:00:18 +0900] "GET /PaintBBS/lib/jquery-2.1.1.min.js HTTP/1.1" 404 1083
0:0:0:0:0:0:0:1 - - [16/Dec/2014:16:00:18 +0900] "GET /PaintBBS/lib/jquery-ui.min.js HTTP/1.1" 404 1077
0:0:0:0:0:0:0:1 - - [16/Dec/2014:16:00:18 +0900] "GET /PaintBBS/js/paint.js HTTP/1.1" 404 1059
0:0:0:0:0:0:0:1 - - [16/Dec/2014:16:00:22 +0900] "GET /PaintBBS/paint.jsp HTTP/1.1" 200 1112
0:0:0:0:0:0:0:1 - - [16/Dec/2014:16:00:22 +0900] "GET /PaintBBS/lib/jquery.simple-color-picker.css HTTP/1.1" 404 1105
0:0:0:0:0:0:0:1 - - [16/Dec/2014:16:00:22 +0900] "GET /PaintBBS/lib/jquery-ui.min.css HTTP/1.1" 404 1079
0:0:0:0:0:0:0:1 - - [16/Dec/2014:16:00:22 +0900] "GET /PaintBBS/lib/jquery-2.1.1.min.js HTTP/1.1" 404 1083
0:0:0:0:0:0:0:1 - - [16/Dec/2014:16:00:22 +0900] "GET /PaintBBS/lib/jquery.simple-color-picker.js HTTP/1.1" 404 1103
0:0:0:0:0:0:0:1 - - [16/Dec/2014:16:00:22 +0900] "GET /PaintBBS/lib/jquery-ui.min.js HTTP/1.1" 404 1077
0:0:0:0:0:0:0:1 - - [16/Dec/2014:16:00:22 +0900] "GET /PaintBBS/js/paint.js HTTP/1.1" 404 1059
0:0:0:0:0:0:0:1 - - [16/Dec/2014:16:00:26 +0900] "GET /PaintBBS/paint.jsp HTTP/1.1" 200 1112
0:0:0:0:0:0:0:1 - - [16/Dec/2014:16:00:26 +0900] "GET /PaintBBS/lib/jquery-ui.min.css HTTP/1.1" 404 1079
0:0:0:0:0:0:0:1 - - [16/Dec/2014:16:00:26 +0900] "GET /PaintBBS/lib/jquery.simple-color-picker.css HTTP/1.1" 404 1105
0:0:0:0:0:0:0:1 - - [16/Dec/2014:16:00:26 +0900] "GET /PaintBBS/lib/jquery-2.1.1.min.js HTTP/1.1" 404 1083
0:0:0:0:0:0:0:1 - - [16/Dec/2014:16:00:26 +0900] "GET /PaintBBS/lib/jquery.simple-color-picker.js HTTP/1.1" 404 1103
0:0:0:0:0:0:0:1 - - [16/Dec/2014:16:00:26 +0900] "GET /PaintBBS/js/paint.js HTTP/1.1" 404 1059
0:0:0:0:0:0:0:1 - - [16/Dec/2014:16:00:26 +0900] "GET /PaintBBS/lib/jquery-ui.min.js HTTP/1.1" 404 1077
0:0:0:0:0:0:0:1 - - [16/Dec/2014:16:31:07 +0900] "GET /PaintBBS/paint.jsp HTTP/1.1" 200 1112
0:0:0:0:0:0:0:1 - - [16/Dec/2014:16:31:07 +0900] "GET /PaintBBS/lib/jquery.simple-color-picker.css HTTP/1.1" 404 1105
0:0:0:0:0:0:0:1 - - [16/Dec/2014:16:31:07 +0900] "GET /PaintBBS/lib/jquery-ui.min.css HTTP/1.1" 404 1079
0:0:0:0:0:0:0:1 - - [16/Dec/2014:16:31:07 +0900] "GET /PaintBBS/lib/jquery-2.1.1.min.js HTTP/1.1" 404 1083
0:0:0:0:0:0:0:1 - - [16/Dec/2014:16:31:07 +0900] "GET /PaintBBS/lib/jquery.simple-color-picker.js HTTP/1.1" 404 1103
0:0:0:0:0:0:0:1 - - [16/Dec/2014:16:31:07 +0900] "GET /PaintBBS/lib/jquery-ui.min.js HTTP/1.1" 404 1077
0:0:0:0:0:0:0:1 - - [16/Dec/2014:16:31:07 +0900] "GET /PaintBBS/js/paint.js HTTP/1.1" 404 1059
0:0:0:0:0:0:0:1 - - [16/Dec/2014:16:31:11 +0900] "GET /PaintBBS/paint.jsp HTTP/1.1" 200 1112
0:0:0:0:0:0:0:1 - - [16/Dec/2014:16:31:11 +0900] "GET /PaintBBS/lib/jquery.simple-color-picker.css HTTP/1.1" 404 1105
0:0:0:0:0:0:0:1 - - [16/Dec/2014:16:31:11 +0900] "GET /PaintBBS/lib/jquery-ui.min.css HTTP/1.1" 404 1079
0:0:0:0:0:0:0:1 - - [16/Dec/2014:16:31:11 +0900] "GET /PaintBBS/lib/jquery-2.1.1.min.js HTTP/1.1" 404 1083
0:0:0:0:0:0:0:1 - - [16/Dec/2014:16:31:11 +0900] "GET /PaintBBS/lib/jquery.simple-color-picker.js HTTP/1.1" 404 1103
0:0:0:0:0:0:0:1 - - [16/Dec/2014:16:31:11 +0900] "GET /PaintBBS/lib/jquery-ui.min.js HTTP/1.1" 404 1077
0:0:0:0:0:0:0:1 - - [16/Dec/2014:16:31:11 +0900] "GET /PaintBBS/js/paint.js HTTP/1.1" 404 1059
0:0:0:0:0:0:0:1 - - [16/Dec/2014:16:31:14 +0900] "GET /PaintBBS/paint.jsp HTTP/1.1" 200 1112
0:0:0:0:0:0:0:1 - - [16/Dec/2014:16:31:14 +0900] "GET /PaintBBS/lib/jquery.simple-color-picker.css HTTP/1.1" 404 1105
0:0:0:0:0:0:0:1 - - [16/Dec/2014:16:31:14 +0900] "GET /PaintBBS/lib/jquery-ui.min.css HTTP/1.1" 404 1079
0:0:0:0:0:0:0:1 - - [16/Dec/2014:16:31:14 +0900] "GET /PaintBBS/lib/jquery.simple-color-picker.js HTTP/1.1" 404 1103
0:0:0:0:0:0:0:1 - - [16/Dec/2014:16:31:14 +0900] "GET /PaintBBS/lib/jquery-2.1.1.min.js HTTP/1.1" 404 1083
0:0:0:0:0:0:0:1 - - [16/Dec/2014:16:31:14 +0900] "GET /PaintBBS/js/paint.js HTTP/1.1" 404 1059
0:0:0:0:0:0:0:1 - - [16/Dec/2014:16:31:14 +0900] "GET /PaintBBS/lib/jquery-ui.min.js HTTP/1.1" 404 1077
127.0.0.1 - - [16/Dec/2014:16:31:38 +0900] "GET / HTTP/1.1" 404 1019
0:0:0:0:0:0:0:1 - - [16/Dec/2014:16:31:39 +0900] "GET /PaintBBS/paint.jsp HTTP/1.1" 200 1112
0:0:0:0:0:0:0:1 - - [16/Dec/2014:16:31:39 +0900] "GET /PaintBBS/lib/jquery.simple-color-picker.css HTTP/1.1" 404 1105
0:0:0:0:0:0:0:1 - - [16/Dec/2014:16:31:39 +0900] "GET /PaintBBS/lib/jquery-ui.min.css HTTP/1.1" 404 1079
0:0:0:0:0:0:0:1 - - [16/Dec/2014:16:31:39 +0900] "GET /PaintBBS/lib/jquery-2.1.1.min.js HTTP/1.1" 404 1083
0:0:0:0:0:0:0:1 - - [16/Dec/2014:16:31:39 +0900] "GET /PaintBBS/lib/jquery.simple-color-picker.js HTTP/1.1" 404 1103
0:0:0:0:0:0:0:1 - - [16/Dec/2014:16:31:39 +0900] "GET /PaintBBS/js/paint.js HTTP/1.1" 404 1059
0:0:0:0:0:0:0:1 - - [16/Dec/2014:16:31:39 +0900] "GET /PaintBBS/lib/jquery-ui.min.js HTTP/1.1" 404 1077
0:0:0:0:0:0:0:1 - - [16/Dec/2014:16:31:42 +0900] "POST /PaintBBS/PostPaint HTTP/1.1" 404 1055
0:0:0:0:0:0:0:1 - - [16/Dec/2014:16:40:19 +0900] "GET /PaintBBS/paint.jsp HTTP/1.1" 404 1055
127.0.0.1 - - [16/Dec/2014:16:40:34 +0900] "GET / HTTP/1.1" 404 1019
0:0:0:0:0:0:0:1 - - [16/Dec/2014:16:40:35 +0900] "GET /PaintBBS/paint.jsp HTTP/1.1" 404 1055
127.0.0.1 - - [16/Dec/2014:16:40:51 +0900] "GET / HTTP/1.1" 404 1019
0:0:0:0:0:0:0:1 - - [16/Dec/2014:16:40:52 +0900] "GET /PaintBBS/paint.jsp HTTP/1.1" 404 1055
0:0:0:0:0:0:0:1 - - [16/Dec/2014:16:40:54 +0900] "GET /PaintBBS/paint.jsp HTTP/1.1" 404 1055
0:0:0:0:0:0:0:1 - - [16/Dec/2014:16:40:56 +0900] "GET /PaintBBS/paint.jsp HTTP/1.1" 404 1055
0:0:0:0:0:0:0:1 - - [16/Dec/2014:16:40:56 +0900] "GET /PaintBBS/paint.jsp HTTP/1.1" 404 1055
0:0:0:0:0:0:0:1 - - [16/Dec/2014:16:40:56 +0900] "GET /PaintBBS/paint.jsp HTTP/1.1" 404 1055
0:0:0:0:0:0:0:1 - - [16/Dec/2014:16:40:57 +0900] "GET /PaintBBS/paint.jsp HTTP/1.1" 404 1055
0:0:0:0:0:0:0:1 - - [16/Dec/2014:16:40:57 +0900] "GET /PaintBBS/paint.jsp HTTP/1.1" 404 1055
0:0:0:0:0:0:0:1 - - [16/Dec/2014:16:40:57 +0900] "GET /PaintBBS/paint.jsp HTTP/1.1" 404 1055
0:0:0:0:0:0:0:1 - - [16/Dec/2014:16:40:57 +0900] "GET /PaintBBS/paint.jsp HTTP/1.1" 404 1055
127.0.0.1 - - [16/Dec/2014:16:41:20 +0900] "GET / HTTP/1.1" 404 1019
0:0:0:0:0:0:0:1 - - [16/Dec/2014:16:41:20 +0900] "GET /PaintBBS/paint.jsp HTTP/1.1" 200 1112
0:0:0:0:0:0:0:1 - - [16/Dec/2014:16:41:20 +0900] "GET /PaintBBS/lib/jquery.simple-color-picker.css HTTP/1.1" 404 1105
0:0:0:0:0:0:0:1 - - [16/Dec/2014:16:41:20 +0900] "GET /PaintBBS/lib/jquery-2.1.1.min.js HTTP/1.1" 404 1083
0:0:0:0:0:0:0:1 - - [16/Dec/2014:16:41:20 +0900] "GET /PaintBBS/lib/jquery-ui.min.css HTTP/1.1" 404 1079
0:0:0:0:0:0:0:1 - - [16/Dec/2014:16:41:20 +0900] "GET /PaintBBS/lib/jquery-ui.min.js HTTP/1.1" 404 1077
0:0:0:0:0:0:0:1 - - [16/Dec/2014:16:41:20 +0900] "GET /PaintBBS/lib/jquery.simple-color-picker.js HTTP/1.1" 404 1103
0:0:0:0:0:0:0:1 - - [16/Dec/2014:16:41:20 +0900] "GET /PaintBBS/js/paint.js HTTP/1.1" 200 2398
0:0:0:0:0:0:0:1 - - [16/Dec/2014:16:57:22 +0900] "GET /PaintBBS/paint.jsp HTTP/1.1" 200 1112
0:0:0:0:0:0:0:1 - - [16/Dec/2014:16:57:22 +0900] "GET /PaintBBS/lib/jquery-ui.min.css HTTP/1.1" 200 30163
0:0:0:0:0:0:0:1 - - [16/Dec/2014:16:57:22 +0900] "GET /PaintBBS/lib/jquery.simple-color-picker.css HTTP/1.1" 200 418
0:0:0:0:0:0:0:1 - - [16/Dec/2014:16:57:22 +0900] "GET /PaintBBS/lib/jquery-2.1.1.min.js HTTP/1.1" 200 84245
0:0:0:0:0:0:0:1 - - [16/Dec/2014:16:57:22 +0900] "GET /PaintBBS/lib/jquery.simple-color-picker.js HTTP/1.1" 200 3399
0:0:0:0:0:0:0:1 - - [16/Dec/2014:16:57:22 +0900] "GET /PaintBBS/lib/jquery-ui.min.js HTTP/1.1" 200 239564
0:0:0:0:0:0:0:1 - - [16/Dec/2014:16:57:22 +0900] "GET /PaintBBS/lib/images/ui-bg_glass_100_f6f6f6_1x400.png HTTP/1.1" 404 1123
0:0:0:0:0:0:0:1 - - [16/Dec/2014:16:57:22 +0900] "GET /PaintBBS/lib/images/ui-bg_gloss-wave_35_f6a828_500x100.png HTTP/1.1" 404 1135
0:0:0:0:0:0:0:1 - - [16/Dec/2014:16:57:28 +0900] "POST /PaintBBS/PostPaint HTTP/1.1" 404 1055
0:0:0:0:0:0:0:1 - - [16/Dec/2014:16:57:57 +0900] "GET /PaintBBS/index.jsp HTTP/1.1" 404 1059
0:0:0:0:0:0:0:1 - - [16/Dec/2014:16:58:14 +0900] "GET /PaintBBS/index.jsp HTTP/1.1" 404 1059
0:0:0:0:0:0:0:1 - - [16/Dec/2014:16:59:02 +0900] "GET /PaintBBS/index.jsp HTTP/1.1" 404 1059
0:0:0:0:0:0:0:1 - - [16/Dec/2014:16:59:03 +0900] "GET /PaintBBS/index.jsp HTTP/1.1" 404 1059
0:0:0:0:0:0:0:1 - - [16/Dec/2014:16:59:06 +0900] "GET /PaintBBS/index.jsp HTTP/1.1" 404 1059
0:0:0:0:0:0:0:1 - - [16/Dec/2014:16:59:06 +0900] "GET /PaintBBS/index.jsp HTTP/1.1" 404 1059
127.0.0.1 - - [16/Dec/2014:16:59:26 +0900] "GET / HTTP/1.1" 404 1019
127.0.0.1 - - [16/Dec/2014:16:59:31 +0900] "GET / HTTP/1.1" 404 1019
0:0:0:0:0:0:0:1 - - [16/Dec/2014:16:59:31 +0900] "GET /PaintBBS/index.jsp HTTP/1.1" 404 1059
0:0:0:0:0:0:0:1 - - [16/Dec/2014:17:00:33 +0900] "GET /PaintBBS/index.jsp HTTP/1.1" 404 1055
0:0:0:0:0:0:0:1 - - [16/Dec/2014:17:00:34 +0900] "GET /PaintBBS/index.jsp HTTP/1.1" 404 1055
0:0:0:0:0:0:0:1 - - [16/Dec/2014:17:00:35 +0900] "GET /PaintBBS/index.jsp HTTP/1.1" 404 1055
127.0.0.1 - - [16/Dec/2014:17:00:59 +0900] "GET / HTTP/1.1" 404 1019
0:0:0:0:0:0:0:1 - - [16/Dec/2014:17:00:59 +0900] "GET /PaintBBS/paint.jsp HTTP/1.1" 404 1055
0:0:0:0:0:0:0:1 - - [16/Dec/2014:17:01:04 +0900] "GET /PaintBBS/paint.jsp HTTP/1.1" 404 1055
0:0:0:0:0:0:0:1 - - [16/Dec/2014:17:01:19 +0900] "GET /PaintBBS/paint.jsp HTTP/1.1" 404 1055
0:0:0:0:0:0:0:1 - - [16/Dec/2014:17:05:05 +0900] "GET /PaintBBS/paint.jsp HTTP/1.1" 404 1055
0:0:0:0:0:0:0:1 - - [16/Dec/2014:17:05:07 +0900] "GET /PaintBBS/paint.jsp HTTP/1.1" 404 1055
0:0:0:0:0:0:0:1 - - [16/Dec/2014:17:05:08 +0900] "GET /PaintBBS/paint.jsp HTTP/1.1" 404 1055
0:0:0:0:0:0:0:1 - - [16/Dec/2014:17:05:08 +0900] "GET /PaintBBS/paint.jsp HTTP/1.1" 404 1055
0:0:0:0:0:0:0:1 - - [16/Dec/2014:17:05:09 +0900] "GET /PaintBBS/paint.jsp HTTP/1.1" 404 1055
0:0:0:0:0:0:0:1 - - [16/Dec/2014:17:05:10 +0900] "GET /PaintBBS/paint.jsp HTTP/1.1" 404 1055
0:0:0:0:0:0:0:1 - - [16/Dec/2014:17:05:10 +0900] "GET /PaintBBS/paint.jsp HTTP/1.1" 404 1055
0:0:0:0:0:0:0:1 - - [16/Dec/2014:17:05:10 +0900] "GET /PaintBBS/paint.jsp HTTP/1.1" 404 1055
0:0:0:0:0:0:0:1 - - [16/Dec/2014:17:05:18 +0900] "GET /PaintBBS/paint.jsp HTTP/1.1" 404 1055
0:0:0:0:0:0:0:1 - - [16/Dec/2014:17:05:19 +0900] "GET /PaintBBS/paint.jsp HTTP/1.1" 404 1055
127.0.0.1 - - [16/Dec/2014:17:05:39 +0900] "GET / HTTP/1.1" 404 1019
0:0:0:0:0:0:0:1 - - [16/Dec/2014:17:05:40 +0900] "GET /PaintBBS/paint.jsp HTTP/1.1" 404 1055
0:0:0:0:0:0:0:1 - - [16/Dec/2014:17:06:09 +0900] "GET /PaintBBS/paint.jsp HTTP/1.1" 404 1055
0:0:0:0:0:0:0:1 - - [16/Dec/2014:17:06:52 +0900] "GET /PaintBBS/WEB-INF/classes/jp/co/us717/model/PostResBean.java HTTP/1.1" 404 1017
0:0:0:0:0:0:0:1 - - [16/Dec/2014:17:06:57 +0900] "GET /PaintBBS/index.jsp HTTP/1.1" 404 1055
0:0:0:0:0:0:0:1 - - [16/Dec/2014:17:07:25 +0900] "GET /PaintBBS/paint.jsp HTTP/1.1" 200 1112
0:0:0:0:0:0:0:1 - - [16/Dec/2014:17:07:25 +0900] "GET /PaintBBS/lib/images/ui-bg_gloss-wave_35_f6a828_500x100.png HTTP/1.1" 404 1135
0:0:0:0:0:0:0:1 - - [16/Dec/2014:17:07:25 +0900] "GET /PaintBBS/lib/images/ui-bg_glass_100_f6f6f6_1x400.png HTTP/1.1" 404 1123
0:0:0:0:0:0:0:1 - - [16/Dec/2014:17:08:14 +0900] "GET /PaintBBS/index.jsp HTTP/1.1" 404 1059
0:0:0:0:0:0:0:1 - - [16/Dec/2014:17:08:18 +0900] "GET /PaintBBS/paint.jsp HTTP/1.1" 200 1112
0:0:0:0:0:0:0:1 - - [16/Dec/2014:17:08:18 +0900] "GET /PaintBBS/lib/images/ui-bg_glass_100_f6f6f6_1x400.png HTTP/1.1" 404 1123
0:0:0:0:0:0:0:1 - - [16/Dec/2014:17:08:18 +0900] "GET /PaintBBS/lib/images/ui-bg_gloss-wave_35_f6a828_500x100.png HTTP/1.1" 404 1135
0:0:0:0:0:0:0:1 - - [16/Dec/2014:17:08:22 +0900] "POST /PaintBBS/PostPaint HTTP/1.1" 404 1055
127.0.0.1 - - [16/Dec/2014:17:16:14 +0900] "GET / HTTP/1.1" 404 1019
0:0:0:0:0:0:0:1 - - [16/Dec/2014:17:16:15 +0900] "GET /PaintBBS/paint.jsp HTTP/1.1" 404 1055
0:0:0:0:0:0:0:1 - - [16/Dec/2014:17:16:34 +0900] "GET /PaintBBS/js/paint.js HTTP/1.1" 404 1059
0:0:0:0:0:0:0:1 - - [16/Dec/2014:17:16:47 +0900] "GET /PaintBBS/paint.jsp HTTP/1.1" 404 1055
127.0.0.1 - - [16/Dec/2014:17:17:16 +0900] "GET / HTTP/1.1" 404 1019
0:0:0:0:0:0:0:1 - - [16/Dec/2014:17:17:16 +0900] "GET /PaintBBS/paint.jsp HTTP/1.1" 404 1055
0:0:0:0:0:0:0:1 - - [16/Dec/2014:17:17:57 +0900] "GET /PaintBBS/paint.jsp HTTP/1.1" 404 1055
0:0:0:0:0:0:0:1 - - [16/Dec/2014:17:18:03 +0900] "GET /PaintBBS/WEB-INF/classes/jp/co/us717/controller/DrawServlet.java HTTP/1.1" 404 1017
0:0:0:0:0:0:0:1 - - [16/Dec/2014:17:18:06 +0900] "GET /PaintBBS/WEB-INF/classes/jp/co/us717/model/PostResBean.java HTTP/1.1" 404 1017
0:0:0:0:0:0:0:1 - - [16/Dec/2014:17:18:09 +0900] "GET /PaintBBS/WEB-INF/jsp/ForwardIndex.jsp HTTP/1.1" 404 1017
0:0:0:0:0:0:0:1 - - [16/Dec/2014:17:18:17 +0900] "GET /PaintBBS/WEB-INF/jsp/ForwardIndex.jsp HTTP/1.1" 404 1017
0:0:0:0:0:0:0:1 - - [16/Dec/2014:17:18:46 +0900] "GET /PaintBBS/WEB-INF/jsp/ForwardIndex.jsp HTTP/1.1" 404 1017
0:0:0:0:0:0:0:1 - - [16/Dec/2014:17:19:00 +0900] "GET /PaintBBS/paint.jsp HTTP/1.1" 404 1055
0:0:0:0:0:0:0:1 - - [16/Dec/2014:17:19:02 +0900] "GET /PaintBBS/paint.jsp HTTP/1.1" 404 1055
0:0:0:0:0:0:0:1 - - [16/Dec/2014:17:19:03 +0900] "GET /PaintBBS/paint.jsp HTTP/1.1" 404 1055
0:0:0:0:0:0:0:1 - - [16/Dec/2014:17:19:14 +0900] "GET /PaintBBS/paint.jsp HTTP/1.1" 404 1055
127.0.0.1 - - [16/Dec/2014:17:19:18 +0900] "GET / HTTP/1.1" 404 1019
0:0:0:0:0:0:0:1 - - [16/Dec/2014:17:19:19 +0900] "GET /PaintBBS/paint.jsp HTTP/1.1" 404 1055
0:0:0:0:0:0:0:1 - - [16/Dec/2014:17:19:44 +0900] "GET /PaintBBS/index.jsp HTTP/1.1" 404 1055
0:0:0:0:0:0:0:1 - - [16/Dec/2014:17:19:46 +0900] "GET /PaintBBS/index.jsp HTTP/1.1" 404 1055
0:0:0:0:0:0:0:1 - - [16/Dec/2014:17:19:48 +0900] "GET /PaintBBS/index.jsp HTTP/1.1" 404 1055
0:0:0:0:0:0:0:1 - - [16/Dec/2014:17:22:34 +0900] "GET /PaintBBS/index.jsp HTTP/1.1" 404 1055
0:0:0:0:0:0:0:1 - - [16/Dec/2014:17:24:49 +0900] "GET /PaintBBS/paint.jsp HTTP/1.1" 404 1055
0:0:0:0:0:0:0:1 - - [16/Dec/2014:17:25:44 +0900] "GET /PaintBBS/paint.jsp HTTP/1.1" 404 1055
0:0:0:0:0:0:0:1 - - [16/Dec/2014:17:25:54 +0900] "GET /PaintBBS/paint.jsp HTTP/1.1" 404 1055
127.0.0.1 - - [16/Dec/2014:17:26:37 +0900] "GET / HTTP/1.1" 404 1019
0:0:0:0:0:0:0:1 - - [16/Dec/2014:17:26:38 +0900] "GET /PaintBBS/index.jsp HTTP/1.1" 404 1055
127.0.0.1 - - [16/Dec/2014:17:29:38 +0900] "GET / HTTP/1.1" 404 1019
0:0:0:0:0:0:0:1 - - [16/Dec/2014:17:29:39 +0900] "GET /PaintBBS/paint.jsp HTTP/1.1" 200 1111
0:0:0:0:0:0:0:1 - - [16/Dec/2014:17:29:39 +0900] "GET /PaintBBS/lib/jquery.simple-color-picker.css HTTP/1.1" 404 1105
0:0:0:0:0:0:0:1 - - [16/Dec/2014:17:29:39 +0900] "GET /PaintBBS/lib/jquery-ui.min.css HTTP/1.1" 404 1079
0:0:0:0:0:0:0:1 - - [16/Dec/2014:17:29:39 +0900] "GET /PaintBBS/lib/jquery-2.1.1.min.js HTTP/1.1" 404 1083
0:0:0:0:0:0:0:1 - - [16/Dec/2014:17:29:39 +0900] "GET /PaintBBS/lib/jquery.simple-color-picker.js HTTP/1.1" 404 1103
0:0:0:0:0:0:0:1 - - [16/Dec/2014:17:29:39 +0900] "GET /PaintBBS/lib/jquery-ui.min.js HTTP/1.1" 404 1077
0:0:0:0:0:0:0:1 - - [16/Dec/2014:17:29:39 +0900] "GET /PaintBBS/js/paint.js HTTP/1.1" 404 1059
0:0:0:0:0:0:0:1 - - [16/Dec/2014:17:31:06 +0900] "GET /PaintBBS/paint.jsp HTTP/1.1" 200 1111
0:0:0:0:0:0:0:1 - - [16/Dec/2014:17:31:06 +0900] "GET /PaintBBS/lib/jquery-ui.min.css HTTP/1.1" 404 1079
0:0:0:0:0:0:0:1 - - [16/Dec/2014:17:31:06 +0900] "GET /PaintBBS/lib/jquery.simple-color-picker.css HTTP/1.1" 404 1105
0:0:0:0:0:0:0:1 - - [16/Dec/2014:17:31:06 +0900] "GET /PaintBBS/lib/jquery.simple-color-picker.js HTTP/1.1" 404 1103
0:0:0:0:0:0:0:1 - - [16/Dec/2014:17:31:06 +0900] "GET /PaintBBS/lib/jquery-2.1.1.min.js HTTP/1.1" 404 1083
0:0:0:0:0:0:0:1 - - [16/Dec/2014:17:31:06 +0900] "GET /PaintBBS/lib/jquery-ui.min.js HTTP/1.1" 404 1077
0:0:0:0:0:0:0:1 - - [16/Dec/2014:17:31:06 +0900] "GET /PaintBBS/js/paint.js HTTP/1.1" 404 1059
127.0.0.1 - - [16/Dec/2014:17:34:35 +0900] "GET / HTTP/1.1" 404 1019
0:0:0:0:0:0:0:1 - - [16/Dec/2014:17:34:35 +0900] "GET /PaintBBS/index.jsp HTTP/1.1" 404 1055
0:0:0:0:0:0:0:1 - - [16/Dec/2014:17:36:48 +0900] "GET /PaintBBS/index.jsp HTTP/1.1" 404 1055
0:0:0:0:0:0:0:1 - - [16/Dec/2014:17:36:55 +0900] "GET /PaintBBS/WEB-INF/jsp/ForwardIndex.jsp HTTP/1.1" 404 1017
127.0.0.1 - - [16/Dec/2014:17:37:29 +0900] "GET / HTTP/1.1" 404 1019
0:0:0:0:0:0:0:1 - - [16/Dec/2014:17:37:30 +0900] "GET /PaintBBS/paint.jsp HTTP/1.1" 200 1111
0:0:0:0:0:0:0:1 - - [16/Dec/2014:17:37:30 +0900] "GET /PaintBBS/lib/jquery-ui.min.css HTTP/1.1" 404 1079
0:0:0:0:0:0:0:1 - - [16/Dec/2014:17:37:30 +0900] "GET /PaintBBS/lib/jquery.simple-color-picker.css HTTP/1.1" 404 1105
0:0:0:0:0:0:0:1 - - [16/Dec/2014:17:37:30 +0900] "GET /PaintBBS/lib/jquery-2.1.1.min.js HTTP/1.1" 404 1083
0:0:0:0:0:0:0:1 - - [16/Dec/2014:17:37:30 +0900] "GET /PaintBBS/lib/jquery-ui.min.js HTTP/1.1" 404 1077
0:0:0:0:0:0:0:1 - - [16/Dec/2014:17:37:30 +0900] "GET /PaintBBS/lib/jquery.simple-color-picker.js HTTP/1.1" 404 1103
0:0:0:0:0:0:0:1 - - [16/Dec/2014:17:37:30 +0900] "GET /PaintBBS/js/paint.js HTTP/1.1" 404 1059
127.0.0.1 - - [16/Dec/2014:17:38:30 +0900] "GET / HTTP/1.1" 404 1019
0:0:0:0:0:0:0:1 - - [16/Dec/2014:17:38:30 +0900] "GET /PaintBBS/paint.jsp HTTP/1.1" 200 1111
0:0:0:0:0:0:0:1 - - [16/Dec/2014:17:38:30 +0900] "GET /PaintBBS/lib/jquery-ui.min.css HTTP/1.1" 404 1079
0:0:0:0:0:0:0:1 - - [16/Dec/2014:17:38:30 +0900] "GET /PaintBBS/lib/jquery.simple-color-picker.css HTTP/1.1" 404 1105
0:0:0:0:0:0:0:1 - - [16/Dec/2014:17:38:30 +0900] "GET /PaintBBS/lib/jquery-2.1.1.min.js HTTP/1.1" 404 1083
0:0:0:0:0:0:0:1 - - [16/Dec/2014:17:38:30 +0900] "GET /PaintBBS/lib/jquery.simple-color-picker.js HTTP/1.1" 404 1103
0:0:0:0:0:0:0:1 - - [16/Dec/2014:17:38:30 +0900] "GET /PaintBBS/lib/jquery-ui.min.js HTTP/1.1" 404 1077
0:0:0:0:0:0:0:1 - - [16/Dec/2014:17:38:30 +0900] "GET /PaintBBS/js/paint.js HTTP/1.1" 404 1059
0:0:0:0:0:0:0:1 - - [16/Dec/2014:17:38:34 +0900] "GET /PaintBBS/paint.jsp HTTP/1.1" 200 1111
0:0:0:0:0:0:0:1 - - [16/Dec/2014:17:38:34 +0900] "GET /PaintBBS/lib/jquery-ui.min.css HTTP/1.1" 404 1079
0:0:0:0:0:0:0:1 - - [16/Dec/2014:17:38:34 +0900] "GET /PaintBBS/lib/jquery.simple-color-picker.css HTTP/1.1" 404 1105
0:0:0:0:0:0:0:1 - - [16/Dec/2014:17:38:34 +0900] "GET /PaintBBS/lib/jquery.simple-color-picker.js HTTP/1.1" 404 1103
0:0:0:0:0:0:0:1 - - [16/Dec/2014:17:38:34 +0900] "GET /PaintBBS/lib/jquery-2.1.1.min.js HTTP/1.1" 404 1083
0:0:0:0:0:0:0:1 - - [16/Dec/2014:17:38:34 +0900] "GET /PaintBBS/js/paint.js HTTP/1.1" 404 1059
0:0:0:0:0:0:0:1 - - [16/Dec/2014:17:38:34 +0900] "GET /PaintBBS/lib/jquery-ui.min.js HTTP/1.1" 404 1077
0:0:0:0:0:0:0:1 - - [16/Dec/2014:17:38:36 +0900] "GET /PaintBBS/paint.jsp HTTP/1.1" 200 1111
0:0:0:0:0:0:0:1 - - [16/Dec/2014:17:38:36 +0900] "GET /PaintBBS/lib/jquery.simple-color-picker.css HTTP/1.1" 404 1105
0:0:0:0:0:0:0:1 - - [16/Dec/2014:17:38:36 +0900] "GET /PaintBBS/lib/jquery-ui.min.css HTTP/1.1" 404 1079
0:0:0:0:0:0:0:1 - - [16/Dec/2014:17:38:36 +0900] "GET /PaintBBS/lib/jquery.simple-color-picker.js HTTP/1.1" 404 1103
0:0:0:0:0:0:0:1 - - [16/Dec/2014:17:38:36 +0900] "GET /PaintBBS/lib/jquery-2.1.1.min.js HTTP/1.1" 404 1083
0:0:0:0:0:0:0:1 - - [16/Dec/2014:17:38:36 +0900] "GET /PaintBBS/js/paint.js HTTP/1.1" 404 1059
0:0:0:0:0:0:0:1 - - [16/Dec/2014:17:38:36 +0900] "GET /PaintBBS/lib/jquery-ui.min.js HTTP/1.1" 404 1077
127.0.0.1 - - [16/Dec/2014:17:41:08 +0900] "GET / HTTP/1.1" 404 1019
0:0:0:0:0:0:0:1 - - [16/Dec/2014:17:41:08 +0900] "GET /PaintBBS/index.jsp HTTP/1.1" 404 1059
127.0.0.1 - - [16/Dec/2014:17:42:21 +0900] "GET / HTTP/1.1" 404 1019
0:0:0:0:0:0:0:1 - - [16/Dec/2014:17:42:21 +0900] "GET /PaintBBS/paint.jsp HTTP/1.1" 200 1111
0:0:0:0:0:0:0:1 - - [16/Dec/2014:17:42:21 +0900] "GET /PaintBBS/lib/jquery-ui.min.css HTTP/1.1" 404 1079
0:0:0:0:0:0:0:1 - - [16/Dec/2014:17:42:21 +0900] "GET /PaintBBS/lib/jquery.simple-color-picker.css HTTP/1.1" 404 1105
0:0:0:0:0:0:0:1 - - [16/Dec/2014:17:42:21 +0900] "GET /PaintBBS/lib/jquery-2.1.1.min.js HTTP/1.1" 404 1083
0:0:0:0:0:0:0:1 - - [16/Dec/2014:17:42:21 +0900] "GET /PaintBBS/lib/jquery.simple-color-picker.js HTTP/1.1" 404 1103
0:0:0:0:0:0:0:1 - - [16/Dec/2014:17:42:21 +0900] "GET /PaintBBS/lib/jquery-ui.min.js HTTP/1.1" 404 1077
0:0:0:0:0:0:0:1 - - [16/Dec/2014:17:42:21 +0900] "GET /PaintBBS/js/paint.js HTTP/1.1" 404 1059
0:0:0:0:0:0:0:1 - - [16/Dec/2014:17:45:00 +0900] "GET /PaintBBS/paint.jsp HTTP/1.1" 200 1111
0:0:0:0:0:0:0:1 - - [16/Dec/2014:17:45:00 +0900] "GET /PaintBBS/lib/jquery-ui.min.css HTTP/1.1" 404 1079
0:0:0:0:0:0:0:1 - - [16/Dec/2014:17:45:00 +0900] "GET /PaintBBS/lib/jquery.simple-color-picker.css HTTP/1.1" 404 1105
0:0:0:0:0:0:0:1 - - [16/Dec/2014:17:45:01 +0900] "GET /PaintBBS/lib/jquery-2.1.1.min.js HTTP/1.1" 404 1083
0:0:0:0:0:0:0:1 - - [16/Dec/2014:17:45:01 +0900] "GET /PaintBBS/lib/jquery.simple-color-picker.js HTTP/1.1" 404 1103
0:0:0:0:0:0:0:1 - - [16/Dec/2014:17:45:01 +0900] "GET /PaintBBS/lib/jquery-ui.min.js HTTP/1.1" 404 1077
0:0:0:0:0:0:0:1 - - [16/Dec/2014:17:45:01 +0900] "GET /PaintBBS/js/paint.js HTTP/1.1" 404 1059
0:0:0:0:0:0:0:1 - - [16/Dec/2014:17:47:35 +0900] "GET /PaintBBS/paint.jsp HTTP/1.1" 200 1111
0:0:0:0:0:0:0:1 - - [16/Dec/2014:17:47:35 +0900] "GET /PaintBBS/lib/jquery-ui.min.css HTTP/1.1" 404 1079
0:0:0:0:0:0:0:1 - - [16/Dec/2014:17:47:35 +0900] "GET /PaintBBS/lib/jquery.simple-color-picker.css HTTP/1.1" 404 1105
0:0:0:0:0:0:0:1 - - [16/Dec/2014:17:47:36 +0900] "GET /PaintBBS/lib/jquery.simple-color-picker.js HTTP/1.1" 404 1103
0:0:0:0:0:0:0:1 - - [16/Dec/2014:17:47:36 +0900] "GET /PaintBBS/lib/jquery-2.1.1.min.js HTTP/1.1" 404 1083
0:0:0:0:0:0:0:1 - - [16/Dec/2014:17:47:36 +0900] "GET /PaintBBS/js/paint.js HTTP/1.1" 404 1059
0:0:0:0:0:0:0:1 - - [16/Dec/2014:17:47:36 +0900] "GET /PaintBBS/lib/jquery-ui.min.js HTTP/1.1" 404 1077
0:0:0:0:0:0:0:1 - - [16/Dec/2014:17:49:47 +0900] "GET /PaintBBS/paint.jsp HTTP/1.1" 200 1111
0:0:0:0:0:0:0:1 - - [16/Dec/2014:17:49:47 +0900] "GET /PaintBBS/lib/jquery-ui.min.css HTTP/1.1" 404 1079
0:0:0:0:0:0:0:1 - - [16/Dec/2014:17:49:47 +0900] "GET /PaintBBS/lib/jquery.simple-color-picker.css HTTP/1.1" 404 1105
0:0:0:0:0:0:0:1 - - [16/Dec/2014:17:49:47 +0900] "GET /PaintBBS/lib/jquery.simple-color-picker.js HTTP/1.1" 404 1103
0:0:0:0:0:0:0:1 - - [16/Dec/2014:17:49:47 +0900] "GET /PaintBBS/lib/jquery-2.1.1.min.js HTTP/1.1" 404 1083
0:0:0:0:0:0:0:1 - - [16/Dec/2014:17:49:47 +0900] "GET /PaintBBS/lib/jquery-ui.min.js HTTP/1.1" 404 1077
0:0:0:0:0:0:0:1 - - [16/Dec/2014:17:49:47 +0900] "GET /PaintBBS/js/paint.js HTTP/1.1" 404 1059
0:0:0:0:0:0:0:1 - - [16/Dec/2014:17:51:21 +0900] "GET /PaintBBS/ HTTP/1.1" 500 5179
0:0:0:0:0:0:0:1 - - [16/Dec/2014:17:52:26 +0900] "GET /PaintBBS/ HTTP/1.1" 500 3934
0:0:0:0:0:0:0:1 - - [16/Dec/2014:17:52:29 +0900] "GET /PaintBBS/ HTTP/1.1" 500 3934
0:0:0:0:0:0:0:1 - - [16/Dec/2014:17:52:30 +0900] "GET /PaintBBS/ HTTP/1.1" 500 3934
0:0:0:0:0:0:0:1 - - [16/Dec/2014:17:52:30 +0900] "GET /PaintBBS/ HTTP/1.1" 500 3934
0:0:0:0:0:0:0:1 - - [16/Dec/2014:17:52:31 +0900] "GET /PaintBBS/ HTTP/1.1" 500 3934
0:0:0:0:0:0:0:1 - - [16/Dec/2014:17:52:34 +0900] "GET /PaintBBS/paint.jsp HTTP/1.1" 200 1111
0:0:0:0:0:0:0:1 - - [16/Dec/2014:17:52:34 +0900] "GET /PaintBBS/lib/jquery-ui.min.css HTTP/1.1" 404 1079
0:0:0:0:0:0:0:1 - - [16/Dec/2014:17:52:34 +0900] "GET /PaintBBS/lib/jquery.simple-color-picker.css HTTP/1.1" 404 1105
0:0:0:0:0:0:0:1 - - [16/Dec/2014:17:52:34 +0900] "GET /PaintBBS/lib/jquery.simple-color-picker.js HTTP/1.1" 404 1103
0:0:0:0:0:0:0:1 - - [16/Dec/2014:17:52:34 +0900] "GET /PaintBBS/lib/jquery-2.1.1.min.js HTTP/1.1" 404 1083
0:0:0:0:0:0:0:1 - - [16/Dec/2014:17:52:34 +0900] "GET /PaintBBS/lib/jquery-ui.min.js HTTP/1.1" 404 1077
0:0:0:0:0:0:0:1 - - [16/Dec/2014:17:52:34 +0900] "GET /PaintBBS/js/paint.js HTTP/1.1" 404 1059
0:0:0:0:0:0:0:1 - - [16/Dec/2014:17:52:35 +0900] "GET /PaintBBS/paint.jsp HTTP/1.1" 200 1111
0:0:0:0:0:0:0:1 - - [16/Dec/2014:17:52:35 +0900] "GET /PaintBBS/lib/jquery.simple-color-picker.css HTTP/1.1" 404 1105
0:0:0:0:0:0:0:1 - - [16/Dec/2014:17:52:35 +0900] "GET /PaintBBS/lib/jquery-ui.min.css HTTP/1.1" 404 1079
0:0:0:0:0:0:0:1 - - [16/Dec/2014:17:52:35 +0900] "GET /PaintBBS/lib/jquery.simple-color-picker.js HTTP/1.1" 404 1103
0:0:0:0:0:0:0:1 - - [16/Dec/2014:17:52:35 +0900] "GET /PaintBBS/lib/jquery-2.1.1.min.js HTTP/1.1" 404 1083
0:0:0:0:0:0:0:1 - - [16/Dec/2014:17:52:35 +0900] "GET /PaintBBS/lib/jquery-ui.min.js HTTP/1.1" 404 1077
0:0:0:0:0:0:0:1 - - [16/Dec/2014:17:52:35 +0900] "GET /PaintBBS/js/paint.js HTTP/1.1" 404 1059
0:0:0:0:0:0:0:1 - - [16/Dec/2014:17:52:35 +0900] "GET /PaintBBS/paint.jsp HTTP/1.1" 200 1111
0:0:0:0:0:0:0:1 - - [16/Dec/2014:17:52:35 +0900] "GET /PaintBBS/lib/jquery.simple-color-picker.css HTTP/1.1" 404 1105
0:0:0:0:0:0:0:1 - - [16/Dec/2014:17:52:35 +0900] "GET /PaintBBS/lib/jquery-ui.min.css HTTP/1.1" 404 1079
0:0:0:0:0:0:0:1 - - [16/Dec/2014:17:52:35 +0900] "GET /PaintBBS/lib/jquery-2.1.1.min.js HTTP/1.1" 404 1083
0:0:0:0:0:0:0:1 - - [16/Dec/2014:17:52:35 +0900] "GET /PaintBBS/lib/jquery-ui.min.js HTTP/1.1" 404 1077
0:0:0:0:0:0:0:1 - - [16/Dec/2014:17:52:35 +0900] "GET /PaintBBS/lib/jquery.simple-color-picker.js HTTP/1.1" 404 1103
0:0:0:0:0:0:0:1 - - [16/Dec/2014:17:52:35 +0900] "GET /PaintBBS/js/paint.js HTTP/1.1" 404 1059
0:0:0:0:0:0:0:1 - - [16/Dec/2014:17:52:35 +0900] "GET /PaintBBS/paint.jsp HTTP/1.1" 200 1111
0:0:0:0:0:0:0:1 - - [16/Dec/2014:17:52:35 +0900] "GET /PaintBBS/lib/jquery-ui.min.css HTTP/1.1" 404 1079
0:0:0:0:0:0:0:1 - - [16/Dec/2014:17:52:35 +0900] "GET /PaintBBS/lib/jquery.simple-color-picker.js HTTP/1.1" 404 1103
0:0:0:0:0:0:0:1 - - [16/Dec/2014:17:52:35 +0900] "GET /PaintBBS/lib/jquery.simple-color-picker.css HTTP/1.1" 404 1105
0:0:0:0:0:0:0:1 - - [16/Dec/2014:17:52:35 +0900] "GET /PaintBBS/lib/jquery-2.1.1.min.js HTTP/1.1" 404 1083
0:0:0:0:0:0:0:1 - - [16/Dec/2014:17:52:35 +0900] "GET /PaintBBS/lib/jquery-ui.min.js HTTP/1.1" 404 1077
0:0:0:0:0:0:0:1 - - [16/Dec/2014:17:52:35 +0900] "GET /PaintBBS/js/paint.js HTTP/1.1" 404 1059
0:0:0:0:0:0:0:1 - - [16/Dec/2014:17:52:35 +0900] "GET /PaintBBS/paint.jsp HTTP/1.1" 200 1111
0:0:0:0:0:0:0:1 - - [16/Dec/2014:17:52:35 +0900] "GET /PaintBBS/lib/jquery-ui.min.css HTTP/1.1" 404 1079
0:0:0:0:0:0:0:1 - - [16/Dec/2014:17:52:35 +0900] "GET /PaintBBS/lib/jquery.simple-color-picker.css HTTP/1.1" 404 1105
0:0:0:0:0:0:0:1 - - [16/Dec/2014:17:52:35 +0900] "GET /PaintBBS/lib/jquery-2.1.1.min.js HTTP/1.1" 404 1083
0:0:0:0:0:0:0:1 - - [16/Dec/2014:17:52:35 +0900] "GET /PaintBBS/lib/jquery.simple-color-picker.js HTTP/1.1" 404 1103
0:0:0:0:0:0:0:1 - - [16/Dec/2014:17:52:35 +0900] "GET /PaintBBS/lib/jquery-ui.min.js HTTP/1.1" 404 1077
0:0:0:0:0:0:0:1 - - [16/Dec/2014:17:52:35 +0900] "GET /PaintBBS/js/paint.js HTTP/1.1" 404 1059
0:0:0:0:0:0:0:1 - - [16/Dec/2014:17:52:36 +0900] "GET /PaintBBS/paint.jsp HTTP/1.1" 200 1111
0:0:0:0:0:0:0:1 - - [16/Dec/2014:17:52:36 +0900] "GET /PaintBBS/lib/jquery.simple-color-picker.css HTTP/1.1" 404 1105
0:0:0:0:0:0:0:1 - - [16/Dec/2014:17:52:36 +0900] "GET /PaintBBS/lib/jquery-ui.min.css HTTP/1.1" 404 1079
0:0:0:0:0:0:0:1 - - [16/Dec/2014:17:52:36 +0900] "GET /PaintBBS/lib/jquery-2.1.1.min.js HTTP/1.1" 404 1083
0:0:0:0:0:0:0:1 - - [16/Dec/2014:17:52:36 +0900] "GET /PaintBBS/lib/jquery.simple-color-picker.js HTTP/1.1" 404 1103
0:0:0:0:0:0:0:1 - - [16/Dec/2014:17:52:36 +0900] "GET /PaintBBS/js/paint.js HTTP/1.1" 404 1059
0:0:0:0:0:0:0:1 - - [16/Dec/2014:17:52:36 +0900] "GET /PaintBBS/lib/jquery-ui.min.js HTTP/1.1" 404 1077
0:0:0:0:0:0:0:1 - - [16/Dec/2014:17:52:36 +0900] "GET /PaintBBS/paint.jsp HTTP/1.1" 200 1111
0:0:0:0:0:0:0:1 - - [16/Dec/2014:17:52:36 +0900] "GET /PaintBBS/lib/jquery-ui.min.css HTTP/1.1" 404 1079
0:0:0:0:0:0:0:1 - - [16/Dec/2014:17:52:36 +0900] "GET /PaintBBS/lib/jquery.simple-color-picker.css HTTP/1.1" 404 1105
0:0:0:0:0:0:0:1 - - [16/Dec/2014:17:52:36 +0900] "GET /PaintBBS/lib/jquery-2.1.1.min.js HTTP/1.1" 404 1083
0:0:0:0:0:0:0:1 - - [16/Dec/2014:17:52:36 +0900] "GET /PaintBBS/lib/jquery.simple-color-picker.js HTTP/1.1" 404 1103
0:0:0:0:0:0:0:1 - - [16/Dec/2014:17:52:36 +0900] "GET /PaintBBS/lib/jquery-ui.min.js HTTP/1.1" 404 1077
0:0:0:0:0:0:0:1 - - [16/Dec/2014:17:52:36 +0900] "GET /PaintBBS/js/paint.js HTTP/1.1" 404 1059
0:0:0:0:0:0:0:1 - - [16/Dec/2014:17:52:37 +0900] "GET /PaintBBS/paint.jsp HTTP/1.1" 200 1111
0:0:0:0:0:0:0:1 - - [16/Dec/2014:17:52:37 +0900] "GET /PaintBBS/lib/jquery-ui.min.css HTTP/1.1" 404 1079
0:0:0:0:0:0:0:1 - - [16/Dec/2014:17:52:37 +0900] "GET /PaintBBS/lib/jquery.simple-color-picker.css HTTP/1.1" 404 1105
0:0:0:0:0:0:0:1 - - [16/Dec/2014:17:52:37 +0900] "GET /PaintBBS/lib/jquery.simple-color-picker.js HTTP/1.1" 404 1103
0:0:0:0:0:0:0:1 - - [16/Dec/2014:17:52:37 +0900] "GET /PaintBBS/lib/jquery-2.1.1.min.js HTTP/1.1" 404 1083
0:0:0:0:0:0:0:1 - - [16/Dec/2014:17:52:37 +0900] "GET /PaintBBS/lib/jquery-ui.min.js HTTP/1.1" 404 1077
0:0:0:0:0:0:0:1 - - [16/Dec/2014:17:52:37 +0900] "GET /PaintBBS/js/paint.js HTTP/1.1" 404 1059
0:0:0:0:0:0:0:1 - - [16/Dec/2014:17:52:38 +0900] "GET /PaintBBS/paint.jsp HTTP/1.1" 200 1111
0:0:0:0:0:0:0:1 - - [16/Dec/2014:17:52:38 +0900] "GET /PaintBBS/lib/jquery-ui.min.css HTTP/1.1" 404 1079
0:0:0:0:0:0:0:1 - - [16/Dec/2014:17:52:38 +0900] "GET /PaintBBS/lib/jquery.simple-color-picker.css HTTP/1.1" 404 1105
0:0:0:0:0:0:0:1 - - [16/Dec/2014:17:52:38 +0900] "GET /PaintBBS/lib/jquery.simple-color-picker.js HTTP/1.1" 404 1103
0:0:0:0:0:0:0:1 - - [16/Dec/2014:17:52:38 +0900] "GET /PaintBBS/js/paint.js HTTP/1.1" 404 1059
0:0:0:0:0:0:0:1 - - [16/Dec/2014:17:52:38 +0900] "GET /PaintBBS/lib/jquery-2.1.1.min.js HTTP/1.1" 404 1083
0:0:0:0:0:0:0:1 - - [16/Dec/2014:17:52:38 +0900] "GET /PaintBBS/lib/jquery-ui.min.js HTTP/1.1" 404 1077
0:0:0:0:0:0:0:1 - - [16/Dec/2014:17:52:39 +0900] "GET /PaintBBS/paint.jsp HTTP/1.1" 200 1111
0:0:0:0:0:0:0:1 - - [16/Dec/2014:17:52:39 +0900] "GET /PaintBBS/lib/jquery-ui.min.css HTTP/1.1" 404 1079
0:0:0:0:0:0:0:1 - - [16/Dec/2014:17:52:39 +0900] "GET /PaintBBS/lib/jquery.simple-color-picker.css HTTP/1.1" 404 1105
0:0:0:0:0:0:0:1 - - [16/Dec/2014:17:52:39 +0900] "GET /PaintBBS/lib/jquery.simple-color-picker.js HTTP/1.1" 404 1103
0:0:0:0:0:0:0:1 - - [16/Dec/2014:17:52:39 +0900] "GET /PaintBBS/lib/jquery-2.1.1.min.js HTTP/1.1" 404 1083
0:0:0:0:0:0:0:1 - - [16/Dec/2014:17:52:39 +0900] "GET /PaintBBS/js/paint.js HTTP/1.1" 404 1059
0:0:0:0:0:0:0:1 - - [16/Dec/2014:17:52:39 +0900] "GET /PaintBBS/lib/jquery-ui.min.js HTTP/1.1" 404 1077
0:0:0:0:0:0:0:1 - - [16/Dec/2014:17:52:40 +0900] "POST /PaintBBS/PostPaint HTTP/1.1" 500 2433
0:0:0:0:0:0:0:1 - - [16/Dec/2014:17:53:29 +0900] "GET /PaintBBS/js/paint.js HTTP/1.1" 404 1059
0:0:0:0:0:0:0:1 - - [16/Dec/2014:17:58:49 +0900] "GET /PaintBBS/paint.jsp HTTP/1.1" 500 4359
0:0:0:0:0:0:0:1 - - [16/Dec/2014:17:58:54 +0900] "GET /PaintBBS/paint.jsp HTTP/1.1" 500 4359
0:0:0:0:0:0:0:1 - - [16/Dec/2014:17:59:18 +0900] "GET /PaintBBS/paint.jsp HTTP/1.1" 500 4359
0:0:0:0:0:0:0:1 - - [16/Dec/2014:17:59:40 +0900] "GET /PaintBBS/WEB-INF/jsp/ForwardIndex.jsp HTTP/1.1" 404 1017
0:0:0:0:0:0:0:1 - - [16/Dec/2014:17:59:42 +0900] "GET /PaintBBS/WEB-INF/jsp/ForwardIndex.jsp HTTP/1.1" 404 1017
0:0:0:0:0:0:0:1 - - [16/Dec/2014:17:59:44 +0900] "GET /PaintBBS/WEB-INF/jsp/ForwardIndex.jsp HTTP/1.1" 404 1017
0:0:0:0:0:0:0:1 - - [16/Dec/2014:17:59:44 +0900] "GET /PaintBBS/WEB-INF/jsp/ForwardIndex.jsp HTTP/1.1" 404 1017
0:0:0:0:0:0:0:1 - - [16/Dec/2014:17:59:45 +0900] "GET /PaintBBS/WEB-INF/jsp/ForwardIndex.jsp HTTP/1.1" 404 1017
0:0:0:0:0:0:0:1 - - [16/Dec/2014:18:07:07 +0900] "GET /PaintBBS/paint.jsp HTTP/1.1" 500 4359
0:0:0:0:0:0:0:1 - - [16/Dec/2014:18:33:32 +0900] "GET /PaintBBS/paint.jsp HTTP/1.1" 500 4359
0:0:0:0:0:0:0:1 - - [16/Dec/2014:18:34:13 +0900] "GET /PaintBBS/paint.jsp HTTP/1.1" 500 4359
0:0:0:0:0:0:0:1 - - [16/Dec/2014:18:34:40 +0900] "GET /PaintBBS/paint.jsp HTTP/1.1" 500 4359
0:0:0:0:0:0:0:1 - - [16/Dec/2014:18:34:42 +0900] "GET /PaintBBS/paint.jsp HTTP/1.1" 500 4359
0:0:0:0:0:0:0:1 - - [16/Dec/2014:18:34:43 +0900] "GET /PaintBBS/paint.jsp HTTP/1.1" 500 4359
0:0:0:0:0:0:0:1 - - [16/Dec/2014:18:34:55 +0900] "GET /PaintBBS/paint.jsp HTTP/1.1" 500 4359
0:0:0:0:0:0:0:1 - - [16/Dec/2014:18:34:57 +0900] "GET /PaintBBS/paint.jsp HTTP/1.1" 500 4359
0:0:0:0:0:0:0:1 - - [16/Dec/2014:18:34:57 +0900] "GET /PaintBBS/paint.jsp HTTP/1.1" 500 4359
0:0:0:0:0:0:0:1 - - [16/Dec/2014:18:35:12 +0900] "GET /PaintBBS/paint.jsp HTTP/1.1" 500 4359
