127.0.0.1 - - [30/Dec/2014:14:51:11 +0900] "GET / HTTP/1.1" 404 1019
0:0:0:0:0:0:0:1 - - [30/Dec/2014:14:51:12 +0900] "GET /PaintBBS/WEB-INF/classes/jp/co/us717/model/DeleteOldDataBean.java HTTP/1.1" 404 1017
127.0.0.1 - - [30/Dec/2014:15:20:19 +0900] "GET / HTTP/1.1" 404 1019
0:0:0:0:0:0:0:1 - - [30/Dec/2014:15:20:19 +0900] "GET /PaintBBS/WEB-INF/classes/jp/co/us717/model/DeleteOldDataBean.java HTTP/1.1" 404 1017
