<?xml version="1.0" encoding="UTF-8"?>
<session version="1.0">
<refactoring comment="リソース &apos;Servers&apos; を削除" deleteContents="false" description="リソース &apos;Servers&apos; を削除" element1="/Servers" flags="7" id="org.eclipse.ltk.core.refactoring.delete.resources" resources="1" stamp="1414144361746"/>
</session>